*PADS-PCB*
*NET*
*SIGNAL* W_TMS
 J16.6 J17.5 J21.137
*SIGNAL* W_TDO
 J11.5 J14.5 J15.5 J21.133
*SIGNAL* W_TDI
 J10.6 J12.5 J21.135
*SIGNAL* W_TCK
 J18.5 J19.6 J21.139
*SIGNAL* VCCO_PS
 IC8.1 IC8.8 J3.147 J3.148 R20.1 SW5.1 SW5.3 SW5.4 SW5.7 SW6.1 SW6.3 SW6.4
 SW6.7 SW7.1 SW7.2 SW8.1 SW8.2 U6.1
*SIGNAL* VCC_USB
 C24.2 FB3.1 P.1
*SIGNAL* VBATT
 BT1.2 C61.2 U11.4 U11.5
*SIGNAL* VADJ_POK
 C98.2 C100.2 C101.2 IC5.8 IC9.6 IC9.7 R74.I2 R100.2 R102.2 TP14.1
*SIGNAL* VADJ
 C94.2 C96.2 J1.90 J1.120 J3.15 J3.16 J3.43 J3.44 J4.58 J4.69 J4.105 J4.106
 R74.I1 U14.1 U14.8 U15.1 U15.8
*SIGNAL* USB_GND
 C24.1 FB4.1 P.5
*SIGNAL* USB_FILTR
 C25.2 C26.2 C27.2 C35.2 C36.2 FB3.2 IC10.1 IC10.19 IC10.23 R21.2 R107.2
 U6.14 U7.6
*SIGNAL* USB_D_P
 IC10.14 P.3 U7.2
*SIGNAL* USB_D_N
 IC10.15 P.2 U7.1
*SIGNAL* UART_1_TXD
 J3.126 U6.5
*SIGNAL* UART_1_RXD
 J3.128 U6.4
*SIGNAL* UART_0_TXD
 J3.112 U6.3
*SIGNAL* UART_0_RXD
 J3.110 U6.2
*SIGNAL* TXLED#
 D15.2 IC10.25
*SIGNAL* TxD_1
 IC10.6 U6.11
*SIGNAL* TxD_0
 IC10.30 U6.13
*SIGNAL* TMSO
 IC2.6 J17.2 J17.4 J17.6 J17.8
*SIGNAL* TDO_BO
 IC1.6 J15.2 J15.4 J15.6 J15.8
*SIGNAL* TDO_BI
 IC1.2 J14.2 J14.4 J14.6 J14.8 J14.10
*SIGNAL* TCKO
 IC2.3 J18.2 J18.4 J18.6 J18.8
*SIGNAL* SRST_B
 C79.2 J2.96 R42.1 SW4.1 SW4.2
*SIGNAL* SOM_TMS
 IC2.2 J2.126 J16.1 J16.3 J16.5 J16.7 J16.9
*SIGNAL* SOM_TDO
 J2.124 J11.1 J13.3
*SIGNAL* SOM_TDI
 J2.122 J10.1 J10.3 J10.5 J10.7 J10.9 J13.1
*SIGNAL* SOM_TCK
 IC2.5 J2.120 J19.1 J19.3 J19.5 J19.7 J19.9
*SIGNAL* SI_PLL_1V8
 J3.151 TP7.1
*SIGNAL* SD_DETECT
 J3.103 J6.9 R17.1
*SIGNAL* SD_DAT3
 J3.111 U3.3
*SIGNAL* SD_DAT2
 J3.109 U3.1
*SIGNAL* SD_DAT1
 J3.107 U3.7
*SIGNAL* SD_DAT0
 J3.105 U3.6
*SIGNAL* SD_CMD
 J3.113 U3.4
*SIGNAL* SD_CLK
 J3.114 U3.9
*SIGNAL* S_TMS
 J16.8 J17.3 J23.137
*SIGNAL* S_TDO
 J11.7 J14.7 J15.3 J23.133
*SIGNAL* S_TDI
 J10.8 J12.3 J23.135
*SIGNAL* S_TCK
 J18.3 J19.8 J23.139
*SIGNAL* RXLED#
 DS3.2 IC10.26
*SIGNAL* RxD_1
 IC10.5 U6.10
*SIGNAL* RxD_0
 IC10.2 U6.12
*SIGNAL* Rfbb
 IC9.5 R100.1 R101.1 SW9.1 SW9.2 SW9.3 SW9.4
*SIGNAL* PUDC_B
 J2.127 R8.1
*SIGNAL* PSBATT
 D5.3 J2.125 TP11.1
*SIGNAL* PS_MODE3
 J2.103 R9.1 SW1.5
*SIGNAL* PS_MODE2
 J2.105 R12.1 SW1.6
*SIGNAL* PS_MODE1
 J2.107 R11.1 SW1.7
*SIGNAL* PS_MODE0
 J2.109 R10.1 SW1.8
*SIGNAL* PRSNT_X4
 J8.B31 J9.3
*SIGNAL* PRSNT_X1
 J8.B17 J9.5
*SIGNAL* PRSNT
 J8.A1 J9.2 J9.4 J9.6
*SIGNAL* PROG_B
 C78.2 J2.100 R37.1 SW3.1 SW3.2
*SIGNAL* PMOD1_3
 P5.8 U15.10
*SIGNAL* PMOD1_2
 P5.6 U15.11
*SIGNAL* PMOD1_1
 P5.4 U15.12
*SIGNAL* PMOD1_0
 P5.2 U15.13
*SIGNAL* PMOD0_3
 P5.7 U14.10
*SIGNAL* PMOD0_2
 P5.5 U14.11
*SIGNAL* PMOD0_1
 P5.3 U14.12
*SIGNAL* PMOD0_0
 P5.1 U14.13
*SIGNAL* PMBUS_SDA
 IC3.4 IC4.2 IC4.4 IC5.4 IC6.4 P3.4 R80.1
*SIGNAL* PMBUS_SCL
 IC3.5 IC4.5 IC5.5 IC6.2 IC6.5 P3.3 R79.1
*SIGNAL* PLL_SEL1
 J2.87 J3.121 R62.2
*SIGNAL* PLL_SEL0
 J2.93 J3.123 R61.2
*SIGNAL* PLL_RST
 J2.89 J3.117 R64.1
*SIGNAL* PLL_LOLn
 J2.85 J3.119 R63.1
*SIGNAL* PLL_3V3
 C20.2 J3.152 L1.1 TP1.1
*SIGNAL* PL_SENSE_P
 C83.2 IC6.10 R78.2
*SIGNAL* PL_SENSE_N
 C83.1 IC6.9 R76.2
*SIGNAL* PHY_MDI3_P
 T1.8 U1.18
*SIGNAL* PHY_MDI3_N
 T1.9 U1.17
*SIGNAL* PHY_MDI2_P
 T1.6 U1.22
*SIGNAL* PHY_MDI2_N
 T1.7 U1.21
*SIGNAL* PHY_MDI1_P
 T1.4 U1.24
*SIGNAL* PHY_MDI1_N
 T1.5 U1.23
*SIGNAL* PHY_MDI0_P
 T1.2 U1.28
*SIGNAL* PHY_MDI0_N
 T1.3 U1.27
*SIGNAL* PHY_LED2
 T1.14 U1.12
*SIGNAL* PHY_LED1
 T1.13 U1.13
*SIGNAL* PHY_LED0
 T1.11 U1.14
*SIGNAL* PG_PSGT
 J2.82 P2.14 R46.1 R66.1
*SIGNAL* PG_PLL_1V8
 J2.80 P2.20 R43.1
*SIGNAL* PG_PL
 J2.104 P2.10 R48.1
*SIGNAL* PG_GT_R
 J2.91 P2.16 R45.1
*SIGNAL* PG_GT_L
 J2.97 P2.18 R44.1
*SIGNAL* PG_FPD
 J2.110 P2.8 R49.1
*SIGNAL* PG_DDR
 J2.114 P2.12 R47.1
*SIGNAL* PET3_P
 C76.2 J8.B27
*SIGNAL* PET3_N
 C77.2 J8.B28
*SIGNAL* PET2_P
 C74.2 J8.B23
*SIGNAL* PET2_N
 C75.2 J8.B24
*SIGNAL* PET1_P
 C72.2 J8.B19
*SIGNAL* PET1_N
 C73.2 J8.B20
*SIGNAL* PET0_P
 C70.2 J8.B14
*SIGNAL* PET0_N
 C71.2 J8.B15
*SIGNAL* PER_EN
 R28.1 R29.2 R65.1 R66.2 R97.1 R98.2
*SIGNAL* PCIE_TX3_P
 C76.1 J2.51
*SIGNAL* PCIE_TX3_N
 C77.1 J2.49
*SIGNAL* PCIE_TX2_P
 C74.1 J2.57
*SIGNAL* PCIE_TX2_N
 C75.1 J2.55
*SIGNAL* PCIE_TX1_P
 C72.1 J2.63
*SIGNAL* PCIE_TX1_N
 C73.1 J2.61
*SIGNAL* PCIE_TX0_P
 C70.1 J2.69
*SIGNAL* PCIE_TX0_N
 C71.1 J2.67
*SIGNAL* PCIE_RX3_P
 J2.54 J8.A29
*SIGNAL* PCIE_RX3_N
 J2.52 J8.A30
*SIGNAL* PCIE_RX2_P
 J2.60 J8.A25
*SIGNAL* PCIE_RX2_N
 J2.58 J8.A26
*SIGNAL* PCIE_RX1_P
 J2.66 J8.A21
*SIGNAL* PCIE_RX1_N
 J2.64 J8.A22
*SIGNAL* PCIE_RX0_P
 J2.72 J8.A16
*SIGNAL* PCIE_RX0_N
 J2.70 J8.A17
*SIGNAL* PCIE0_RST
 J3.97 J8.A11
*SIGNAL* PCIE0_CLK_P
 C69.2 J8.A13
*SIGNAL* PCIE0_CLK_N
 C68.2 J8.A14
*SIGNAL* NetR106_2
 R106.2 SW9.8
*SIGNAL* NetR105_2
 R105.2 SW9.7
*SIGNAL* NetR104_2
 R104.2 SW9.6
*SIGNAL* NetR103_2
 R103.2 SW9.5
*SIGNAL* NetR97_2
 R97.2 U13.3
*SIGNAL* NetR95_1
 R95.1 R96.2 U13.5
*SIGNAL* NetR77_V2
 R77.V2 R78.1
*SIGNAL* NetR76_1
 R76.1 R77.V1
*SIGNAL* NetR74_V2
 R74.V2 R75.1
*SIGNAL* NetR73_1
 R73.1 R74.V1
*SIGNAL* NetR71_V2
 R71.V2 R72.1
*SIGNAL* NetR70_1
 R70.1 R71.V1
*SIGNAL* NetR68_V2
 R68.V2 R69.1
*SIGNAL* NetR67_1
 R67.1 R68.V1
*SIGNAL* NetR30_1
 R30.1 R31.2 U10.5
*SIGNAL* NetR28_2
 R28.2 U9.3
*SIGNAL* NetR25_1
 R25.1 R27.2 U9.5
*SIGNAL* NetR22_1
 R22.1 R24.2 U8.5
*SIGNAL* NetR20_2
 R20.2 U6.8
*SIGNAL* NetR16_2
 R16.2 SW1.3
*SIGNAL* NetR15_2
 R15.2 SW1.2
*SIGNAL* NetR14_2
 R14.2 SW1.1
*SIGNAL* NetR13_2
 R13.2 SW1.4
*SIGNAL* NetR6_1
 R6.1 U1.30
*SIGNAL* NetR5_1
 R5.1 T1.12
*SIGNAL* NetR1_2
 R1.2 U2.3
*SIGNAL* NetQ5_3
 Q5.3 R41.1
*SIGNAL* NetQ4_3
 Q4.3 R40.1
*SIGNAL* NetQ3_3
 Q3.3 R39.1
*SIGNAL* NetQ2_3
 Q2.3 R38.1
*SIGNAL* NetJ26_2
 J26.2 R99.2
*SIGNAL* NetJ5_1
 J5.1 S1.2
*SIGNAL* NetF1_2
 F1.2 FL1.1
*SIGNAL* NetF1_1
 F1.1 S1.3
*SIGNAL* NetDS3_1
 DS3.1 R107.1
*SIGNAL* NetDS2_2
 DS2.2 R41.2
*SIGNAL* NetDS1_2
 DS1.2 R40.2
*SIGNAL* NetD15_1
 D15.1 R21.1
*SIGNAL* NetD14_1
 D14.1 R102.1
*SIGNAL* NetD13_2
 D13.2 Q9.3
*SIGNAL* NetD13_1
 D13.1 R92.1
*SIGNAL* NetD12_2
 D12.2 Q8.3
*SIGNAL* NetD12_1
 D12.1 R91.1
*SIGNAL* NetD11_2
 D11.2 Q7.3
*SIGNAL* NetD11_1
 D11.1 R90.1
*SIGNAL* NetD10_2
 D10.2 Q6.3
*SIGNAL* NetD10_1
 D10.1 R89.1
*SIGNAL* NetD9_2
 D9.2 R39.2
*SIGNAL* NetD8_2
 D8.2 R38.2
*SIGNAL* NetD7_1
 D7.1 R33.1
*SIGNAL* NetD6_2
 D6.2 Q1.3
*SIGNAL* NetD6_1
 D6.1 R32.1
*SIGNAL* NetD4_1
 D4.1 R26.1
*SIGNAL* NetD3_1
 D3.1 R23.1
*SIGNAL* NetD2_1
 D2.1 R7.1
*SIGNAL* NetC103_2
 C103.2 IC10.16
*SIGNAL* NetC102_2
 C102.2 IC9.3
*SIGNAL* NetC101_1
 C101.1 R101.2
*SIGNAL* NetC93_1
 C93.1 U13.6
*SIGNAL* NetC67_2
 C67.2 U12.30
*SIGNAL* NetC66_1
 C66.1 R36.2 U12.27
*SIGNAL* NetC65_2
 C65.2 R34.1 R35.2 U12.31
*SIGNAL* NetC62_2
 C62.2 D5.2 U11.6
*SIGNAL* NetC60_1
 C60.1 U10.6
*SIGNAL* NetC52_1
 C52.1 U9.6
*SIGNAL* NetC45_2
 C45.2 C46.2 C47.2 C48.2 IC6.8 R25.2 R26.2 R77.I2 TP9.1 U9.7
*SIGNAL* NetC44_1
 C44.1 U8.6
*SIGNAL* NetC37_2
 C37.2 C38.2 C39.2 C40.2 IC3.8 IC4.8 R22.2 R23.2 R68.I2 R71.I2 TP8.1 U8.7
*SIGNAL* NetC19_2
 C19.2 U1.37
*SIGNAL* NetC19_1
 C19.1 U1.41
*SIGNAL* NetC12_1
 C12.1 T1.1
*SIGNAL* NetC1_1
 C1.1 FB1.1 U2.1 U2.4
*SIGNAL* N_TMS
 J16.4 J17.7 J20.137
*SIGNAL* N_TDO
 J11.3 J14.3 J15.7 J20.133
*SIGNAL* N_TDI
 J10.4 J12.7 J20.135
*SIGNAL* N_TCK
 J18.7 J19.4 J20.139
*SIGNAL* MR
 J2.83 SW2.1 SW2.2
*SIGNAL* LP_SENSE_P
 C81.2 IC4.10 R72.2
*SIGNAL* LP_SENSE_N
 C81.1 IC4.9 R70.2
*SIGNAL* LP_GOOD
 J2.106 P2.6 R50.1
*SIGNAL* INPUT_GND
 FL1.3 J5.2 J5.3
*SIGNAL* INIT_B
 J2.98 Q3.1
*SIGNAL* I2C_0_SDA
 J2.92 J3.104 R59.1
*SIGNAL* I2C_0_SCL
 J2.90 J3.102 R60.1
*SIGNAL* HSx_TMS
 J16.2 P1.4
*SIGNAL* HSx_TDO
 J11.2 J11.4 J11.6 J11.8 J11.10 P1.8
*SIGNAL* HSx_TDI
 J10.2 P1.10
*SIGNAL* HSx_TCK
 J19.2 P1.6
*SIGNAL* GPIO_SW7
 J3.87 R81.2 SW5.5
*SIGNAL* GPIO_SW6
 J3.83 R82.2 SW5.6
*SIGNAL* GPIO_SW5
 J3.81 R83.2 SW5.2
*SIGNAL* GPIO_SW4
 J3.79 R84.1 SW5.8
*SIGNAL* GPIO_SW3
 J3.77 R85.2 SW6.5
*SIGNAL* GPIO_SW2
 J3.75 R86.2 SW6.6
*SIGNAL* GPIO_SW1
 J3.73 R87.2 SW6.2
*SIGNAL* GPIO_SW0
 J3.71 R88.1 SW6.8
*SIGNAL* GPIO_PB1
 C85.2 J3.89 R94.1 SW8.3 SW8.4
*SIGNAL* GPIO_PB0
 C84.2 J3.91 R93.1 SW7.3 SW7.4
*SIGNAL* GPIO_LED3
 J3.125 Q6.1
*SIGNAL* GPIO_LED2
 J3.101 Q7.1
*SIGNAL* GPIO_LED1
 J3.95 Q8.1
*SIGNAL* GPIO_LED0
 J3.93 Q9.1
*SIGNAL* GPIO_15
 J3.98 J23.127
*SIGNAL* GPIO_14
 J3.96 J23.125
*SIGNAL* GPIO_13
 J3.94 J23.123
*SIGNAL* GPIO_12
 J3.92 J23.121
*SIGNAL* GPIO_11
 J3.124 J22.127
*SIGNAL* GPIO_10
 J3.122 J22.125
*SIGNAL* GPIO_9
 J3.108 J22.123
*SIGNAL* GPIO_8
 J3.106 J22.121
*SIGNAL* GPIO_7
 J3.90 J21.127
*SIGNAL* GPIO_6
 J3.88 J21.125
*SIGNAL* GPIO_5
 J3.82 J21.123
*SIGNAL* GPIO_4
 J3.80 J21.121
*SIGNAL* GPIO_3
 J3.78 J20.127
*SIGNAL* GPIO_2
 J3.76 J20.125
*SIGNAL* GPIO_1
 J3.74 J20.123
*SIGNAL* GPIO_0
 J3.72 J20.121
*SIGNAL* GND
 BT1.1 C1.2 C2.2 C3.2 C4.2 C5.2 C6.2 C7.2 C8.2 C9.2 C10.1 C11.1 C12.2 C13.2
 C14.2 C15.2 C16.1 C17.2 C18.2 C20.1 C21.1 C22.2 C23.1 C25.1 C26.1 C27.1
 C35.1 C36.1 C37.1 C38.1 C39.1 C40.1 C41.2 C42.2 C43.2 C44.2 C45.1 C46.1
 C47.1 C48.1 C49.2 C50.2 C51.2 C52.2 C53.1 C54.1 C55.1 C56.2 C57.2 C58.2
 C59.2 C60.2 C61.1 C62.1 C63.1 C64.2 C66.2 C67.1 C78.1 C79.1 C84.1 C85.1
 C86.1 C87.1 C88.1 C89.1 C90.2 C91.2 C92.2 C93.2 C94.1 C95.1 C96.1 C97.1
 C98.1 C99.2 C100.1 C102.1 C103.1 D1.1 D2.2 D3.2 D4.2 D7.2 D14.2 D16.3
 FB4.2 FL1.4 FL1.5 FL1.6 IC1.1 IC1.4 IC2.1 IC2.4 IC2.7 IC3.1 IC3.2 IC3.7
 IC4.1 IC4.7 IC5.1 IC5.7 IC6.1 IC6.7 IC7.2 IC8.7 IC9.4 IC9.8 IC10.4 IC10.17
 IC10.20 IC10.24 IC10.33 J1.1 J1.6 J1.7 J1.12 J1.13 J1.18 J1.19 J1.24 J1.25
 J1.30 J1.31 J1.36 J1.37 J1.42 J1.43 J1.48 J1.49 J1.54 J1.55 J1.60 J1.61
 J1.66 J1.67 J1.72 J1.73 J1.78 J1.79 J1.84 J1.85 J1.96 J1.97 J1.102 J1.103
 J1.109 J1.114 J1.115 J1.126 J1.127 J1.132 J1.133 J1.138 J1.139 J1.144
 J1.149 J1.150 J1.152 J1.154 J1.156 J1.158 J1.160 J2.2 J2.5 J2.8 J2.11
 J2.14 J2.17 J2.20 J2.23 J2.26 J2.29 J2.32 J2.35 J2.38 J2.41 J2.44 J2.47
 J2.50 J2.53 J2.56 J2.59 J2.62 J2.65 J2.68 J2.71 J2.74 J2.111 J2.117 J2.118
 J2.123 J2.128 J2.137 J2.139 J2.141 J2.143 J2.145 J2.146 J2.147 J2.148
 J2.149 J2.150 J2.151 J2.152 J3.1 J3.2 J3.29 J3.30 J3.57 J3.58 J3.63 J3.64
 J3.69 J3.70 J3.85 J3.86 J3.99 J3.100 J3.115 J3.116 J3.129 J3.130 J3.145
 J3.146 J3.153 J3.154 J3.155 J3.156 J4.9 J4.10 J4.16 J4.21 J4.22 J4.27
 J4.28 J4.33 J4.34 J4.39 J4.40 J4.45 J4.46 J4.51 J4.52 J4.57 J4.63 J4.64
 J4.70 J4.75 J4.76 J4.81 J4.82 J4.87 J4.93 J4.94 J4.99 J4.100 J4.111 J4.112
 J4.117 J4.118 J4.123 J4.124 J4.129 J4.130 J4.135 J4.136 J4.141 J4.142
 J4.147 J4.148 J4.153 J4.154 J6.6 J6.10 J6.G1 J6.G2 J6.G3 J6.G4 J8.A4
 J8.A12 J8.A15 J8.A18 J8.A20 J8.A23 J8.A24 J8.A27 J8.A28 J8.A31 J8.B4 J8.B7
 J8.B13 J8.B16 J8.B18 J8.B21 J8.B22 J8.B25 J8.B26 J8.B29 J8.B32 J9.1 J20.1
 J20.4 J20.7 J20.10 J20.13 J20.16 J20.19 J20.22 J20.25 J20.28 J20.31 J20.34
 J20.37 J20.40 J20.43 J20.46 J20.49 J20.50 J20.71 J20.72 J20.75 J20.78
 J20.81 J20.84 J20.87 J20.90 J20.93 J20.96 J20.99 J20.102 J20.105 J20.108
 J20.111 J20.114 J20.117 J20.120 J20.122 J20.124 J20.126 J20.128 J20.130
 J20.132 J20.134 J20.136 J20.138 J20.140 J20.A J21.1 J21.4 J21.7 J21.10
 J21.13 J21.16 J21.19 J21.22 J21.25 J21.28 J21.31 J21.34 J21.37 J21.40
 J21.43 J21.46 J21.49 J21.50 J21.71 J21.72 J21.75 J21.78 J21.81 J21.84
 J21.87 J21.90 J21.93 J21.96 J21.99 J21.102 J21.105 J21.108 J21.111 J21.114
 J21.117 J21.120 J21.122 J21.124 J21.126 J21.128 J21.130 J21.132 J21.134
 J21.136 J21.138 J21.140 J21.A J22.1 J22.4 J22.7 J22.10 J22.13 J22.16
 J22.19 J22.22 J22.25 J22.28 J22.31 J22.34 J22.37 J22.40 J22.43 J22.46
 J22.49 J22.50 J22.71 J22.72 J22.75 J22.78 J22.81 J22.84 J22.87 J22.90
 J22.93 J22.96 J22.99 J22.102 J22.105 J22.108 J22.111 J22.114 J22.117
 J22.120 J22.122 J22.124 J22.126 J22.128 J22.130 J22.132 J22.134 J22.136
 J22.138 J22.140 J22.A J23.1 J23.4 J23.7 J23.10 J23.13 J23.16 J23.19 J23.22
 J23.25 J23.28 J23.31 J23.34 J23.37 J23.40 J23.43 J23.46 J23.49 J23.50
 J23.71 J23.72 J23.75 J23.78 J23.81 J23.84 J23.87 J23.90 J23.93 J23.96
 J23.99 J23.102 J23.105 J23.108 J23.111 J23.114 J23.117 J23.120 J23.122
 J23.124 J23.126 J23.128 J23.130 J23.132 J23.134 J23.136 J23.138 J23.140
 J23.A P1.1 P1.3 P1.5 P1.7 P1.9 P1.11 P1.13 P2.3 P2.4 P3.7 P3.8 P4.2 P5.9
 P5.10 Q1.2 Q2.2 Q3.2 Q4.2 Q5.2 Q6.2 Q7.2 Q8.2 Q9.2 R4.2 R5.2 R6.2 R13.1
 R14.1 R15.1 R16.1 R24.1 R27.1 R29.1 R31.1 R35.1 R61.1 R62.1 R81.1 R82.1
 R83.1 R84.2 R85.1 R86.1 R87.1 R88.2 R93.2 R94.2 R96.1 R98.1 R103.1 R104.1
 R105.1 R106.1 SW2.3 SW2.4 SW3.3 SW3.4 SW4.3 SW4.4 T1.10 TP2.1 TP3.1 TP4.1
 TP5.1 TP6.1 U1.15 U1.57 U2.2 U3.2 U3.11 U3.24 U3.25 U6.7 U7.3 U7.7 U8.2
 U8.4 U8.8 U9.2 U9.4 U9.8 U10.2 U10.4 U10.8 U11.2 U12.13 U12.14 U12.15
 U12.16 U12.17 U12.18 U12.26 U12.32 U12.39 U13.2 U13.4 U13.8 U14.7 U15.7
*SIGNAL* FGND
 C2.1 R4.1 T1.Shell
*SIGNAL* ETH_TXD3
 J3.139 U1.55
*SIGNAL* ETH_TXD2
 J3.137 U1.54
*SIGNAL* ETH_TXD1
 J3.135 U1.51
*SIGNAL* ETH_TXD0
 J3.133 U1.50
*SIGNAL* ETH_TXCTL
 J3.141 U1.56
*SIGNAL* ETH_TXCK
 J3.131 U1.53
*SIGNAL* ETH_RXD3
 J3.140 U1.48
*SIGNAL* ETH_RXD2
 J3.138 U1.47
*SIGNAL* ETH_RXD1
 J3.136 U1.45
*SIGNAL* ETH_RXD0
 J3.134 U1.44
*SIGNAL* ETH_RXCTL
 J3.142 U1.43
*SIGNAL* ETH_RXCK
 J3.132 U1.46
*SIGNAL* ETH_RST
 J3.127 R2.1 U1.16
*SIGNAL* ETH_MDIO
 J3.144 R3.2 U1.8
*SIGNAL* ETH_MDC
 J3.143 U1.7
*SIGNAL* ETH_CLK
 R1.1 U1.34
*SIGNAL* eSD_DAT3
 J6.2 U3.22
*SIGNAL* eSD_DAT2
 J6.1 U3.23
*SIGNAL* eSD_DAT1
 J6.8 U3.16
*SIGNAL* eSD_DAT0
 J6.7 U3.18
*SIGNAL* eSD_CMD
 J6.3 U3.20
*SIGNAL* eSD_CLK
 J6.5 U3.19
*SIGNAL* ERR_STATUS
 J2.86 Q5.1
*SIGNAL* ERR_OUT
 J2.88 Q4.1
*SIGNAL* EN_PSGT
 J2.84 P2.13 R54.1
*SIGNAL* EN_PLL_PWR
 J2.77 P2.19 R51.1
*SIGNAL* EN_PL
 J2.101 P2.9 R56.1
*SIGNAL* EN_LPD
 J2.108 P2.5 R58.1
*SIGNAL* EN_GT_R
 J2.95 P2.15 R53.1
*SIGNAL* EN_GT_L
 J2.79 P2.17 R52.1
*SIGNAL* EN_FPD
 J2.102 P2.7 R57.1
*SIGNAL* EN_DDR
 J2.112 P2.11 R55.1
*SIGNAL* E_TMS
 J16.10 J17.1 J22.137
*SIGNAL* E_TDO
 J11.9 J14.9 J15.1 J22.133
*SIGNAL* E_TDI
 J10.10 J12.1 J22.135
*SIGNAL* E_TCK
 J18.1 J19.10 J22.139
*SIGNAL* DVDD1V
 C13.1 C14.1 C15.1 U1.6 U1.40 U1.42
*SIGNAL* DONE
 J2.116 Q2.1
*SIGNAL* DC_SENSE_P
 C80.2 IC3.10 R69.2
*SIGNAL* DC_SENSE_N
 C80.1 IC3.9 R67.2
*SIGNAL* COM
 J12.2 J12.4 J12.6 J12.8 J13.2 J14.1
*SIGNAL* CLK0_P
 C69.1 J2.3
*SIGNAL* CLK0_N
 C68.1 J2.1
*SIGNAL* CAN_TX_LS
 IC7.1 IC8.13
*SIGNAL* CAN_RX_LS
 IC7.4 IC8.12
*SIGNAL* CAN_L_3
 J22.131 J25.1
*SIGNAL* CAN_L_2
 J23.131 J25.3
*SIGNAL* CAN_L_1
 J21.131 J25.5
*SIGNAL* CAN_L_0
 J20.131 J25.7
*SIGNAL* CAN_L
 D16.2 IC7.6 J25.2 J25.4 J25.6 J25.8 R99.1
*SIGNAL* CAN_H_3
 J22.129 J24.1
*SIGNAL* CAN_H_2
 J23.129 J24.3
*SIGNAL* CAN_H_1
 J21.129 J24.5
*SIGNAL* CAN_H_0
 J20.129 J24.7
*SIGNAL* CAN_H
 D16.1 IC7.7 J24.2 J24.4 J24.6 J24.8 J26.1
*SIGNAL* CAN_1_TX
 IC8.2 J3.118
*SIGNAL* CAN_1_RX
 IC8.3 J3.120
*SIGNAL* B230_TX3_P
 J1.2 J22.15
*SIGNAL* B230_TX3_N
 J1.4 J22.14
*SIGNAL* B230_TX2_P
 J1.8 J23.15
*SIGNAL* B230_TX2_N
 J1.10 J23.14
*SIGNAL* B230_TX1_P
 J1.14 J21.18
*SIGNAL* B230_TX1_N
 J1.16 J21.17
*SIGNAL* B230_TX0_P
 J1.20 J20.18
*SIGNAL* B230_TX0_N
 J1.22 J20.17
*SIGNAL* B230_RX3_P
 J1.3 J22.18
*SIGNAL* B230_RX3_N
 J1.5 J22.17
*SIGNAL* B230_RX2_P
 J1.9 J23.18
*SIGNAL* B230_RX2_N
 J1.11 J23.17
*SIGNAL* B230_RX1_P
 J1.15 J21.15
*SIGNAL* B230_RX1_N
 J1.17 J21.14
*SIGNAL* B230_RX0_P
 J1.21 J20.15
*SIGNAL* B230_RX0_N
 J1.23 J20.14
*SIGNAL* B229_TX3_P
 J1.26 J22.9
*SIGNAL* B229_TX3_N
 J1.28 J22.8
*SIGNAL* B229_TX2_P
 J1.32 J23.9
*SIGNAL* B229_TX2_N
 J1.34 J23.8
*SIGNAL* B229_TX1_P
 J1.38 J21.12
*SIGNAL* B229_TX1_N
 J1.40 J21.11
*SIGNAL* B229_TX0_P
 J1.44 J20.12
*SIGNAL* B229_TX0_N
 J1.46 J20.11
*SIGNAL* B229_RX3_P
 J1.27 J22.12
*SIGNAL* B229_RX3_N
 J1.29 J22.11
*SIGNAL* B229_RX2_P
 J1.33 J23.12
*SIGNAL* B229_RX2_N
 J1.35 J23.11
*SIGNAL* B229_RX1_P
 J1.39 J21.9
*SIGNAL* B229_RX1_N
 J1.41 J21.8
*SIGNAL* B229_RX0_P
 J1.45 J20.9
*SIGNAL* B229_RX0_N
 J1.47 J20.8
*SIGNAL* B228_TX3_P
 J1.50 J22.3
*SIGNAL* B228_TX3_N
 J1.52 J22.2
*SIGNAL* B228_TX2_P
 J1.56 J23.3
*SIGNAL* B228_TX2_N
 J1.58 J23.2
*SIGNAL* B228_TX1_P
 J1.62 J21.6
*SIGNAL* B228_TX1_N
 J1.64 J21.5
*SIGNAL* B228_TX0_P
 J1.68 J20.6
*SIGNAL* B228_TX0_N
 J1.70 J20.5
*SIGNAL* B228_RX3_P
 J1.51 J22.6
*SIGNAL* B228_RX3_N
 J1.53 J22.5
*SIGNAL* B228_RX2_P
 J1.57 J23.6
*SIGNAL* B228_RX2_N
 J1.59 J23.5
*SIGNAL* B228_RX1_P
 J1.63 J21.3
*SIGNAL* B228_RX1_N
 J1.65 J21.2
*SIGNAL* B228_RX0_P
 J1.69 J20.3
*SIGNAL* B228_RX0_N
 J1.71 J20.2
*SIGNAL* B128_TX3_P
 J2.27 J22.21
*SIGNAL* B128_TX3_N
 J2.25 J22.20
*SIGNAL* B128_TX2_P
 J2.33 J23.21
*SIGNAL* B128_TX2_N
 J2.31 J23.20
*SIGNAL* B128_TX1_P
 J2.39 J21.24
*SIGNAL* B128_TX1_N
 J2.37 J21.23
*SIGNAL* B128_TX0_P
 J2.45 J20.24
*SIGNAL* B128_TX0_N
 J2.43 J20.23
*SIGNAL* B128_RX3_P
 J2.30 J22.24
*SIGNAL* B128_RX3_N
 J2.28 J22.23
*SIGNAL* B128_RX2_P
 J2.36 J23.24
*SIGNAL* B128_RX2_N
 J2.34 J23.23
*SIGNAL* B128_RX1_P
 J2.42 J21.21
*SIGNAL* B128_RX1_N
 J2.40 J21.20
*SIGNAL* B128_RX0_P
 J2.48 J20.21
*SIGNAL* B128_RX0_N
 J2.46 J20.20
*SIGNAL* B66_T3
 J1.141
*SIGNAL* B66_T2
 J1.143
*SIGNAL* B66_T1
 J1.145
*SIGNAL* B66_T0
 J1.147
*SIGNAL* B66_L24_P
 J1.82 J22.104
*SIGNAL* B66_L24_N
 J1.80 J22.103
*SIGNAL* B66_L23_P
 J1.112 J22.89
*SIGNAL* B66_L23_N
 J1.110 J22.88
*SIGNAL* B66_L22_P
 J1.119 J22.77
*SIGNAL* B66_L22_N
 J1.117 J22.76
*SIGNAL* B66_L21_P
 J1.106 J22.36
*SIGNAL* B66_L21_N
 J1.104 J22.35
*SIGNAL* B66_L20_P
 J1.113 J22.80
*SIGNAL* B66_L20_N
 J1.111 J22.79
*SIGNAL* B66_L19_P
 J1.125 J22.74
*SIGNAL* B66_L19_N
 J1.123 J22.73
*SIGNAL* B66_L18_P
 J1.129 J20.39
*SIGNAL* B66_L18_N
 J1.131 J20.38
*SIGNAL* B66_L17_P
 J1.105 J22.27
*SIGNAL* B66_L17_N
 J1.107 J22.26
*SIGNAL* B66_L16_P
 J1.124 J22.83
*SIGNAL* B66_L16_N
 J1.122 J22.82
*SIGNAL* B66_L15_P
 J1.134 J20.33
*SIGNAL* B66_L15_N
 J1.136 J20.32
*SIGNAL* B66_L14_P
 J1.148 J20.27
*SIGNAL* B66_L14_N
 J1.146 J20.26
*SIGNAL* B66_L13_P
 J1.86 J22.101
*SIGNAL* B66_L13_N
 J1.88 J22.100
*SIGNAL* B66_L12_P
 J1.118 J22.86
*SIGNAL* B66_L12_N
 J1.116 J22.85
*SIGNAL* B66_L11_P
 J1.94 J22.42
*SIGNAL* B66_L11_N
 J1.92 J22.41
*SIGNAL* B66_L10_P
 J1.137 J20.42
*SIGNAL* B66_L10_N
 J1.135 J20.41
*SIGNAL* B66_L9_P
 J1.74 J22.107
*SIGNAL* B66_L9_N
 J1.76 J22.106
*SIGNAL* B66_L8_P
 J1.128 J20.36
*SIGNAL* B66_L8_N
 J1.130 J20.35
*SIGNAL* B66_L7_P
 J1.98 J22.39
*SIGNAL* B66_L7_N
 J1.100 J22.38
*SIGNAL* B66_L6_P
 J1.75 J22.98
*SIGNAL* B66_L6_N
 J1.77 J22.97
*SIGNAL* B66_L5_P
 J1.81 J22.95
*SIGNAL* B66_L5_N
 J1.83 J22.94
*SIGNAL* B66_L4_P
 J1.89 J22.92
*SIGNAL* B66_L4_N
 J1.87 J22.91
*SIGNAL* B66_L3_P
 J1.95 J22.33
*SIGNAL* B66_L3_N
 J1.93 J22.32
*SIGNAL* B66_L2_P
 J1.101 J22.30
*SIGNAL* B66_L2_N
 J1.99 J22.29
*SIGNAL* B66_L1_P
 J1.142 J20.30
*SIGNAL* B66_L1_N
 J1.140 J20.29
*SIGNAL* B65_T3
 J4.1 U14.2
*SIGNAL* B65_T2
 J4.3 U14.3
*SIGNAL* B65_T1
 J4.5 U14.4
*SIGNAL* B65_T0
 J4.7 U14.5
*SIGNAL* B65_L24_P
 J4.11 J20.74
*SIGNAL* B65_L24_N
 J4.13 J20.73
*SIGNAL* B65_L23_P
 J4.43 J20.89
*SIGNAL* B65_L23_N
 J4.41 J20.88
*SIGNAL* B65_L22_P
 J4.23 J20.80
*SIGNAL* B65_L22_N
 J4.25 J20.79
*SIGNAL* B65_L21_P
 J4.29 J20.83
*SIGNAL* B65_L21_N
 J4.31 J20.82
*SIGNAL* B65_L20_P
 J4.37 J20.86
*SIGNAL* B65_L20_N
 J4.35 J20.85
*SIGNAL* B65_L19_P
 J4.47 J21.89
*SIGNAL* B65_L19_N
 J4.49 J21.88
*SIGNAL* B65_L18_P
 J4.53 J21.86
*SIGNAL* B65_L18_N
 J4.55 J21.85
*SIGNAL* B65_L17_P
 J4.19 J20.77
*SIGNAL* B65_L17_N
 J4.17 J20.76
*SIGNAL* B65_L16_P
 J4.131 J23.80
*SIGNAL* B65_L16_N
 J4.133 J23.79
*SIGNAL* B65_L15_P
 J4.61 J21.83
*SIGNAL* B65_L15_N
 J4.59 J21.82
*SIGNAL* B65_L14_P
 J4.115 J21.92
*SIGNAL* B65_L14_N
 J4.113 J21.91
*SIGNAL* B65_L13_P
 J4.89 J21.104
*SIGNAL* B65_L13_N
 J4.91 J21.103
*SIGNAL* B65_L12_P
 J4.67 J21.80
*SIGNAL* B65_L12_N
 J4.65 J21.79
*SIGNAL* B65_L11_P
 J4.79 J21.74
*SIGNAL* B65_L11_N
 J4.77 J21.73
*SIGNAL* B65_L10_P
 J4.97 J21.101
*SIGNAL* B65_L10_N
 J4.95 J21.100
*SIGNAL* B65_L9_P
 J4.103 J21.98
*SIGNAL* B65_L9_N
 J4.101 J21.97
*SIGNAL* B65_L8_P
 J4.119 J23.74
*SIGNAL* B65_L8_N
 J4.121 J23.73
*SIGNAL* B65_L7_P
 J4.73 J21.77
*SIGNAL* B65_L7_N
 J4.71 J21.76
*SIGNAL* B65_L6_P
 J4.85 J21.107
*SIGNAL* B65_L6_N
 J4.83 J21.106
*SIGNAL* B65_L5_P
 J4.149 J23.89
*SIGNAL* B65_L5_N
 J4.151 J23.88
*SIGNAL* B65_L4_P
 J4.109 J21.95
*SIGNAL* B65_L4_N
 J4.107 J21.94
*SIGNAL* B65_L3_P
 J4.139 J23.83
*SIGNAL* B65_L3_N
 J4.137 J23.82
*SIGNAL* B65_L2_P
 J4.127 J23.77
*SIGNAL* B65_L2_N
 J4.125 J23.76
*SIGNAL* B65_L1_P
 J4.143 J23.86
*SIGNAL* B65_L1_N
 J4.145 J23.85
*SIGNAL* B64_T3
 J4.4 U15.3
*SIGNAL* B64_T2
 J4.2 U15.2
*SIGNAL* B64_T1
 J4.6 U15.4
*SIGNAL* B64_T0
 J4.8 U15.5
*SIGNAL* B64_L24_P
 J4.14 J20.92
*SIGNAL* B64_L24_N
 J4.12 J20.91
*SIGNAL* B64_L23_P
 J4.24 J20.98
*SIGNAL* B64_L23_N
 J4.26 J20.97
*SIGNAL* B64_L22_P
 J4.18 J20.95
*SIGNAL* B64_L22_N
 J4.20 J20.94
*SIGNAL* B64_L21_P
 J4.42 J20.107
*SIGNAL* B64_L21_N
 J4.44 J20.106
*SIGNAL* B64_L20_P
 J4.50 J21.42
*SIGNAL* B64_L20_N
 J4.48 J21.41
*SIGNAL* B64_L19_P
 J4.32 J20.101
*SIGNAL* B64_L19_N
 J4.30 J20.100
*SIGNAL* B64_L18_P
 J4.54 J21.39
*SIGNAL* B64_L18_N
 J4.56 J21.38
*SIGNAL* B64_L17_P
 J4.60 J21.36
*SIGNAL* B64_L17_N
 J4.62 J21.35
*SIGNAL* B64_L16_P
 J4.86 J23.42
*SIGNAL* B64_L16_N
 J4.84 J23.41
*SIGNAL* B64_L15_P
 J4.36 J20.104
*SIGNAL* B64_L15_N
 J4.38 J20.103
*SIGNAL* B64_L14_P
 J4.74 J21.30
*SIGNAL* B64_L14_N
 J4.72 J21.29
*SIGNAL* B64_L13_P
 J4.68 J21.33
*SIGNAL* B64_L13_N
 J4.66 J21.32
*SIGNAL* B64_L12_P
 J4.128 J23.104
*SIGNAL* B64_L12_N
 J4.126 J23.103
*SIGNAL* B64_L11_P
 J4.78 J21.27
*SIGNAL* B64_L11_N
 J4.80 J21.26
*SIGNAL* B64_L10_P
 J4.92 J23.39
*SIGNAL* B64_L10_N
 J4.90 J23.38
*SIGNAL* B64_L9_P
 J4.110 J23.30
*SIGNAL* B64_L9_N
 J4.108 J23.29
*SIGNAL* B64_L8_P
 J4.146 J23.95
*SIGNAL* B64_L8_N
 J4.144 J23.94
*SIGNAL* B64_L7_P
 J4.150 J23.92
*SIGNAL* B64_L7_N
 J4.152 J23.91
*SIGNAL* B64_L6_P
 J4.98 J23.36
*SIGNAL* B64_L6_N
 J4.96 J23.35
*SIGNAL* B64_L5_P
 J4.102 J23.33
*SIGNAL* B64_L5_N
 J4.104 J23.32
*SIGNAL* B64_L4_P
 J4.114 J23.27
*SIGNAL* B64_L4_N
 J4.116 J23.26
*SIGNAL* B64_L3_P
 J4.122 J23.107
*SIGNAL* B64_L3_N
 J4.120 J23.106
*SIGNAL* B64_L2_P
 J4.134 J23.101
*SIGNAL* B64_L2_N
 J4.132 J23.100
*SIGNAL* B64_L1_P
 J4.140 J23.98
*SIGNAL* B64_L1_N
 J4.138 J23.97
*SIGNAL* B48_L12_P
 J3.14 J20.110
*SIGNAL* B48_L12_N
 J3.12 J20.109
*SIGNAL* B48_L11_P
 J3.28 J20.113
*SIGNAL* B48_L11_N
 J3.26 J20.112
*SIGNAL* B48_L10_P
 J3.24 J20.116
*SIGNAL* B48_L10_N
 J3.22 J20.115
*SIGNAL* B48_L9_P
 J3.10 J20.48
*SIGNAL* B48_L9_N
 J3.8 J20.47
*SIGNAL* B48_L8_P
 J3.6 J20.45
*SIGNAL* B48_L8_N
 J3.4 J20.44
*SIGNAL* B48_L7_P
 J3.20 J20.119
*SIGNAL* B48_L7_N
 J3.18 J20.118
*SIGNAL* B48_L6_P
 J3.5 J21.45
*SIGNAL* B48_L6_N
 J3.3 J21.44
*SIGNAL* B48_L5_P
 J3.27 J21.119
*SIGNAL* B48_L5_N
 J3.25 J21.118
*SIGNAL* B48_L4_P
 J3.13 J21.110
*SIGNAL* B48_L4_N
 J3.11 J21.109
*SIGNAL* B48_L3_P
 J3.9 J21.48
*SIGNAL* B48_L3_N
 J3.7 J21.47
*SIGNAL* B48_L2_P
 J3.23 J21.116
*SIGNAL* B48_L2_N
 J3.21 J21.115
*SIGNAL* B48_L1_P
 J3.19 J21.113
*SIGNAL* B48_L1_N
 J3.17 J21.112
*SIGNAL* B47_L12_P
 J3.37 J23.45
*SIGNAL* B47_L12_N
 J3.35 J23.44
*SIGNAL* B47_L11_P
 J3.33 J23.48
*SIGNAL* B47_L11_N
 J3.31 J23.47
*SIGNAL* B47_L10_P
 J3.47 J23.116
*SIGNAL* B47_L10_N
 J3.45 J23.115
*SIGNAL* B47_L9_P
 J3.51 J23.113
*SIGNAL* B47_L9_N
 J3.49 J23.112
*SIGNAL* B47_L8_P
 J3.41 J23.119
*SIGNAL* B47_L8_N
 J3.39 J23.118
*SIGNAL* B47_L7_P
 J3.55 J23.110
*SIGNAL* B47_L7_N
 J3.53 J23.109
*SIGNAL* B47_L6_P
 J3.42 J22.119
*SIGNAL* B47_L6_N
 J3.40 J22.118
*SIGNAL* B47_L5_P
 J3.56 J22.110
*SIGNAL* B47_L5_N
 J3.54 J22.109
*SIGNAL* B47_L4_P
 J3.38 J22.45
*SIGNAL* B47_L4_N
 J3.36 J22.44
*SIGNAL* B47_L3_P
 J3.48 J22.116
*SIGNAL* B47_L3_N
 J3.46 J22.115
*SIGNAL* B47_L2_P
 J3.52 J22.113
*SIGNAL* B47_L2_N
 J3.50 J22.112
*SIGNAL* B47_L1_P
 J3.34 J22.48
*SIGNAL* B47_L1_N
 J3.32 J22.47
*SIGNAL* AVDD18
 C6.1 C7.1 C8.1 C9.1 U1.3 U1.19 U1.26 U1.35 U1.38 U1.39
*SIGNAL* AVDD3
 C10.2 C16.2 FB2.2 U1.20 U1.25
*SIGNAL* ADJ_SENSE_P
 C82.2 IC5.10 R75.2
*SIGNAL* ADJ_SENSE_N
 C82.1 IC5.9 R73.2
*SIGNAL* +12V
 C41.1 C42.1 C43.1 C49.1 C50.1 C51.1 C56.1 C57.1 C58.1 C90.1 C91.1 C92.1
 D1.2 FL1.2 J8.A2 J8.A3 J8.B1 J8.B2 J8.B3 P4.1 R7.2 U8.1 U9.1 U10.1 U13.1
*SIGNAL* +3.3V_UTIL
 C11.2 C17.1 C18.1 C21.2 C23.2 C86.2 C87.2 C88.2 C89.2 C95.2 C97.2 D8.1
 D9.1 DS1.1 DS2.1 FB2.1 IC3.6 IC4.6 IC5.2 IC5.6 IC6.6 IC7.3 IC8.14 J6.4
 J8.A9 J8.A10 J8.B8 J8.B10 L1.2 P3.1 P3.2 P5.11 P5.12 R17.2 R79.2 R80.2
 R95.2 TP13.1 U1.36 U3.17 U3.21 U13.7 U14.14 U15.14
*SIGNAL* +3.3V_LP
 J2.138 J2.140 J2.142 J2.144 R8.2 R71.I1
*SIGNAL* +3.3V_GT
 J1.151 J1.153 J1.155 J1.157 J1.159 J3.157 J3.158 J3.159 J3.160 R77.I1
*SIGNAL* +3.3V_DC
 J2.153 J2.154 J2.155 J2.156 J2.157 J2.158 J2.159 J2.160 R65.2 R68.I1
*SIGNAL* 5V
 C53.2 C54.2 C55.2 C59.1 C64.1 C99.1 IC9.1 IC9.2 P4.3 R30.2 R32.2 R33.2
 R36.1 R89.2 R90.2 R91.2 R92.2 TP10.1 U10.7 U12.19 U12.20 U12.21 U12.33
*SIGNAL* 1.8V
 C3.1 C4.1 C5.1 C22.1 C63.2 C65.1 D5.1 FB1.2 IC1.8 IC2.8 J1.108 J4.15 J4.88
 P1.2 P2.1 P2.2 Q1.1 R2.2 R3.1 R9.2 R10.2 R11.2 R12.2 R34.2 R37.2 R42.2
 R43.2 R44.2 R45.2 R46.2 R47.2 R48.2 R49.2 R50.2 R51.2 R52.2 R53.2 R54.2
 R55.2 R56.2 R57.2 R58.2 R59.2 R60.2 R63.2 R64.2 TP12.1 U1.10 U1.11 U1.49
 U1.52 U3.5 U12.5 U12.6 U12.7 U12.8 U12.9 U12.10 U12.11
*END*
