Board Information Report
Filename     : E:\gits\hyperfpga-carrier\Electronics\HyperFPGA-PCBA.PcbDoc
Date         : 9/17/2021
Time         : 4:54:20 PM
Time Elapsed : 00:00:00

General
    Board Size, 150.0158mmx150.0158mm
    Components on board, 317
count : 2