%TF.GenerationSoftware,Altium Limited,Altium Designer,22.4.2 (48)*%
G04 Layer_Color=0*
%FSLAX26Y26*%
%MOIN*%
%TF.SameCoordinates,6A4FBD83-F959-4084-BF4F-9C1771895810*%
%TF.FilePolarity,Positive*%
%TF.FileFunction,NonPlated,1,6,NPTH,Drill*%
%TF.Part,Single*%
G01*
G75*
%TA.AperFunction,ComponentDrill*%
%ADD243C,0.137795*%
%ADD244C,0.047244*%
%ADD245C,0.039370*%
%ADD246C,0.127953*%
D243*
X196850Y6496063D02*
D03*
X6496063D02*
D03*
Y196850D02*
D03*
X196850D02*
D03*
D244*
X1645669Y1082677D02*
D03*
X734252D02*
D03*
D245*
X3110236Y5826772D02*
D03*
X2716535D02*
D03*
D246*
X6417323Y5579331D02*
D03*
Y5129331D02*
D03*
%TF.MD5,59bf29a4b02721f4d0b94551ce8bd300*%
M02*
