G04*
G04 #@! TF.GenerationSoftware,Altium Limited,Altium Designer,22.4.2 (48)*
G04*
G04 Layer_Color=16711935*
%FSLAX44Y44*%
%MOMM*%
G71*
G04*
G04 #@! TF.SameCoordinates,48E91D8D-70C2-4821-B120-44B0D6A4F858*
G04*
G04*
G04 #@! TF.FilePolarity,Negative*
G04*
G01*
G75*
%ADD23C,0.0875*%
%ADD170C,1.1000*%
%ADD173C,1.6100*%
%ADD175R,5.1000X2.3000*%
%ADD176R,2.3000X4.6000*%
%ADD183C,7.6000*%
%ADD184C,3.6000*%
%ADD185C,1.3000*%
%ADD186O,1.9000X2.9000*%
%ADD187O,1.9000X2.6000*%
%ADD188O,2.9000X1.9000*%
%ADD189O,2.6000X1.9000*%
%ADD194C,0.7000*%
%ADD195C,0.8500*%
%ADD196O,1.1000X3.0000*%
%ADD197C,3.2750*%
%ADD199C,0.5500*%
%ADD200C,0.9000*%
%ADD201C,1.3700*%
%ADD231C,3.5000*%
%ADD258C,2.4000*%
%ADD259R,2.1000X2.1000*%
%ADD260C,2.1000*%
%ADD261R,2.1320X2.1320*%
%ADD262C,2.1320*%
%ADD263O,2.6000X1.6000*%
%ADD264O,2.3000X1.6000*%
%ADD265O,1.6000X2.6000*%
%ADD266O,1.6000X2.3000*%
%ADD267C,3.1480*%
D23*
X-19998Y133638D02*
X-20832Y134472D01*
X-21248Y135721D01*
Y137388D01*
X-20832Y138637D01*
X-19998Y139470D01*
X-19165D01*
X-18332Y139054D01*
X-17916Y138637D01*
X-17499Y137804D01*
X-16666Y135305D01*
X-16249Y134472D01*
X-15833Y134055D01*
X-15000Y133638D01*
X-13750D01*
X-12917Y134472D01*
X-12500Y135721D01*
Y137388D01*
X-12917Y138637D01*
X-13750Y139470D01*
X-21248Y129181D02*
X-20832Y130014D01*
X-19998Y130847D01*
X-19165Y131264D01*
X-17916Y131680D01*
X-15833D01*
X-14583Y131264D01*
X-13750Y130847D01*
X-12917Y130014D01*
X-12500Y129181D01*
Y127515D01*
X-12917Y126681D01*
X-13750Y125848D01*
X-14583Y125432D01*
X-15833Y125015D01*
X-17916D01*
X-19165Y125432D01*
X-19998Y125848D01*
X-20832Y126681D01*
X-21248Y127515D01*
Y129181D01*
Y122974D02*
X-12500D01*
Y117975D01*
X-21248Y117017D02*
X-12500D01*
X-21248D02*
Y114101D01*
X-20832Y112851D01*
X-19998Y112018D01*
X-19165Y111601D01*
X-17916Y111185D01*
X-15833D01*
X-14583Y111601D01*
X-13750Y112018D01*
X-12917Y112851D01*
X-12500Y114101D01*
Y117017D01*
X-21248Y103811D02*
Y109227D01*
X-12500D01*
Y103811D01*
X-17082Y109227D02*
Y105894D01*
X-21248Y102353D02*
X-12500D01*
X-21248D02*
Y98604D01*
X-20832Y97354D01*
X-20415Y96938D01*
X-19582Y96521D01*
X-18749D01*
X-17916Y96938D01*
X-17499Y97354D01*
X-17082Y98604D01*
Y102353D01*
Y99437D02*
X-12500Y96521D01*
X-21248Y87690D02*
X-12500D01*
X-21248D02*
X-12500Y84357D01*
X-21248Y81025D02*
X-12500Y84357D01*
X-21248Y81025D02*
X-12500D01*
Y71860D02*
X-21248Y75192D01*
X-12500Y78525D01*
X-15416Y77275D02*
Y73110D01*
X-19998Y63987D02*
X-20832Y64820D01*
X-21248Y66069D01*
Y67736D01*
X-20832Y68986D01*
X-19998Y69819D01*
X-19165D01*
X-18332Y69402D01*
X-17916Y68986D01*
X-17499Y68152D01*
X-16666Y65653D01*
X-16249Y64820D01*
X-15833Y64403D01*
X-15000Y63987D01*
X-13750D01*
X-12917Y64820D01*
X-12500Y66069D01*
Y67736D01*
X-12917Y68986D01*
X-13750Y69819D01*
X-21248Y62029D02*
X-12500D01*
X-21248Y56197D02*
X-15416Y62029D01*
X-17499Y59946D02*
X-12500Y56197D01*
X-21248Y47365D02*
X-12500D01*
X-21248D02*
Y43616D01*
X-20832Y42366D01*
X-20415Y41950D01*
X-19582Y41533D01*
X-18749D01*
X-17916Y41950D01*
X-17499Y42366D01*
X-17082Y43616D01*
Y47365D02*
Y43616D01*
X-16666Y42366D01*
X-16249Y41950D01*
X-15416Y41533D01*
X-14166D01*
X-13333Y41950D01*
X-12917Y42366D01*
X-12500Y43616D01*
Y47365D01*
X-21248Y37076D02*
X-20832Y37909D01*
X-19998Y38742D01*
X-19165Y39159D01*
X-17916Y39575D01*
X-15833D01*
X-14583Y39159D01*
X-13750Y38742D01*
X-12917Y37909D01*
X-12500Y37076D01*
Y35409D01*
X-12917Y34576D01*
X-13750Y33743D01*
X-14583Y33326D01*
X-15833Y32910D01*
X-17916D01*
X-19165Y33326D01*
X-19998Y33743D01*
X-20832Y34576D01*
X-21248Y35409D01*
Y37076D01*
Y27953D02*
X-12500D01*
X-21248Y30869D02*
Y25037D01*
Y21079D02*
X-12500D01*
X-21248Y23995D02*
Y18163D01*
Y14622D02*
X-20832Y15455D01*
X-19998Y16288D01*
X-19165Y16705D01*
X-17916Y17122D01*
X-15833D01*
X-14583Y16705D01*
X-13750Y16288D01*
X-12917Y15455D01*
X-12500Y14622D01*
Y12956D01*
X-12917Y12123D01*
X-13750Y11290D01*
X-14583Y10873D01*
X-15833Y10456D01*
X-17916D01*
X-19165Y10873D01*
X-19998Y11290D01*
X-20832Y12123D01*
X-21248Y12956D01*
Y14622D01*
Y8415D02*
X-12500D01*
X-21248D02*
X-12500Y5083D01*
X-21248Y1750D02*
X-12500Y5083D01*
X-21248Y1750D02*
X-12500D01*
D170*
X790000Y1480000D02*
D03*
X690000D02*
D03*
X1654500Y1518500D02*
D03*
Y1561500D02*
D03*
D173*
X1057420Y410073D02*
D03*
X1074420D02*
D03*
X1091420D02*
D03*
X1108420D02*
D03*
X1125420D02*
D03*
X1390940Y106680D02*
D03*
X1407940D02*
D03*
X1424940D02*
D03*
X1441940D02*
D03*
X1458940D02*
D03*
X1460486Y336550D02*
D03*
X1443486D02*
D03*
X1426486D02*
D03*
X1409486D02*
D03*
X1392486D02*
D03*
X1465566Y532130D02*
D03*
X1448566D02*
D03*
X1431566D02*
D03*
X1414566D02*
D03*
X1397566D02*
D03*
D175*
X1605000Y386000D02*
D03*
D176*
X1660000Y421000D02*
D03*
X1632000Y449000D02*
D03*
D183*
X528000Y1107000D02*
D03*
X1212000D02*
D03*
Y663000D02*
D03*
X528000D02*
D03*
D184*
X50000Y1650000D02*
D03*
X1650000D02*
D03*
Y50000D02*
D03*
X50000D02*
D03*
D185*
X418000Y275000D02*
D03*
X186500D02*
D03*
D186*
X1173250Y1662000D02*
D03*
X526750D02*
D03*
D187*
X1142000Y1637500D02*
D03*
X558000D02*
D03*
X1173250Y1614500D02*
D03*
X526750D02*
D03*
D188*
X28000Y1173250D02*
D03*
Y526750D02*
D03*
D189*
X52500Y1142000D02*
D03*
Y558000D02*
D03*
X75500Y1173250D02*
D03*
Y526750D02*
D03*
D194*
X1665000Y1569250D02*
D03*
X1009120Y438205D02*
D03*
X1400810Y619760D02*
D03*
X1409552D02*
D03*
X1400810Y629920D02*
D03*
X1409552D02*
D03*
X1418442Y560070D02*
D03*
X1409700D02*
D03*
Y544830D02*
D03*
X1418590D02*
D03*
X1094544Y495920D02*
D03*
X1161854Y434960D02*
D03*
X1453750Y245000D02*
D03*
X1415000D02*
D03*
X1402500Y238750D02*
D03*
X1485000Y233750D02*
D03*
X1500000Y1642500D02*
D03*
X886500Y1414500D02*
D03*
X983750Y1429200D02*
D03*
X356250Y1192500D02*
D03*
X348750D02*
D03*
X356250Y1162500D02*
D03*
Y1170000D02*
D03*
Y1177500D02*
D03*
Y1185000D02*
D03*
X348750Y1162500D02*
D03*
Y1170000D02*
D03*
Y1177500D02*
D03*
Y1185000D02*
D03*
X673488Y1526489D02*
D03*
X806500Y1522500D02*
D03*
X920206Y1415081D02*
D03*
X270000Y1131250D02*
D03*
X67000Y958000D02*
D03*
X830000Y1648000D02*
D03*
X614000Y1001250D02*
D03*
X1022000Y64500D02*
D03*
X1176250Y837500D02*
D03*
X597500Y925000D02*
D03*
X643000Y942500D02*
D03*
X772500Y1076250D02*
D03*
X780000D02*
D03*
X795000D02*
D03*
X787500D02*
D03*
X802500D02*
D03*
X810000D02*
D03*
X1121000Y1031000D02*
D03*
Y1039000D02*
D03*
X1129000Y1031000D02*
D03*
Y1039000D02*
D03*
Y1023000D02*
D03*
X1121000D02*
D03*
X840000Y650000D02*
D03*
X299000Y633000D02*
D03*
X582000Y1657000D02*
D03*
X1285000Y341250D02*
D03*
X1228750Y402500D02*
D03*
X1245000Y462500D02*
D03*
X251000Y950500D02*
D03*
X523500Y1024000D02*
D03*
X805000Y785500D02*
D03*
X800500Y699000D02*
D03*
X1516500Y1240000D02*
D03*
Y1200000D02*
D03*
X1571250Y1267500D02*
D03*
X1516500Y1160000D02*
D03*
Y1120000D02*
D03*
X360000Y1012500D02*
D03*
X351250D02*
D03*
X368750D02*
D03*
X651500Y867500D02*
D03*
X869700Y106900D02*
D03*
X1657500Y982000D02*
D03*
X1305000Y1064500D02*
D03*
X265000Y565500D02*
D03*
X802500Y605000D02*
D03*
X1137500Y305000D02*
D03*
X1097500Y300000D02*
D03*
X1283750Y1371250D02*
D03*
X806250Y488750D02*
D03*
X598000Y484000D02*
D03*
X897500Y335000D02*
D03*
X885150Y278825D02*
D03*
X1256950Y520000D02*
D03*
X712500Y706500D02*
D03*
X702500D02*
D03*
X692500Y679500D02*
D03*
X702500D02*
D03*
X712500D02*
D03*
X692500Y706500D02*
D03*
X722500D02*
D03*
X732500D02*
D03*
X717500Y726000D02*
D03*
X707500D02*
D03*
X697500D02*
D03*
X727500D02*
D03*
X697500Y736000D02*
D03*
X707500D02*
D03*
X717500D02*
D03*
X727500D02*
D03*
X697500Y660000D02*
D03*
X1064000Y837000D02*
D03*
X674000Y933000D02*
D03*
X315000Y1246250D02*
D03*
X1657500Y710000D02*
D03*
X802500Y1033750D02*
D03*
X235500Y1110000D02*
D03*
X688000Y940000D02*
D03*
X1116250Y857500D02*
D03*
X1640500Y1585000D02*
D03*
Y1577500D02*
D03*
X1642500Y1517000D02*
D03*
Y1510000D02*
D03*
X892500Y692700D02*
D03*
X230000Y158450D02*
D03*
X560000Y927500D02*
D03*
X33000Y646000D02*
D03*
X950000Y1555000D02*
D03*
X1153000Y1105500D02*
D03*
X44000Y854000D02*
D03*
X560000Y867500D02*
D03*
X878300Y106900D02*
D03*
X660000Y867500D02*
D03*
X250000Y1323750D02*
D03*
X1046000Y1648000D02*
D03*
X325000Y1401250D02*
D03*
X205000Y1420000D02*
D03*
X1232500Y322500D02*
D03*
Y330000D02*
D03*
Y337500D02*
D03*
X1273750Y330000D02*
D03*
Y322500D02*
D03*
Y337500D02*
D03*
X1393750Y1297500D02*
D03*
X1361250D02*
D03*
X1456250Y1365000D02*
D03*
X1435000Y1385000D02*
D03*
X1422500Y1450000D02*
D03*
X1306250D02*
D03*
X1298750D02*
D03*
X773000Y656000D02*
D03*
X1140000Y1050000D02*
D03*
X886000Y1648000D02*
D03*
X1097000Y752500D02*
D03*
X1220000Y775000D02*
D03*
X1375000Y1310000D02*
D03*
X260000Y257000D02*
D03*
X670000Y1593000D02*
D03*
X1046000Y1657000D02*
D03*
X662000Y44500D02*
D03*
X464000Y624000D02*
D03*
X1435000Y1340000D02*
D03*
X1321250Y1321250D02*
D03*
Y1335000D02*
D03*
X912000Y621000D02*
D03*
X340000Y337500D02*
D03*
X622500Y1001250D02*
D03*
X838000Y1648000D02*
D03*
X597000Y808500D02*
D03*
X773700Y106900D02*
D03*
X190000Y462000D02*
D03*
X808500Y632500D02*
D03*
X365000Y565500D02*
D03*
X849000Y613000D02*
D03*
X1326250Y635000D02*
D03*
X1292500Y525000D02*
D03*
X70000Y1566250D02*
D03*
X1340000Y1580000D02*
D03*
X1530000Y1626250D02*
D03*
X1590000Y1547500D02*
D03*
X1624500Y1490250D02*
D03*
X1490000Y1563750D02*
D03*
X1515000Y1593750D02*
D03*
X1497500Y1623750D02*
D03*
X1365000Y1563750D02*
D03*
X90000Y257000D02*
D03*
X80000D02*
D03*
X90000Y267000D02*
D03*
X70000Y257000D02*
D03*
X80000Y267000D02*
D03*
X70000D02*
D03*
X67000Y646000D02*
D03*
X1568000Y1000000D02*
D03*
X1191000Y1019000D02*
D03*
X878000Y44500D02*
D03*
X975000Y933750D02*
D03*
X860000Y743000D02*
D03*
X1116500Y782500D02*
D03*
X1143000Y1062000D02*
D03*
X950000Y1584000D02*
D03*
X577000Y867500D02*
D03*
X360000Y293000D02*
D03*
X341250Y1518000D02*
D03*
X1168750Y1266250D02*
D03*
X1599270Y774000D02*
D03*
X1200000Y1037000D02*
D03*
X1572000Y1052000D02*
D03*
X560000Y942500D02*
D03*
X44000Y670000D02*
D03*
X577000Y717500D02*
D03*
X598000Y66500D02*
D03*
X670000Y1458750D02*
D03*
X468750Y216250D02*
D03*
X972500Y445000D02*
D03*
X967500Y495000D02*
D03*
X932500Y340000D02*
D03*
X830000Y522500D02*
D03*
X892500Y1042500D02*
D03*
X1657000Y854000D02*
D03*
X1143500Y806000D02*
D03*
X926000Y214500D02*
D03*
X490000Y227500D02*
D03*
X643000Y1032500D02*
D03*
X840000Y743000D02*
D03*
X1096000Y792500D02*
D03*
X114950Y806300D02*
D03*
X615200Y897500D02*
D03*
X1633500Y766000D02*
D03*
X1666500Y822000D02*
D03*
X211000Y637500D02*
D03*
X1317500Y1402500D02*
D03*
X227500Y795000D02*
D03*
X220000Y391550D02*
D03*
X1075000Y705000D02*
D03*
X1030000Y33500D02*
D03*
X472500Y141250D02*
D03*
X1195000Y307500D02*
D03*
X1210000D02*
D03*
X1202500D02*
D03*
X1217500D02*
D03*
X1195000Y315000D02*
D03*
X1217500D02*
D03*
X1202500D02*
D03*
X1210000D02*
D03*
X1195000Y322500D02*
D03*
X1202500D02*
D03*
X1195000Y337500D02*
D03*
Y330000D02*
D03*
X1202500D02*
D03*
Y337500D02*
D03*
X713750Y1064500D02*
D03*
X824000Y1546000D02*
D03*
X590000Y1648000D02*
D03*
X495000Y1046250D02*
D03*
X220500Y969500D02*
D03*
X1316250Y1385000D02*
D03*
X1262500Y183750D02*
D03*
X568500Y852500D02*
D03*
X33000Y830000D02*
D03*
X1666500Y982000D02*
D03*
X138200Y567450D02*
D03*
X1323750Y1363750D02*
D03*
X1287500Y1345000D02*
D03*
X1356250Y1427500D02*
D03*
X1393750Y1425000D02*
D03*
X1421250Y1337500D02*
D03*
X1256250Y1360000D02*
D03*
X806250Y480000D02*
D03*
X597500Y469000D02*
D03*
X897500Y326250D02*
D03*
X878250Y287225D02*
D03*
X1249450Y530000D02*
D03*
X1480000Y1540000D02*
D03*
X1666500Y726000D02*
D03*
X461250Y283750D02*
D03*
X360000Y158450D02*
D03*
X937500Y692700D02*
D03*
X96025Y1254968D02*
D03*
X1545000Y1626250D02*
D03*
X615200Y912500D02*
D03*
X99750Y830000D02*
D03*
X934000Y1593000D02*
D03*
X44000Y862000D02*
D03*
X568500Y867500D02*
D03*
X886000Y66500D02*
D03*
X130000Y1387500D02*
D03*
X1657500Y1062000D02*
D03*
X1387500Y1281250D02*
D03*
X1411250Y1250000D02*
D03*
X1326250Y1286250D02*
D03*
X660000Y777500D02*
D03*
X838000Y44500D02*
D03*
X260000Y293000D02*
D03*
X1062000Y1648000D02*
D03*
X180000Y1400000D02*
D03*
X33000Y654000D02*
D03*
X670000Y44500D02*
D03*
X464000Y633000D02*
D03*
X1452500Y1347500D02*
D03*
X540003Y990590D02*
D03*
X694000Y1657000D02*
D03*
X577000Y792500D02*
D03*
X190000Y565500D02*
D03*
X817500Y632500D02*
D03*
X1440000Y1355000D02*
D03*
X1263750Y775000D02*
D03*
X1117500Y725000D02*
D03*
X1580000Y1571250D02*
D03*
X90000Y293000D02*
D03*
Y283000D02*
D03*
X80000Y293000D02*
D03*
Y283000D02*
D03*
X150000Y293000D02*
D03*
Y283000D02*
D03*
X1568000Y1008000D02*
D03*
X1200000Y1019000D02*
D03*
X886000Y44500D02*
D03*
X975000Y925000D02*
D03*
X327500Y1420000D02*
D03*
X113750Y1510000D02*
D03*
X1208750Y1625000D02*
D03*
X852500Y659000D02*
D03*
X276500Y633000D02*
D03*
X1132500Y1095000D02*
D03*
X33000Y878000D02*
D03*
X370000Y257000D02*
D03*
X33000Y1110000D02*
D03*
X802500Y1063500D02*
D03*
X995000Y940000D02*
D03*
X917700Y106900D02*
D03*
X1225000Y951000D02*
D03*
X1655500Y878000D02*
D03*
X606700Y942500D02*
D03*
X114950Y845700D02*
D03*
X1241250Y1241250D02*
D03*
X1657000Y782000D02*
D03*
X1116500Y797500D02*
D03*
X543750Y1031250D02*
D03*
X646000Y1648000D02*
D03*
X840000Y786250D02*
D03*
X67000Y814000D02*
D03*
X1666000Y830000D02*
D03*
X877500Y1042500D02*
D03*
X255500Y633000D02*
D03*
X840000Y641000D02*
D03*
X1346250Y1287500D02*
D03*
X1420000Y1267500D02*
D03*
X846000Y1657000D02*
D03*
X1038000Y33500D02*
D03*
X240000Y1362500D02*
D03*
X991250Y255000D02*
D03*
X957500Y145000D02*
D03*
X598000Y1648000D02*
D03*
X503750Y1046250D02*
D03*
X102500Y1115000D02*
D03*
X1274250Y1425500D02*
D03*
X1657500Y998000D02*
D03*
X1309500Y1077500D02*
D03*
X240000Y565500D02*
D03*
X828500Y632000D02*
D03*
X315000Y1131250D02*
D03*
X701000Y976000D02*
D03*
X1045000Y874000D02*
D03*
X813750Y497500D02*
D03*
X957500Y321250D02*
D03*
X960000Y241250D02*
D03*
X1097000Y872500D02*
D03*
X1666000Y734000D02*
D03*
X1200000Y1216250D02*
D03*
X235500Y1202500D02*
D03*
X697000Y940000D02*
D03*
X1089500Y858000D02*
D03*
X1285000Y535000D02*
D03*
X892500Y701700D02*
D03*
X220000Y158450D02*
D03*
X942000Y1584000D02*
D03*
X1134500Y1062000D02*
D03*
X33000Y870000D02*
D03*
X893700Y106900D02*
D03*
X651500Y882500D02*
D03*
X290000Y420000D02*
D03*
X265000D02*
D03*
X240000D02*
D03*
X215000D02*
D03*
X190000D02*
D03*
X786375Y696575D02*
D03*
X814500Y785000D02*
D03*
X1117500Y750000D02*
D03*
X1228750Y775000D02*
D03*
X577000Y762500D02*
D03*
X1062000Y1657000D02*
D03*
X44000Y662000D02*
D03*
X568500Y942500D02*
D03*
X678000Y33500D02*
D03*
X1427500Y1522500D02*
D03*
X1253750Y1472500D02*
D03*
X1410000Y483750D02*
D03*
X912000Y630000D02*
D03*
X330000Y337500D02*
D03*
X1185000Y837500D02*
D03*
X1006000Y64500D02*
D03*
X643000Y792500D02*
D03*
X215000Y462000D02*
D03*
X831000Y641000D02*
D03*
X315000Y1221250D02*
D03*
X680500Y974500D02*
D03*
X1072000Y865000D02*
D03*
X1515000Y1626250D02*
D03*
X1553000Y1576000D02*
D03*
X1545000Y1637500D02*
D03*
X100000Y257000D02*
D03*
X160000D02*
D03*
Y267000D02*
D03*
X1633500Y934000D02*
D03*
X742000Y66500D02*
D03*
X894000Y33500D02*
D03*
X310000Y1406250D02*
D03*
Y1526250D02*
D03*
X113750Y1522500D02*
D03*
X1220000Y1625000D02*
D03*
X1131500Y1050000D02*
D03*
X878000Y1648000D02*
D03*
X370000Y337500D02*
D03*
X922000Y608000D02*
D03*
X797500Y1110000D02*
D03*
X577000Y927500D02*
D03*
X699120Y1440000D02*
D03*
X466250Y178750D02*
D03*
X486250D02*
D03*
X476250Y188750D02*
D03*
X486250Y198750D02*
D03*
X466250D02*
D03*
X892500Y1033750D02*
D03*
X1666000Y854000D02*
D03*
X772500Y1033750D02*
D03*
X1657500Y662000D02*
D03*
X1143500Y797500D02*
D03*
X1462500Y718750D02*
D03*
X99850Y822000D02*
D03*
X606700Y912500D02*
D03*
X1590250Y773970D02*
D03*
X1168750Y1257500D02*
D03*
X1657000Y830000D02*
D03*
X877500Y1033750D02*
D03*
X1332500Y1418750D02*
D03*
X1428750Y1267500D02*
D03*
X1355000Y1287500D02*
D03*
X1666000Y582000D02*
D03*
X210000Y391550D02*
D03*
X1066500Y705000D02*
D03*
X854000Y1648000D02*
D03*
X614000Y986250D02*
D03*
X1046000Y33500D02*
D03*
X712500Y1043000D02*
D03*
X727500D02*
D03*
X742500D02*
D03*
X712500Y1026000D02*
D03*
X722500D02*
D03*
X732500D02*
D03*
X742500D02*
D03*
X722500Y1035000D02*
D03*
X732500D02*
D03*
X742500D02*
D03*
X712500D02*
D03*
X830000Y687000D02*
D03*
X240000Y462000D02*
D03*
X606000Y1657000D02*
D03*
X57500Y442500D02*
D03*
X802500Y743000D02*
D03*
X1275000Y190000D02*
D03*
X1298750Y1435000D02*
D03*
X577000Y852500D02*
D03*
X1666500Y998000D02*
D03*
X365000Y715000D02*
D03*
X1315000Y1370000D02*
D03*
X821250Y513750D02*
D03*
X1143500Y872500D02*
D03*
X1657000Y734000D02*
D03*
X1191250Y1216250D02*
D03*
X205000Y817500D02*
D03*
X887500Y643000D02*
D03*
X250000Y337500D02*
D03*
X643000Y912500D02*
D03*
X902300Y106900D02*
D03*
X660000Y882500D02*
D03*
X130000Y1362500D02*
D03*
X1054000Y34000D02*
D03*
X340000Y462000D02*
D03*
X860000Y706000D02*
D03*
X1103000Y1113000D02*
D03*
X44000Y902000D02*
D03*
X1411250Y1241250D02*
D03*
X1326250Y1277500D02*
D03*
X643000Y762500D02*
D03*
X694000Y1593000D02*
D03*
X686000Y44500D02*
D03*
X488000Y633000D02*
D03*
X1448750Y1312500D02*
D03*
X1352500Y1234000D02*
D03*
X1202500Y775000D02*
D03*
X1135000Y772000D02*
D03*
X1402500Y1522500D02*
D03*
X1227500Y1486250D02*
D03*
X1307500Y1297500D02*
D03*
X196500Y960000D02*
D03*
Y1000000D02*
D03*
Y1040000D02*
D03*
Y1080000D02*
D03*
X907500Y692700D02*
D03*
X280000Y158450D02*
D03*
X1085000Y837500D02*
D03*
X372750Y707250D02*
D03*
X596300Y987500D02*
D03*
X416000Y624000D02*
D03*
X598000Y44500D02*
D03*
X215000Y565500D02*
D03*
X807000Y619000D02*
D03*
X1542000Y1576000D02*
D03*
X1515000Y1637500D02*
D03*
X100000Y293000D02*
D03*
X160000D02*
D03*
Y283000D02*
D03*
X67000Y670000D02*
D03*
X1572000Y1044000D02*
D03*
X1191000Y1037000D02*
D03*
X902000Y44500D02*
D03*
X1022500Y940000D02*
D03*
X272500Y1420000D02*
D03*
X845000Y681500D02*
D03*
X1029500Y787500D02*
D03*
X1167500Y828750D02*
D03*
X1097000Y927500D02*
D03*
X33000Y1126000D02*
D03*
X1386250Y1442500D02*
D03*
X802500Y1042500D02*
D03*
X1666000Y710000D02*
D03*
X1234000Y951000D02*
D03*
X1655500Y886000D02*
D03*
X643000Y927500D02*
D03*
X622000Y66500D02*
D03*
X1241250Y1250000D02*
D03*
X1666000Y782000D02*
D03*
X1092500Y1272500D02*
D03*
X1657000Y590000D02*
D03*
X1007500Y310000D02*
D03*
X896250Y367500D02*
D03*
X1633500Y790000D02*
D03*
X1666500Y846000D02*
D03*
X205000Y727500D02*
D03*
X1140000Y731250D02*
D03*
X1255000Y775000D02*
D03*
X1420000Y1306250D02*
D03*
X1666000Y590000D02*
D03*
X1102500Y1272500D02*
D03*
X816000Y1546000D02*
D03*
X713750Y1073000D02*
D03*
X862000Y1648000D02*
D03*
X622500Y986250D02*
D03*
X622000Y1648000D02*
D03*
X532500Y1046250D02*
D03*
X220500Y1009500D02*
D03*
X113750Y465000D02*
D03*
X1461250Y1302850D02*
D03*
X1315000Y1427500D02*
D03*
X623750Y852500D02*
D03*
X1657500Y1014000D02*
D03*
X1333750Y1080000D02*
D03*
X315000Y1156250D02*
D03*
X693000Y993000D02*
D03*
X1063000Y874000D02*
D03*
X1313750Y1327500D02*
D03*
X1116000Y867500D02*
D03*
X656000Y972500D02*
D03*
X315000Y1258750D02*
D03*
X1666500Y750000D02*
D03*
X560000Y897500D02*
D03*
X44000Y614000D02*
D03*
X958000Y1593000D02*
D03*
X33000Y886000D02*
D03*
X1132500Y1103500D02*
D03*
X910000Y66500D02*
D03*
X768500Y696000D02*
D03*
X795000Y786500D02*
D03*
X814000Y1238000D02*
D03*
X548000Y1257000D02*
D03*
X577050Y1398500D02*
D03*
X1177500Y1047500D02*
D03*
X950000Y1648000D02*
D03*
X1003750Y940000D02*
D03*
X926300Y106900D02*
D03*
X1139500Y743750D02*
D03*
X1237500Y775000D02*
D03*
X1402500Y1306250D02*
D03*
X452000Y624000D02*
D03*
X646000Y44500D02*
D03*
X1078000Y1657000D02*
D03*
X33000Y678000D02*
D03*
X694000Y44500D02*
D03*
X488000Y624000D02*
D03*
X1600000Y1515000D02*
D03*
X1615000D02*
D03*
X1630000D02*
D03*
X1247500Y1366250D02*
D03*
X643000Y987500D02*
D03*
X672500Y792500D02*
D03*
X854000Y44500D02*
D03*
X910000D02*
D03*
X1031250Y940000D02*
D03*
X290000Y1406250D02*
D03*
X847000Y702000D02*
D03*
X315000Y565500D02*
D03*
X1163000Y927500D02*
D03*
X380000Y337500D02*
D03*
X922000Y599000D02*
D03*
X1633500Y574000D02*
D03*
X1150000Y1266250D02*
D03*
X1666000Y638000D02*
D03*
X1097000Y942500D02*
D03*
X568500Y927500D02*
D03*
X33000Y638000D02*
D03*
X720000Y1440000D02*
D03*
X1367500Y1281250D02*
D03*
X877500Y1063500D02*
D03*
X757500D02*
D03*
X333750Y41250D02*
D03*
X290000Y565500D02*
D03*
X853000Y629000D02*
D03*
X67000Y838000D02*
D03*
X1599270Y798000D02*
D03*
X1197500Y1266250D02*
D03*
X1332500Y1410000D02*
D03*
X752500Y659000D02*
D03*
X1437500Y1283750D02*
D03*
X1326250Y1306250D02*
D03*
X870000Y1657000D02*
D03*
X1062000Y33500D02*
D03*
X698750Y1073000D02*
D03*
X820500Y695500D02*
D03*
X102500Y442500D02*
D03*
X622000Y1657000D02*
D03*
X523750Y1046250D02*
D03*
X1333750Y1435000D02*
D03*
X1355000Y1408750D02*
D03*
X1380000D02*
D03*
X1247500Y1403750D02*
D03*
X604800Y852500D02*
D03*
X44000Y806000D02*
D03*
X1666500Y1014000D02*
D03*
X315000Y1233750D02*
D03*
X674000Y943000D02*
D03*
X1055000Y837000D02*
D03*
X1321250Y1350000D02*
D03*
X1279500Y1038000D02*
D03*
X33000Y1006000D02*
D03*
X1666000Y758000D02*
D03*
X1220000Y1216250D02*
D03*
X758000Y44500D02*
D03*
X568183Y582997D02*
D03*
X228750Y885000D02*
D03*
X887500Y652000D02*
D03*
X240000Y337500D02*
D03*
X606700Y897500D02*
D03*
X114950Y797700D02*
D03*
X966000Y1593000D02*
D03*
X33000Y894000D02*
D03*
X111250Y1336250D02*
D03*
X39000Y1054000D02*
D03*
X315000Y462000D02*
D03*
X826500Y731000D02*
D03*
X847500Y1042500D02*
D03*
X1599250Y884725D02*
D03*
X762500Y733000D02*
D03*
X1094000Y1113000D02*
D03*
X44000Y910000D02*
D03*
X643000Y972500D02*
D03*
X614000Y748750D02*
D03*
X806000Y44500D02*
D03*
X33000Y686000D02*
D03*
X560000Y957500D02*
D03*
X1657500Y1046000D02*
D03*
X300000Y1325000D02*
D03*
X702000Y33500D02*
D03*
X907500Y701700D02*
D03*
X270000Y158450D02*
D03*
X1097000Y837500D02*
D03*
X576250Y986250D02*
D03*
X718000Y1648000D02*
D03*
X416000Y633000D02*
D03*
X590000Y44500D02*
D03*
X1633500Y958000D02*
D03*
X766000Y66500D02*
D03*
X918000Y33500D02*
D03*
X327500Y1540000D02*
D03*
X836500Y681500D02*
D03*
X1029500Y796500D02*
D03*
X1141250Y827500D02*
D03*
X718000Y1657000D02*
D03*
X567500Y986250D02*
D03*
X752500Y1110000D02*
D03*
X1590250Y797970D02*
D03*
X1188750Y1266250D02*
D03*
X1666000Y606000D02*
D03*
X1348750Y1442500D02*
D03*
X814000Y1593000D02*
D03*
X1082500Y772500D02*
D03*
X860500Y733000D02*
D03*
X630000Y1657000D02*
D03*
X651500Y852500D02*
D03*
X845700Y106900D02*
D03*
X1657500Y1030000D02*
D03*
X1333750Y1092500D02*
D03*
X1423750Y1365000D02*
D03*
X1437500Y1292500D02*
D03*
X1657000Y758000D02*
D03*
X1220000Y1207500D02*
D03*
X766000Y44500D02*
D03*
X568183Y574247D02*
D03*
X270000Y1258750D02*
D03*
X312000Y633000D02*
D03*
X840000Y659000D02*
D03*
X568500Y897500D02*
D03*
X44000Y622000D02*
D03*
X1225000Y1266250D02*
D03*
X1599270Y822000D02*
D03*
X769000Y705000D02*
D03*
X749800Y801050D02*
D03*
X729700Y991650D02*
D03*
X697450Y1140075D02*
D03*
X698300Y1249000D02*
D03*
X584000Y1327000D02*
D03*
X1186000Y1047500D02*
D03*
X958000Y1648000D02*
D03*
X1075000Y978750D02*
D03*
X950000Y44500D02*
D03*
X1117500Y737500D02*
D03*
X1246250Y775000D02*
D03*
X1411250Y1306250D02*
D03*
X568500Y972500D02*
D03*
X44000Y718000D02*
D03*
X452000Y633000D02*
D03*
X638000Y44500D02*
D03*
X280000Y293000D02*
D03*
X718000Y1593000D02*
D03*
X1094000Y1657000D02*
D03*
X33000Y694000D02*
D03*
X568500Y957500D02*
D03*
X1666500Y1046000D02*
D03*
X710000Y44500D02*
D03*
X485000Y691250D02*
D03*
X902500Y643000D02*
D03*
X300000Y337500D02*
D03*
X1167500Y837500D02*
D03*
X681000Y792500D02*
D03*
X862000Y44500D02*
D03*
X265000Y462000D02*
D03*
X792000Y636000D02*
D03*
X314994Y1143744D02*
D03*
X710000Y976000D02*
D03*
X1054000Y874000D02*
D03*
X67000Y694000D02*
D03*
X1633500Y966000D02*
D03*
X926000Y44500D02*
D03*
X1041250Y971250D02*
D03*
X115000Y1572500D02*
D03*
X823000Y747000D02*
D03*
X1046250Y805000D02*
D03*
X390000Y293000D02*
D03*
X366250Y737500D02*
D03*
X1141250Y1266250D02*
D03*
X1657000Y638000D02*
D03*
X726000Y1657000D02*
D03*
X646000Y66500D02*
D03*
X740000Y1440000D02*
D03*
X757500Y1072000D02*
D03*
X854000Y1584000D02*
D03*
X270000Y1143750D02*
D03*
X114950Y854300D02*
D03*
X615200Y942500D02*
D03*
X1633500Y814000D02*
D03*
X1666500Y870000D02*
D03*
X925000Y350000D02*
D03*
X1666000Y614000D02*
D03*
X1128750Y1272500D02*
D03*
X1600000Y1207500D02*
D03*
X832000Y1562000D02*
D03*
X742500Y1080500D02*
D03*
X1078000Y33500D02*
D03*
X698750Y1064500D02*
D03*
X814500Y1522500D02*
D03*
Y731500D02*
D03*
X87500Y442500D02*
D03*
X638000Y1648000D02*
D03*
X535000Y1031250D02*
D03*
X220500Y1049500D02*
D03*
X72500Y442500D02*
D03*
X806500Y735500D02*
D03*
X1362500Y1421250D02*
D03*
X613300Y852500D02*
D03*
X44000Y814000D02*
D03*
X1666500Y1030000D02*
D03*
X1675000Y1220000D02*
D03*
X1625000D02*
D03*
X950000Y155000D02*
D03*
X1285500Y1032000D02*
D03*
X33000Y1022000D02*
D03*
X1666500Y774000D02*
D03*
X774000Y33500D02*
D03*
X1317500Y508750D02*
D03*
X934000Y66500D02*
D03*
X290000Y462000D02*
D03*
X840000Y601000D02*
D03*
X510000Y170000D02*
D03*
X916500Y224000D02*
D03*
X1116500Y806000D02*
D03*
X847500Y1033750D02*
D03*
X1590325Y884475D02*
D03*
X756250Y792500D02*
D03*
X1093000Y1139000D02*
D03*
X33000Y926000D02*
D03*
X1191000Y1001000D02*
D03*
X1666500Y950000D02*
D03*
X615200Y972500D02*
D03*
X97000Y894000D02*
D03*
X622500Y748750D02*
D03*
X814000Y44500D02*
D03*
X290000Y257000D02*
D03*
X33000Y702000D02*
D03*
X718000Y44500D02*
D03*
X485000Y682500D02*
D03*
X502500Y215500D02*
D03*
X904000Y255500D02*
D03*
X1096000Y822500D02*
D03*
X1402500Y1547500D02*
D03*
X1497500D02*
D03*
X1127500Y837500D02*
D03*
X1193750Y863750D02*
D03*
X1309500Y1127500D02*
D03*
X1500000Y1149500D02*
D03*
X596250Y1061250D02*
D03*
X577000Y777500D02*
D03*
X549500Y349500D02*
D03*
X200000Y293000D02*
D03*
X782300Y106900D02*
D03*
X605500Y808500D02*
D03*
X934000Y44500D02*
D03*
X1050000Y971250D02*
D03*
X272500Y1540000D02*
D03*
X400000Y257000D02*
D03*
X1633500Y598000D02*
D03*
X787500Y1063500D02*
D03*
X742000Y1648000D02*
D03*
X615000Y1062500D02*
D03*
X1275000Y406250D02*
D03*
X785358Y1243338D02*
D03*
X878000Y1584000D02*
D03*
X67000Y862000D02*
D03*
X1666000Y574000D02*
D03*
X1235000Y408750D02*
D03*
X1367500Y1458750D02*
D03*
X897500Y345000D02*
D03*
X1097000Y722500D02*
D03*
X1657500Y614000D02*
D03*
X1120000Y1272500D02*
D03*
X840000Y1562000D02*
D03*
X742500Y1072000D02*
D03*
X894000Y1657000D02*
D03*
X697500Y1110000D02*
D03*
X574000Y1593000D02*
D03*
X1368750Y1427500D02*
D03*
X622500Y1031250D02*
D03*
X790000Y1648000D02*
D03*
X660000Y852500D02*
D03*
X854300Y106900D02*
D03*
X1170000Y722500D02*
D03*
X982500Y128750D02*
D03*
X782000Y44500D02*
D03*
X535000Y583750D02*
D03*
X270000Y1246250D02*
D03*
X1287500Y1320000D02*
D03*
X1301250Y516250D02*
D03*
X577000Y897500D02*
D03*
X33000Y918000D02*
D03*
X941700Y106900D02*
D03*
X1005000Y973750D02*
D03*
X1216250Y1266250D02*
D03*
X1590250Y821970D02*
D03*
X763025Y656975D02*
D03*
X741250Y763750D02*
D03*
X1057500Y815000D02*
D03*
X1226500Y1058500D02*
D03*
X1166000Y1032500D02*
D03*
X926000Y1648000D02*
D03*
X1083750Y978750D02*
D03*
X958000Y44500D02*
D03*
X560000Y972500D02*
D03*
X44000Y710000D02*
D03*
X577000Y747500D02*
D03*
X290000Y337500D02*
D03*
X902500Y652000D02*
D03*
X1110000Y1657000D02*
D03*
X1666500Y1062000D02*
D03*
X726000Y33500D02*
D03*
X290000Y1526250D02*
D03*
X642950Y1061250D02*
D03*
X643000Y777500D02*
D03*
X97000Y878000D02*
D03*
X615200Y957500D02*
D03*
X551000Y370000D02*
D03*
X130000Y257000D02*
D03*
X210000D02*
D03*
X790000Y66500D02*
D03*
X942000Y33500D02*
D03*
X366250Y692500D02*
D03*
X782500Y1110000D02*
D03*
X742000Y1657000D02*
D03*
X606250Y1062500D02*
D03*
X760000Y1440000D02*
D03*
X1272500Y1403750D02*
D03*
X757500Y1080500D02*
D03*
X846000Y1584000D02*
D03*
X1500000Y1109500D02*
D03*
X1307000Y1110500D02*
D03*
X1202500Y863750D02*
D03*
X1141250Y837500D02*
D03*
X97000Y870000D02*
D03*
X606700Y957500D02*
D03*
X1411250Y1403750D02*
D03*
X1666500Y630000D02*
D03*
X838000Y1593000D02*
D03*
X902000Y1648000D02*
D03*
X1134000Y1013750D02*
D03*
X1094000Y33500D02*
D03*
X341250Y1638000D02*
D03*
X366000Y74500D02*
D03*
X654000Y1657000D02*
D03*
X574000Y33500D02*
D03*
X287500Y633000D02*
D03*
X852500Y650000D02*
D03*
X15500Y415000D02*
D03*
X1367500Y1450000D02*
D03*
X230000Y1420000D02*
D03*
X577000Y837500D02*
D03*
X1211250Y856250D02*
D03*
X974000Y55000D02*
D03*
X790000Y44500D02*
D03*
X544000Y584000D02*
D03*
X643000Y897500D02*
D03*
X33000Y1014000D02*
D03*
X950300Y106900D02*
D03*
X1013750Y973750D02*
D03*
X832500Y1063500D02*
D03*
X1093000Y1148000D02*
D03*
X33000Y934000D02*
D03*
X1200000Y1001000D02*
D03*
X1666500Y958000D02*
D03*
X606700Y972500D02*
D03*
X97000Y902000D02*
D03*
X643000Y747500D02*
D03*
X300000Y257000D02*
D03*
X742000Y1593000D02*
D03*
X734000Y44500D02*
D03*
X586250Y605000D02*
D03*
X1452500Y1492500D02*
D03*
X1118750Y822500D02*
D03*
X929000Y205000D02*
D03*
X515485Y138015D02*
D03*
X577000Y972500D02*
D03*
X430000Y624000D02*
D03*
X614000Y44500D02*
D03*
X67000Y886000D02*
D03*
X1452500Y1377500D02*
D03*
X67000Y718000D02*
D03*
X797700Y106900D02*
D03*
X614000Y808750D02*
D03*
X1097000Y912500D02*
D03*
X84000Y106000D02*
D03*
X787500Y1042500D02*
D03*
X1666000Y686000D02*
D03*
X750000Y1657000D02*
D03*
X670000Y66500D02*
D03*
X572000Y1531000D02*
D03*
X771527Y1242558D02*
D03*
X870000Y1584000D02*
D03*
X1499500Y1090500D02*
D03*
X1633500Y838000D02*
D03*
X1666500Y894000D02*
D03*
X910000Y1648000D02*
D03*
X1142500Y1013750D02*
D03*
X33000Y774000D02*
D03*
X502500Y225000D02*
D03*
X899000Y267000D02*
D03*
X1085500Y822500D02*
D03*
X687500Y1090500D02*
D03*
Y1080500D02*
D03*
X677500D02*
D03*
Y1090500D02*
D03*
X687500Y1110000D02*
D03*
X677500D02*
D03*
Y1120000D02*
D03*
X687500D02*
D03*
X662000Y1648000D02*
D03*
X550000Y1016250D02*
D03*
X966000Y1657000D02*
D03*
X582000Y33500D02*
D03*
X220500Y1089500D02*
D03*
X1135000Y329500D02*
D03*
X614000Y1031250D02*
D03*
X782000Y1648000D02*
D03*
X623750Y837500D02*
D03*
X365000Y462000D02*
D03*
X860000Y697000D02*
D03*
X430000Y197500D02*
D03*
X1127500Y857500D02*
D03*
X1176250Y863750D02*
D03*
X1300000Y1147500D02*
D03*
X1500000Y1229500D02*
D03*
X1666500Y798000D02*
D03*
X798000Y33500D02*
D03*
X270000Y1233750D02*
D03*
X559500Y882000D02*
D03*
X33000Y590000D02*
D03*
X958000Y66500D02*
D03*
X525000Y187500D02*
D03*
X916500Y234000D02*
D03*
X1096000Y801500D02*
D03*
X827500Y1110000D02*
D03*
X1174500Y1032500D02*
D03*
X934000Y1648000D02*
D03*
X577000Y957500D02*
D03*
X1126000Y1657000D02*
D03*
X33000Y726000D02*
D03*
X1666500Y1078000D02*
D03*
X742000Y44500D02*
D03*
X577500Y605000D02*
D03*
X651500Y777500D02*
D03*
X830000Y44500D02*
D03*
X1520000Y1525000D02*
D03*
X1532500D02*
D03*
X1545000D02*
D03*
X1520000Y1537500D02*
D03*
X1532500D02*
D03*
X1545000D02*
D03*
X1520000Y1550000D02*
D03*
X1532500D02*
D03*
X1545000D02*
D03*
X806300Y106900D02*
D03*
X622500Y808750D02*
D03*
X1163000Y912500D02*
D03*
X1633500Y622000D02*
D03*
X758000Y1648000D02*
D03*
X614000Y1046250D02*
D03*
X780000Y1440000D02*
D03*
X862500Y1063500D02*
D03*
X1599270Y846000D02*
D03*
X817500Y1042500D02*
D03*
X1666500Y902000D02*
D03*
X1225000Y970000D02*
D03*
X918000Y1657000D02*
D03*
X33000Y782000D02*
D03*
X604800Y837500D02*
D03*
X1110000Y33500D02*
D03*
X366000Y96500D02*
D03*
X598000Y1593000D02*
D03*
X670000Y1648000D02*
D03*
X558750Y1016250D02*
D03*
X982000Y1648000D02*
D03*
X1154000Y1338000D02*
D03*
X33000Y574000D02*
D03*
X15500Y370000D02*
D03*
X1400000Y1467500D02*
D03*
X596300Y1017500D02*
D03*
X430000Y182500D02*
D03*
X1537500Y1500000D02*
D03*
X1615000Y1538500D02*
D03*
Y1557500D02*
D03*
X1193750Y837500D02*
D03*
X990000Y64500D02*
D03*
X453750Y27500D02*
D03*
X1666000Y806000D02*
D03*
X862500Y1033750D02*
D03*
X1107000Y1088000D02*
D03*
X606700Y882500D02*
D03*
X99750Y782000D02*
D03*
X33000Y942000D02*
D03*
Y1030000D02*
D03*
X966000Y66500D02*
D03*
X832500Y1042500D02*
D03*
X1590250Y869970D02*
D03*
X1100000Y1170000D02*
D03*
X44000Y950000D02*
D03*
X643000Y957500D02*
D03*
X67000Y574000D02*
D03*
X33000Y734000D02*
D03*
X560000Y792500D02*
D03*
X750000Y33500D02*
D03*
X430000Y633000D02*
D03*
X622000Y44500D02*
D03*
X1317500Y1418750D02*
D03*
X1633500Y694000D02*
D03*
X814000Y66500D02*
D03*
X966000Y33500D02*
D03*
X787500Y1033750D02*
D03*
X1657000Y686000D02*
D03*
X766000Y1648000D02*
D03*
X622500Y1046250D02*
D03*
X737500Y1110000D02*
D03*
X1590250Y845970D02*
D03*
X817500Y1033750D02*
D03*
X1666500Y910000D02*
D03*
X1234000Y970000D02*
D03*
X1666500Y654000D02*
D03*
X862000Y1593000D02*
D03*
X33000Y790000D02*
D03*
X613300Y837500D02*
D03*
X678000Y1657000D02*
D03*
X982000D02*
D03*
X33000Y582000D02*
D03*
X1410000Y1467500D02*
D03*
X1591250Y1497500D02*
D03*
X643000Y1017500D02*
D03*
X660000Y822500D02*
D03*
X830300Y106900D02*
D03*
X510000Y205000D02*
D03*
X355000Y338750D02*
D03*
X1547500Y1500000D02*
D03*
X1624250Y1538500D02*
D03*
Y1557500D02*
D03*
X1127500Y847500D02*
D03*
X1185000Y863750D02*
D03*
X1300000Y1137500D02*
D03*
X1500000Y1189500D02*
D03*
X452500Y50000D02*
D03*
X1265000Y1327500D02*
D03*
X1153000Y1088000D02*
D03*
X568000Y882000D02*
D03*
X33000Y598000D02*
D03*
X38000Y1038000D02*
D03*
X231250Y1362500D02*
D03*
X310000Y293000D02*
D03*
X766000Y1593000D02*
D03*
X33000Y742000D02*
D03*
X568500Y792500D02*
D03*
X1666500Y1094000D02*
D03*
X67000Y910000D02*
D03*
X1347500Y1335000D02*
D03*
Y1347500D02*
D03*
Y1360000D02*
D03*
Y1372500D02*
D03*
X1360000Y1347500D02*
D03*
Y1335000D02*
D03*
Y1372500D02*
D03*
Y1360000D02*
D03*
X1372500Y1347500D02*
D03*
Y1335000D02*
D03*
Y1360000D02*
D03*
Y1372500D02*
D03*
X1385000Y1347500D02*
D03*
Y1360000D02*
D03*
Y1335000D02*
D03*
Y1372500D02*
D03*
X1397500Y1347500D02*
D03*
Y1335000D02*
D03*
Y1372500D02*
D03*
Y1360000D02*
D03*
X1347500Y1385000D02*
D03*
X1360000D02*
D03*
X1372500D02*
D03*
X1385000D02*
D03*
X1397500D02*
D03*
X67000Y742000D02*
D03*
X821700Y106900D02*
D03*
X651500Y822750D02*
D03*
X774000Y1657000D02*
D03*
X694000Y66500D02*
D03*
X862500Y1042500D02*
D03*
X1657000Y806000D02*
D03*
X643000Y717500D02*
D03*
X175000Y1608100D02*
D03*
X185000D02*
D03*
X175000Y1618100D02*
D03*
X185000D02*
D03*
X1499500Y1130500D02*
D03*
X1633500Y862000D02*
D03*
X1666500Y918000D02*
D03*
X941250Y331250D02*
D03*
X1666000Y662000D02*
D03*
X772500Y1042500D02*
D03*
X156250Y885000D02*
D03*
X33000Y798000D02*
D03*
X1126000Y33500D02*
D03*
X792500Y706500D02*
D03*
X694000Y1648000D02*
D03*
X548753Y990590D02*
D03*
X998000Y1648000D02*
D03*
X1163000Y1338000D02*
D03*
X606000Y33500D02*
D03*
X15500Y385000D02*
D03*
X1075000Y578750D02*
D03*
X937500Y701700D02*
D03*
X350000Y158450D02*
D03*
X568500Y807500D02*
D03*
X44000Y766000D02*
D03*
X520000Y205000D02*
D03*
X966250Y136250D02*
D03*
X452500Y110000D02*
D03*
X822000Y33500D02*
D03*
X270000Y1221250D02*
D03*
X57500Y1461250D02*
D03*
X1100000Y1126000D02*
D03*
X97000Y918000D02*
D03*
X615200Y882500D02*
D03*
X99850Y774000D02*
D03*
X44000Y958000D02*
D03*
X1100000Y1179000D02*
D03*
X33000Y1046000D02*
D03*
X832500Y1033750D02*
D03*
X1599270Y870000D02*
D03*
X1191000Y983000D02*
D03*
X1655500Y926000D02*
D03*
X33000Y750000D02*
D03*
X1415000Y1522500D02*
D03*
X1253750Y1483750D02*
D03*
X596300Y1047500D02*
D03*
X1001250Y810000D02*
D03*
X230000Y293000D02*
D03*
X1433750Y710000D02*
D03*
X57500Y1497000D02*
D03*
X1633500Y646000D02*
D03*
X1390000Y1522500D02*
D03*
X1227500Y1495000D02*
D03*
X800000Y1255000D02*
D03*
X894000Y1584000D02*
D03*
X340000Y565500D02*
D03*
X860000Y688000D02*
D03*
X1143000Y711000D02*
D03*
X942000Y1657000D02*
D03*
X622000Y1593000D02*
D03*
X998000Y1657000D02*
D03*
X1462500Y1391250D02*
D03*
X622500Y1016250D02*
D03*
X814000Y1648000D02*
D03*
X800000Y1440000D02*
D03*
X487500Y141250D02*
D03*
X1567500Y1520000D02*
D03*
X374000Y130600D02*
D03*
X270000Y1168750D02*
D03*
X57500Y1448750D02*
D03*
X1153000Y1097000D02*
D03*
X942000Y1555000D02*
D03*
X577000Y882500D02*
D03*
X33000Y966000D02*
D03*
X577000Y732500D02*
D03*
X320000Y293000D02*
D03*
X67000Y598000D02*
D03*
X44000Y758000D02*
D03*
X560000Y807500D02*
D03*
X1666500Y1110000D02*
D03*
X1270000Y732500D02*
D03*
X1277500D02*
D03*
X1285000D02*
D03*
X643000Y1047500D02*
D03*
X97000Y926000D02*
D03*
X1109000Y1126000D02*
D03*
X1037500Y752500D02*
D03*
X240000Y257000D02*
D03*
X1633500Y718000D02*
D03*
X838000Y66500D02*
D03*
X982000Y33500D02*
D03*
X175000Y1633750D02*
D03*
X185000D02*
D03*
X175000Y1643750D02*
D03*
X185000D02*
D03*
X1655500Y934000D02*
D03*
X1200000Y983000D02*
D03*
X1666500Y678000D02*
D03*
X310000Y158450D02*
D03*
X922500Y701700D02*
D03*
X886000Y1593000D02*
D03*
X702000Y1657000D02*
D03*
X1014000Y1648000D02*
D03*
X1172000Y1338000D02*
D03*
X33000Y606000D02*
D03*
X15500Y400000D02*
D03*
X1355000Y712500D02*
D03*
X577000Y807500D02*
D03*
X371750Y17400D02*
D03*
X315000Y1168750D02*
D03*
X680500Y1001500D02*
D03*
X1063000Y865000D02*
D03*
X643000Y882500D02*
D03*
X33000Y974000D02*
D03*
X1267500Y1038000D02*
D03*
X33000Y1062000D02*
D03*
X817500Y1063500D02*
D03*
X1097000Y1012500D02*
D03*
X643000Y732500D02*
D03*
X330000Y257000D02*
D03*
X790000Y1593000D02*
D03*
X67000Y934000D02*
D03*
Y766000D02*
D03*
X798000Y1657000D02*
D03*
X515000Y180000D02*
D03*
X908500Y243500D02*
D03*
X1086500Y801500D02*
D03*
X800000Y1263750D02*
D03*
X902000Y1584000D02*
D03*
X1499500Y1170500D02*
D03*
X1633500Y886000D02*
D03*
X1666500Y942000D02*
D03*
X1445000Y1391250D02*
D03*
X1097000Y702500D02*
D03*
X33000Y822000D02*
D03*
X1097000Y762500D02*
D03*
X1014000Y1657000D02*
D03*
X630000Y33500D02*
D03*
X1453750Y1391250D02*
D03*
X322000Y677000D02*
D03*
X614000Y1016250D02*
D03*
X814000Y1657000D02*
D03*
X643000Y807500D02*
D03*
X138200Y462550D02*
D03*
X846000Y33500D02*
D03*
X270000Y1156250D02*
D03*
X821375Y764500D02*
D03*
X252000Y700000D02*
D03*
X33000Y982000D02*
D03*
X812500Y1110000D02*
D03*
X1163000Y1014000D02*
D03*
X577000Y942500D02*
D03*
X1666500Y1126000D02*
D03*
X97000Y942000D02*
D03*
X1100000Y1156250D02*
D03*
X860000Y786250D02*
D03*
X1633500Y670000D02*
D03*
X998000Y33500D02*
D03*
X1215000Y472500D02*
D03*
X1235000Y190000D02*
D03*
X840000Y530000D02*
D03*
X1166250Y702500D02*
D03*
X320000Y158450D02*
D03*
X922500Y692700D02*
D03*
X1143500Y762500D02*
D03*
X646000Y1593000D02*
D03*
X1030000Y1648000D02*
D03*
X1181000Y1338000D02*
D03*
X1437500Y1312500D02*
D03*
X596300Y1002500D02*
D03*
X1567500Y1540000D02*
D03*
X33000Y990000D02*
D03*
X1273500Y1045000D02*
D03*
X33000Y1078000D02*
D03*
X340000Y257000D02*
D03*
X67000Y622000D02*
D03*
X574000Y66500D02*
D03*
X97000Y950000D02*
D03*
X1108750Y1156250D02*
D03*
X1633500Y742000D02*
D03*
X862000Y66500D02*
D03*
X1295000Y408750D02*
D03*
X495000Y168750D02*
D03*
X722500Y1110000D02*
D03*
X577000Y702500D02*
D03*
X1235000Y472500D02*
D03*
X623750Y867500D02*
D03*
X1118750Y702500D02*
D03*
X1666500Y702000D02*
D03*
X910000Y1593000D02*
D03*
X33000Y838000D02*
D03*
X560000Y852500D02*
D03*
X1135000Y763000D02*
D03*
X1211250Y775000D02*
D03*
X1317500Y1306250D02*
D03*
X1393750D02*
D03*
X1030000Y1657000D02*
D03*
X33000Y630000D02*
D03*
X493750Y96250D02*
D03*
X643000Y1002500D02*
D03*
X163600Y462550D02*
D03*
X140000Y257000D02*
D03*
Y267000D02*
D03*
X102500Y1205000D02*
D03*
X1143700Y942500D02*
D03*
X350000Y293000D02*
D03*
X33000Y998000D02*
D03*
X67000Y790000D02*
D03*
X822000Y1657000D02*
D03*
X1014000Y33500D02*
D03*
X643000Y702500D02*
D03*
X574000Y1657000D02*
D03*
X1499500Y1210500D02*
D03*
X1247500Y190000D02*
D03*
X1666500Y966000D02*
D03*
X1143000Y702000D02*
D03*
X98975Y1165000D02*
D03*
X33000Y846000D02*
D03*
X777500Y726000D02*
D03*
X1411250Y1258750D02*
D03*
X1340000Y1282500D02*
D03*
X654000Y33500D02*
D03*
X1271250Y1310000D02*
D03*
X163650Y567450D02*
D03*
X1640000Y910000D02*
D03*
X718000Y66500D02*
D03*
X870000Y33500D02*
D03*
X33000Y1094000D02*
D03*
X596300Y1032500D02*
D03*
X97000Y966000D02*
D03*
X1047500Y785000D02*
D03*
D195*
X1665000Y1510750D02*
D03*
D196*
X1675500Y1540000D02*
D03*
D197*
X1630000Y1417150D02*
D03*
Y1302850D02*
D03*
D199*
X1049020Y308610D02*
D03*
X1251500Y381500D02*
D03*
X1008380Y415290D02*
D03*
X1135000Y1416250D02*
D03*
X699770Y1521460D02*
D03*
X923290Y1555750D02*
D03*
X1057910Y1543050D02*
D03*
X720090Y1521460D02*
D03*
X760730Y1480820D02*
D03*
X742500Y1532500D02*
D03*
X995000Y1007500D02*
D03*
X629000Y99500D02*
D03*
X1027500Y726000D02*
D03*
X1005000Y1122500D02*
D03*
X1581500Y663000D02*
D03*
X977500Y677500D02*
D03*
X937500Y1044000D02*
D03*
X1251500Y363500D02*
D03*
Y369500D02*
D03*
X1257500D02*
D03*
X1251500Y375500D02*
D03*
X1257500D02*
D03*
Y381500D02*
D03*
X1263500Y363500D02*
D03*
X1257500D02*
D03*
X1263500Y369500D02*
D03*
Y375500D02*
D03*
Y381500D02*
D03*
X725000Y99500D02*
D03*
X997500Y700000D02*
D03*
X950000Y902500D02*
D03*
X687000Y99500D02*
D03*
X932500Y1083750D02*
D03*
X653000Y118500D02*
D03*
X822500Y917500D02*
D03*
X119000Y759000D02*
D03*
X932500Y1108750D02*
D03*
X902500Y677500D02*
D03*
X648750Y1557500D02*
D03*
X1010000Y1142500D02*
D03*
X922500Y726000D02*
D03*
X119000Y653000D02*
D03*
X830000Y850000D02*
D03*
X735000Y99500D02*
D03*
X997500Y690000D02*
D03*
X605000Y118500D02*
D03*
X907500Y1083750D02*
D03*
X967500Y1167500D02*
D03*
X711000Y118500D02*
D03*
X982500Y1044000D02*
D03*
X750000Y610000D02*
D03*
X100000Y725000D02*
D03*
X877500Y802500D02*
D03*
X591000Y99500D02*
D03*
X658750Y1557500D02*
D03*
X1020000Y1142500D02*
D03*
X119000Y663000D02*
D03*
X840000Y850000D02*
D03*
X615000Y118500D02*
D03*
X907500Y1073750D02*
D03*
X940000Y902500D02*
D03*
X677000Y99500D02*
D03*
X977500Y1108750D02*
D03*
X1022500Y661250D02*
D03*
X967500Y726000D02*
D03*
X1060000Y656250D02*
D03*
X749000Y118500D02*
D03*
X1007500Y653750D02*
D03*
X957500Y1167500D02*
D03*
X701000Y118500D02*
D03*
X760000Y610000D02*
D03*
X100000Y735000D02*
D03*
X867500Y802500D02*
D03*
X581000Y99500D02*
D03*
X892500Y726000D02*
D03*
X697500Y1552500D02*
D03*
X1030000Y1087500D02*
D03*
X917500Y677500D02*
D03*
X100000Y677000D02*
D03*
X950000Y1150000D02*
D03*
X759000Y118500D02*
D03*
X1007500Y643750D02*
D03*
X1042500Y1044000D02*
D03*
X940000Y1140000D02*
D03*
X100000Y639000D02*
D03*
X965000Y740000D02*
D03*
X760000Y1548750D02*
D03*
X707500Y1552500D02*
D03*
X1040000Y1087500D02*
D03*
X100000Y687000D02*
D03*
X950000Y1160000D02*
D03*
X1600500Y581000D02*
D03*
X967500Y1026250D02*
D03*
X639000Y99500D02*
D03*
X995000Y1017500D02*
D03*
X872500Y1108750D02*
D03*
X1037500Y1110000D02*
D03*
X1012500Y707500D02*
D03*
X962500Y677500D02*
D03*
X922500Y1044000D02*
D03*
X1600500Y591000D02*
D03*
X967500Y1036250D02*
D03*
X847500Y927500D02*
D03*
X119000Y711000D02*
D03*
X940000Y1130000D02*
D03*
X100000Y629000D02*
D03*
X955000Y740000D02*
D03*
X760000Y1538750D02*
D03*
X887500Y677500D02*
D03*
X725000Y1532500D02*
D03*
X962500Y685000D02*
D03*
X917500Y1108750D02*
D03*
X907500Y726000D02*
D03*
X119000Y701000D02*
D03*
X857500Y927500D02*
D03*
X1057500Y725000D02*
D03*
X967500Y1043750D02*
D03*
X1077500Y727500D02*
D03*
X1403750Y755000D02*
D03*
X735000Y1532500D02*
D03*
X962500Y695000D02*
D03*
X795000Y820000D02*
D03*
X119000Y615000D02*
D03*
X1581500Y605000D02*
D03*
X972500Y1082500D02*
D03*
X663000Y118500D02*
D03*
X932500Y1073750D02*
D03*
X962500Y1108750D02*
D03*
X1007500Y661250D02*
D03*
X580000Y1543750D02*
D03*
X915000Y1165000D02*
D03*
X952500Y726000D02*
D03*
X902500Y1127500D02*
D03*
X100000Y591000D02*
D03*
X1600500Y677000D02*
D03*
X1065000Y1015000D02*
D03*
X1581500Y615000D02*
D03*
X982500Y1082500D02*
D03*
X1018750Y1075000D02*
D03*
X662500Y1580000D02*
D03*
X1077500Y737500D02*
D03*
X1403750Y765000D02*
D03*
X590000Y1543750D02*
D03*
X925000Y1165000D02*
D03*
X785000Y820000D02*
D03*
X119000Y605000D02*
D03*
X1600500Y687000D02*
D03*
X1075000Y1015000D02*
D03*
X1052500Y661250D02*
D03*
X1027500Y1043750D02*
D03*
X1040000Y1180000D02*
D03*
X637500Y1580000D02*
D03*
X1055000Y687500D02*
D03*
X1442500Y755000D02*
D03*
X902500Y1117500D02*
D03*
X100000Y581000D02*
D03*
X1600500Y629000D02*
D03*
X1027500Y1026250D02*
D03*
X857500Y1108750D02*
D03*
X1022500Y1110000D02*
D03*
X1008750Y1075000D02*
D03*
X652500Y1580000D02*
D03*
X997500Y707500D02*
D03*
X592500Y1567500D02*
D03*
X840000Y1090000D02*
D03*
X947500Y677500D02*
D03*
X907500Y1044000D02*
D03*
X1581500Y701000D02*
D03*
X1052500Y1070000D02*
D03*
X1600500Y639000D02*
D03*
X1027500Y1036250D02*
D03*
X1030000Y1180000D02*
D03*
X627500Y1580000D02*
D03*
X1055000Y697500D02*
D03*
X1442500Y765000D02*
D03*
X602500Y1567500D02*
D03*
X850000Y1090000D02*
D03*
X902500Y1108750D02*
D03*
X1067500Y1110000D02*
D03*
X119000Y749000D02*
D03*
X832500Y917500D02*
D03*
X1581500Y711000D02*
D03*
X1062500Y1070000D02*
D03*
X1042500Y726000D02*
D03*
X952500Y1044000D02*
D03*
X1581500Y653000D02*
D03*
X995000Y1122500D02*
D03*
X947500Y1108750D02*
D03*
X992500Y661250D02*
D03*
X937500Y726000D02*
D03*
X997500Y1044000D02*
D03*
X992500Y1108750D02*
D03*
X1037500Y661250D02*
D03*
X1012500Y1044000D02*
D03*
X1007500Y1108750D02*
D03*
X982500Y726000D02*
D03*
X932500Y677500D02*
D03*
X1057500Y1044000D02*
D03*
X887500Y1108750D02*
D03*
X1052500Y1110000D02*
D03*
X1403750Y772500D02*
D03*
X1600500Y669500D02*
D03*
X717500Y99500D02*
D03*
X932500Y1091250D02*
D03*
X1055000Y680000D02*
D03*
X1581500Y718500D02*
D03*
Y670500D02*
D03*
X1442500Y772500D02*
D03*
X100000Y621500D02*
D03*
X1442500Y747500D02*
D03*
X1600500Y694500D02*
D03*
X760000Y1531250D02*
D03*
Y1556250D02*
D03*
X1077500Y720000D02*
D03*
X742500Y610000D02*
D03*
X1581500Y693500D02*
D03*
X1012500Y1122500D02*
D03*
X119000Y622500D02*
D03*
X572500Y1543750D02*
D03*
X1055000Y705000D02*
D03*
X987500Y1122500D02*
D03*
X1077500Y745000D02*
D03*
X610000Y1567500D02*
D03*
X621500Y99500D02*
D03*
X1027500Y1142500D02*
D03*
X100000Y646500D02*
D03*
X767500Y610000D02*
D03*
X641250Y1557500D02*
D03*
X1002500Y1142500D02*
D03*
X100000Y598500D02*
D03*
X597500Y1543750D02*
D03*
X620000Y1580000D02*
D03*
X962500Y702500D02*
D03*
X100000Y669500D02*
D03*
X1007500Y636250D02*
D03*
X666250Y1557500D02*
D03*
X1047500Y1180000D02*
D03*
X100000Y573500D02*
D03*
X1581500Y645500D02*
D03*
X847500Y850000D02*
D03*
X1022500Y1180000D02*
D03*
X100000Y694500D02*
D03*
X975000Y1167500D02*
D03*
X902500Y1135000D02*
D03*
X1581500Y622500D02*
D03*
X950000Y1167500D02*
D03*
X907500Y1091250D02*
D03*
X1600500Y646500D02*
D03*
X997500Y682500D02*
D03*
X950000Y1142500D02*
D03*
X690000Y1552500D02*
D03*
X1600500Y621500D02*
D03*
X100000Y717500D02*
D03*
X940000Y1147500D02*
D03*
X598500Y99500D02*
D03*
X766500Y118500D02*
D03*
X972500Y740000D02*
D03*
X995000Y1000000D02*
D03*
X965000Y1082500D02*
D03*
X1581500Y597500D02*
D03*
X119000D02*
D03*
X940000Y1122500D02*
D03*
X860000Y802500D02*
D03*
X1600500Y598500D02*
D03*
X947500Y740000D02*
D03*
X585000Y1567500D02*
D03*
X622500Y118500D02*
D03*
X742500Y99500D02*
D03*
X100000Y742500D02*
D03*
X907500Y1165000D02*
D03*
X1600500Y573500D02*
D03*
X957500Y902500D02*
D03*
X932500Y1165000D02*
D03*
X990000Y1082500D02*
D03*
X718500Y118500D02*
D03*
X832500Y1090000D02*
D03*
X885000Y802500D02*
D03*
X932500Y902500D02*
D03*
X857500Y1090000D02*
D03*
X670000Y1580000D02*
D03*
X741500Y118500D02*
D03*
X119000Y670500D02*
D03*
X967500Y1018750D02*
D03*
X597500Y118500D02*
D03*
X932500Y1066250D02*
D03*
X840000Y917500D02*
D03*
X995000Y1025000D02*
D03*
X1001250Y1075000D02*
D03*
X907500Y1066250D02*
D03*
X815000Y917500D02*
D03*
X1082500Y1015000D02*
D03*
X822500Y850000D02*
D03*
X694500Y99500D02*
D03*
X119000Y693500D02*
D03*
X1057500Y1015000D02*
D03*
X645500Y118500D02*
D03*
X693500D02*
D03*
X865000Y927500D02*
D03*
X1027500Y1018750D02*
D03*
X1026250Y1075000D02*
D03*
X670500Y118500D02*
D03*
X840000Y927500D02*
D03*
X1070000Y1070000D02*
D03*
X645000Y1580000D02*
D03*
X717500Y1532500D02*
D03*
X119000Y741500D02*
D03*
X1047500Y1087500D02*
D03*
X715000Y1552500D02*
D03*
X669500Y99500D02*
D03*
X802500Y820000D02*
D03*
X1045000Y1070000D02*
D03*
X777500Y820000D02*
D03*
X646500Y99500D02*
D03*
X573500D02*
D03*
X1022500Y1087500D02*
D03*
X119000Y718500D02*
D03*
Y645500D02*
D03*
X1403750Y747500D02*
D03*
D200*
X1397428Y415125D02*
D03*
X1409700Y407505D02*
D03*
Y422910D02*
D03*
X1409260Y369206D02*
D03*
Y354206D02*
D03*
X1072706Y441960D02*
D03*
X1047706D02*
D03*
X1060450D02*
D03*
X1072706Y429260D02*
D03*
X1047706D02*
D03*
X1060450D02*
D03*
X1060894Y388620D02*
D03*
X1048150D02*
D03*
X1073150D02*
D03*
X1168290Y506820D02*
D03*
X1155790D02*
D03*
X1180790D02*
D03*
X1155790Y494320D02*
D03*
X1168290Y481820D02*
D03*
X1180790Y494320D02*
D03*
Y481820D02*
D03*
X1155790D02*
D03*
X1140790Y494320D02*
D03*
X1492880Y114290D02*
D03*
X1507880D02*
D03*
X1492880Y129290D02*
D03*
X1507880D02*
D03*
X1492880Y144770D02*
D03*
X1507880D02*
D03*
X1492880Y159770D02*
D03*
X1507880D02*
D03*
X1325000Y95000D02*
D03*
X1295000D02*
D03*
X1310000D02*
D03*
X1325000Y330000D02*
D03*
Y300000D02*
D03*
Y315000D02*
D03*
X1108750Y662500D02*
D03*
Y677500D02*
D03*
X1153750Y662500D02*
D03*
X1118750Y677500D02*
D03*
X1143750D02*
D03*
X1153750D02*
D03*
X1118750Y647500D02*
D03*
X1108750D02*
D03*
X1143750D02*
D03*
X1153750D02*
D03*
X1143750Y662500D02*
D03*
X1118750D02*
D03*
X1325000Y80000D02*
D03*
X1310000D02*
D03*
X1250000Y95000D02*
D03*
X1235000D02*
D03*
X1250000Y80000D02*
D03*
X1235000D02*
D03*
X1295000D02*
D03*
X1265000D02*
D03*
X1280000D02*
D03*
X1265000Y95000D02*
D03*
X1280000D02*
D03*
X1677500Y427500D02*
D03*
Y402500D02*
D03*
Y415000D02*
D03*
X1642500D02*
D03*
X1677500Y440000D02*
D03*
X1665000Y452500D02*
D03*
X1677500D02*
D03*
X1652500D02*
D03*
X1665000Y465000D02*
D03*
X1652500D02*
D03*
X1525000Y57500D02*
D03*
X1605000Y77500D02*
D03*
X1545000Y57500D02*
D03*
X1565000D02*
D03*
X1585000D02*
D03*
X1605000D02*
D03*
X1565000Y77500D02*
D03*
X1585000D02*
D03*
X1565000Y97500D02*
D03*
X1585000D02*
D03*
X1682500Y310000D02*
D03*
Y280000D02*
D03*
Y290000D02*
D03*
Y300000D02*
D03*
X1532500Y451250D02*
D03*
X1545000D02*
D03*
X1532500Y463750D02*
D03*
Y476250D02*
D03*
X1557500Y451250D02*
D03*
X1545000Y463750D02*
D03*
X1557500D02*
D03*
X1545000Y476250D02*
D03*
X1557500D02*
D03*
X1168290Y494320D02*
D03*
X1620000Y405000D02*
D03*
X1595000D02*
D03*
X1582500D02*
D03*
X1607500D02*
D03*
X1010000Y122500D02*
D03*
X1030000D02*
D03*
X1050000D02*
D03*
X1010000Y142500D02*
D03*
X1030000D02*
D03*
X1050000D02*
D03*
X1010000Y162500D02*
D03*
X1030000D02*
D03*
X1050000D02*
D03*
X1010000Y182500D02*
D03*
X1030000D02*
D03*
X1050000D02*
D03*
X1010000Y202500D02*
D03*
X1030000D02*
D03*
X1050000D02*
D03*
Y222500D02*
D03*
Y242500D02*
D03*
X1070000Y122500D02*
D03*
X1110000D02*
D03*
X1090000D02*
D03*
X1170000D02*
D03*
X1150000D02*
D03*
X1130000D02*
D03*
X1170000Y142500D02*
D03*
Y162500D02*
D03*
Y182500D02*
D03*
Y202500D02*
D03*
Y222500D02*
D03*
X1130000Y242500D02*
D03*
X1150000D02*
D03*
X1110000D02*
D03*
X1090000D02*
D03*
X1070000D02*
D03*
X1170000D02*
D03*
X1682500Y235000D02*
D03*
Y225000D02*
D03*
Y245000D02*
D03*
Y255000D02*
D03*
X1603750Y30000D02*
D03*
X1355000Y240000D02*
D03*
X1365000D02*
D03*
D201*
X205000Y1172500D02*
D03*
D231*
X1600000Y295000D02*
D03*
Y342000D02*
D03*
Y248000D02*
D03*
D258*
X1645000Y135000D02*
D03*
X1595000D02*
D03*
X1645000Y185000D02*
D03*
X1595000D02*
D03*
X1620000Y160000D02*
D03*
Y110000D02*
D03*
D259*
X1335000Y214600D02*
D03*
D260*
Y240000D02*
D03*
Y265400D02*
D03*
X1275000Y710000D02*
D03*
X1245000Y555000D02*
D03*
X830000Y1430000D02*
D03*
X1240000Y1670000D02*
D03*
X70000Y1255000D02*
D03*
X180000Y1445000D02*
D03*
X1275000Y680000D02*
D03*
X1005000Y520000D02*
D03*
X1340000Y660000D02*
D03*
Y387500D02*
D03*
X312500Y720000D02*
D03*
X1180000Y330000D02*
D03*
X1340000Y137500D02*
D03*
X1005000Y280000D02*
D03*
D261*
X1541100Y1302850D02*
D03*
D262*
X1566500Y1315550D02*
D03*
X1541100Y1328250D02*
D03*
X1566500Y1340950D02*
D03*
X1541100Y1353650D02*
D03*
X1566500Y1366350D02*
D03*
X1541100Y1379050D02*
D03*
X1566500Y1391750D02*
D03*
X1541100Y1404450D02*
D03*
X1566500Y1417150D02*
D03*
X1675700Y1292700D02*
D03*
Y1318100D02*
D03*
Y1401900D02*
D03*
Y1427300D02*
D03*
D263*
X1671500Y1173250D02*
D03*
X1647000Y1142000D02*
D03*
X1671500Y526750D02*
D03*
X1647000Y558000D02*
D03*
D264*
X1624000Y1173250D02*
D03*
Y526750D02*
D03*
D265*
X1173250Y28500D02*
D03*
X1142000Y53000D02*
D03*
X526750Y28500D02*
D03*
X558000Y53000D02*
D03*
D266*
X1173250Y76000D02*
D03*
X526750D02*
D03*
D267*
X1599500Y1437450D02*
D03*
Y1282550D02*
D03*
M02*
