ISO-10303-21;
HEADER;
FILE_DESCRIPTION(('STEP AP214'),'1');
FILE_NAME('VDFN6_3P2X2P5_MCH','2020-09-23T14:48:18',(''),(''),'','','');
FILE_SCHEMA(('AUTOMOTIVE_DESIGN'));
ENDSEC;
DATA;
#1=SHAPE_DEFINITION_REPRESENTATION(#2,#3);
#2=PRODUCT_DEFINITION_SHAPE('',$,#4);
#3=SHAPE_REPRESENTATION('',(#71,#127,#424,#858,#1292,#1726,#2160,#2594,#19),#11);
#4=PRODUCT_DEFINITION('design','example product_definition',#6,#5);
#5=PRODUCT_DEFINITION_CONTEXT('3D Mechanical Parts',#10,'design');
#6=PRODUCT_DEFINITION_FORMATION('1.0','first version',#8);
#7=APPLICATION_PROTOCOL_DEFINITION('international standard','automotive_design',2003,#10);
#8=PRODUCT('product','part','',(#9));
#9=PRODUCT_CONTEXT('3D Mechanical Parts',#10,'mechanical');
#10=APPLICATION_CONTEXT('Core Data for Automotive Mechanical Design Process');
#11=(GEOMETRIC_REPRESENTATION_CONTEXT(3) GLOBAL_UNCERTAINTY_ASSIGNED_CONTEXT((#12)) GLOBAL_UNIT_ASSIGNED_CONTEXT((#13,#14,#18)) REPRESENTATION_CONTEXT('ID1','3D'));
#12=UNCERTAINTY_MEASURE_WITH_UNIT(LENGTH_MEASURE(1.E-005),#13,'DISTANCE_ACCURACY_VALUE','Maximum model space distance between geometric entities at asserted connectivities');
#13=(LENGTH_UNIT() NAMED_UNIT(*) SI_UNIT(.MILLI.,.METRE.));
#14=(CONVERSION_BASED_UNIT('degree',#16) NAMED_UNIT(#15) PLANE_ANGLE_UNIT());
#15=DIMENSIONAL_EXPONENTS(0.,0.,0.,0.,0.,0.,0.);
#16=MEASURE_WITH_UNIT(PLANE_ANGLE_MEASURE(0.01745329252),#17);
#17=(NAMED_UNIT(*) PLANE_ANGLE_UNIT() SI_UNIT($,.RADIAN.));
#18=(NAMED_UNIT(*) SI_UNIT($,.STERADIAN.) SOLID_ANGLE_UNIT());
#19=AXIS2_PLACEMENT_3D('',#20,#21,#22);
#20=CARTESIAN_POINT('',(0.0,0.0,0.0));
#21=DIRECTION('',(0.0,0.0,1.0));
#22=DIRECTION('',(1.0,0.0,0.0));
#25=MECHANICAL_DESIGN_GEOMETRIC_PRESENTATION_REPRESENTATION($,(#123,#124,#125,#129,#178,#227,#276,#325,#374,#426,#495,#564,#613,#662,#711,#760,#809,#860,#929,#998,#1047,#1096,#1145,#1194,#1243,#1294,#1363,#1432,#1481,#1530,#1579,#1628,#1677,#1728,#1797,#1866,#1915,#1964,#2013,#2062,#2111,#2162,#2231,#2300,#2349,#2398,#2447,#2496,#2545,#2596,#2665,#2734,#2783,#2832,#2881,#2930,#2979),#11);
#26=PRODUCT_CATEGORY_RELATIONSHIP('','',#27,#28);
#27=PRODUCT_CATEGORY('part','');
#28=PRODUCT_RELATED_PRODUCT_CATEGORY('','',(#8));
#34=PRESENTATION_STYLE_ASSIGNMENT((#35,#40));
#35=SURFACE_STYLE_USAGE(.BOTH.,#36);
#36=SURFACE_SIDE_STYLE('',(#37));
#37=SURFACE_STYLE_FILL_AREA(#38);
#38=FILL_AREA_STYLE('',(#39));
#39=FILL_AREA_STYLE_COLOUR('',#41);
#40=CURVE_STYLE('',#42,POSITIVE_LENGTH_MEASURE(0.1),#41);
#41=COLOUR_RGB('Aluminum',0.725,0.725,0.725);
#42=DRAUGHTING_PRE_DEFINED_CURVE_FONT('continuous');
#43=PRESENTATION_STYLE_ASSIGNMENT((#44,#49));
#44=SURFACE_STYLE_USAGE(.BOTH.,#45);
#45=SURFACE_SIDE_STYLE('',(#46));
#46=SURFACE_STYLE_FILL_AREA(#47);
#47=FILL_AREA_STYLE('',(#48));
#48=FILL_AREA_STYLE_COLOUR('',#50);
#49=CURVE_STYLE('',#51,POSITIVE_LENGTH_MEASURE(0.1),#50);
#50=COLOUR_RGB('Black',0.196,0.196,0.196);
#51=DRAUGHTING_PRE_DEFINED_CURVE_FONT('continuous');
#52=PRESENTATION_STYLE_ASSIGNMENT((#53,#58));
#53=SURFACE_STYLE_USAGE(.BOTH.,#54);
#54=SURFACE_SIDE_STYLE('',(#55));
#55=SURFACE_STYLE_FILL_AREA(#56);
#56=FILL_AREA_STYLE('',(#57));
#57=FILL_AREA_STYLE_COLOUR('',#59);
#58=CURVE_STYLE('',#60,POSITIVE_LENGTH_MEASURE(0.1),#59);
#59=COLOUR_RGB('Pin1',0.588,0.588,0.588);
#60=DRAUGHTING_PRE_DEFINED_CURVE_FONT('continuous');
#61=PRESENTATION_STYLE_ASSIGNMENT((#62,#67));
#62=SURFACE_STYLE_USAGE(.BOTH.,#63);
#63=SURFACE_SIDE_STYLE('',(#64));
#64=SURFACE_STYLE_FILL_AREA(#65);
#65=FILL_AREA_STYLE('',(#66));
#66=FILL_AREA_STYLE_COLOUR('',#68);
#67=CURVE_STYLE('',#69,POSITIVE_LENGTH_MEASURE(0.1),#68);
#68=COLOUR_RGB('HeatTab',0.588,0.588,0.588);
#69=DRAUGHTING_PRE_DEFINED_CURVE_FONT('continuous');
#71=MANIFOLD_SOLID_BREP($,#72);
#72=CLOSED_SHELL('',(#73,#74,#75));
#73=ADVANCED_FACE($,(#79,#78),#96,.T.);
#74=ADVANCED_FACE($,(#80),#76,.F.);
#75=ADVANCED_FACE($,(#81),#77,.T.);
#76=PLANE($,#101);
#77=PLANE($,#102);
#78=FACE_BOUND($,#83,.T.);
#79=FACE_OUTER_BOUND($,#82,.T.);
#80=FACE_OUTER_BOUND($,#84,.T.);
#81=FACE_OUTER_BOUND($,#85,.T.);
#82=EDGE_LOOP($,(#92));
#83=EDGE_LOOP($,(#93));
#84=EDGE_LOOP($,(#94));
#85=EDGE_LOOP($,(#95));
#86=CIRCLE($,#99,0.05995999565);
#87=CIRCLE($,#100,0.05995999565);
#88=VERTEX_POINT('',#117);
#89=VERTEX_POINT('',#119);
#90=EDGE_CURVE($,#88,#88,#86,.T.);
#91=EDGE_CURVE($,#89,#89,#87,.T.);
#92=ORIENTED_EDGE($,*,*,#90,.F.);
#93=ORIENTED_EDGE($,*,*,#91,.F.);
#94=ORIENTED_EDGE($,*,*,#91,.T.);
#95=ORIENTED_EDGE($,*,*,#90,.T.);
#96=CYLINDRICAL_SURFACE($,#98,0.05995999565);
#97=AXIS2_PLACEMENT_3D('placement',#115,#103,#104);
#98=AXIS2_PLACEMENT_3D($,#116,#105,#106);
#99=AXIS2_PLACEMENT_3D($,#118,#107,#108);
#100=AXIS2_PLACEMENT_3D($,#120,#109,#110);
#101=AXIS2_PLACEMENT_3D($,#121,#111,#112);
#102=AXIS2_PLACEMENT_3D($,#122,#113,#114);
#103=DIRECTION('axis',(0.,1.,0.));
#104=DIRECTION('refdir',(1.,0.,0.));
#105=DIRECTION('',(0.,0.,1.));
#106=DIRECTION('',(1.,0.,0.));
#107=DIRECTION('',(0.,0.,1.));
#108=DIRECTION('',(1.,0.,0.));
#109=DIRECTION('',(0.,0.,-1.));
#110=DIRECTION('',(1.,0.,0.));
#111=DIRECTION('',(0.,0.,1.));
#112=DIRECTION('',(0.,1.,0.));
#113=DIRECTION('',(0.,0.,1.));
#114=DIRECTION('',(0.,1.,0.));
#115=CARTESIAN_POINT('',(0.,0.,0.));
#116=CARTESIAN_POINT('',(-0.959,1.05,0.646));
#117=CARTESIAN_POINT('',(-1.019,1.05,0.649));
#118=CARTESIAN_POINT('',(-0.959,1.05,0.649));
#119=CARTESIAN_POINT('',(-1.019,1.05,0.646));
#120=CARTESIAN_POINT('',(-0.959,1.05,0.646));
#121=CARTESIAN_POINT('',(-0.959,1.05,0.646));
#122=CARTESIAN_POINT('',(-0.959,1.05,0.649));
#123=STYLED_ITEM('color',(#52),#73);
#124=STYLED_ITEM('color',(#52),#74);
#125=STYLED_ITEM('color',(#52),#75);
#127=MANIFOLD_SOLID_BREP($,#128);
#128=CLOSED_SHELL('',(#130,#179,#228,#277,#326,#375));
#129=STYLED_ITEM('',(#43),#130);
#130=ADVANCED_FACE('',(#136),#131,.T.);
#131=PLANE('',#132);
#132=AXIS2_PLACEMENT_3D('',#133,#134,#135);
#133=CARTESIAN_POINT('',(-1.199,-1.6,0.051));
#134=DIRECTION('',(0.0,-1.0,0.0));
#135=DIRECTION('',(0.,0.,1.));
#136=FACE_OUTER_BOUND('',#137,.T.);
#137=EDGE_LOOP('',(#138,#148,#158,#168));
#141=CARTESIAN_POINT('',(1.199,-1.6,0.051));
#140=VERTEX_POINT('',#141);
#143=CARTESIAN_POINT('',(-1.199,-1.6,0.051));
#142=VERTEX_POINT('',#143);
#139=EDGE_CURVE('',#140,#142,#144,.T.);
#144=LINE('',#141,#146);
#146=VECTOR('',#147,2.398399826);
#147=DIRECTION('',(-1.0,0.0,0.0));
#138=ORIENTED_EDGE('',*,*,#139,.F.);
#151=CARTESIAN_POINT('',(1.199,-1.6,0.646));
#150=VERTEX_POINT('',#151);
#149=EDGE_CURVE('',#150,#140,#154,.T.);
#154=LINE('',#151,#156);
#156=VECTOR('',#157,0.595199978);
#157=DIRECTION('',(0.0,0.0,-1.0));
#148=ORIENTED_EDGE('',*,*,#149,.F.);
#161=CARTESIAN_POINT('',(-1.199,-1.6,0.646));
#160=VERTEX_POINT('',#161);
#159=EDGE_CURVE('',#160,#150,#164,.T.);
#164=LINE('',#161,#166);
#166=VECTOR('',#167,2.398399826);
#167=DIRECTION('',(1.0,0.0,0.0));
#158=ORIENTED_EDGE('',*,*,#159,.F.);
#169=EDGE_CURVE('',#142,#160,#174,.T.);
#174=LINE('',#143,#176);
#176=VECTOR('',#177,0.595199978);
#177=DIRECTION('',(0.0,0.0,1.0));
#168=ORIENTED_EDGE('',*,*,#169,.F.);
#178=STYLED_ITEM('',(#43),#179);
#179=ADVANCED_FACE('',(#185),#180,.T.);
#180=PLANE('',#181);
#181=AXIS2_PLACEMENT_3D('',#182,#183,#184);
#182=CARTESIAN_POINT('',(1.199,-1.6,0.051));
#183=DIRECTION('',(1.0,0.0,0.0));
#184=DIRECTION('',(0.,0.,1.));
#185=FACE_OUTER_BOUND('',#186,.T.);
#186=EDGE_LOOP('',(#187,#197,#207,#217));
#190=CARTESIAN_POINT('',(1.199,1.6,0.051));
#189=VERTEX_POINT('',#190);
#188=EDGE_CURVE('',#189,#140,#193,.T.);
#193=LINE('',#190,#195);
#195=VECTOR('',#196,3.20000122);
#196=DIRECTION('',(0.0,-1.0,0.0));
#187=ORIENTED_EDGE('',*,*,#188,.F.);
#200=CARTESIAN_POINT('',(1.199,1.6,0.646));
#199=VERTEX_POINT('',#200);
#198=EDGE_CURVE('',#199,#189,#203,.T.);
#203=LINE('',#200,#205);
#205=VECTOR('',#206,0.595199978);
#206=DIRECTION('',(0.0,0.0,-1.0));
#197=ORIENTED_EDGE('',*,*,#198,.F.);
#208=EDGE_CURVE('',#150,#199,#213,.T.);
#213=LINE('',#151,#215);
#215=VECTOR('',#216,3.20000122);
#216=DIRECTION('',(0.0,1.0,0.0));
#207=ORIENTED_EDGE('',*,*,#208,.F.);
#217=ORIENTED_EDGE('',*,*,#149,.T.);
#227=STYLED_ITEM('',(#43),#228);
#228=ADVANCED_FACE('',(#234),#229,.T.);
#229=PLANE('',#230);
#230=AXIS2_PLACEMENT_3D('',#231,#232,#233);
#231=CARTESIAN_POINT('',(1.199,1.6,0.051));
#232=DIRECTION('',(0.0,1.0,0.0));
#233=DIRECTION('',(0.,0.,1.));
#234=FACE_OUTER_BOUND('',#235,.T.);
#235=EDGE_LOOP('',(#236,#246,#256,#266));
#239=CARTESIAN_POINT('',(-1.199,1.6,0.051));
#238=VERTEX_POINT('',#239);
#237=EDGE_CURVE('',#238,#189,#242,.T.);
#242=LINE('',#239,#244);
#244=VECTOR('',#245,2.398399826);
#245=DIRECTION('',(1.0,0.0,0.0));
#236=ORIENTED_EDGE('',*,*,#237,.F.);
#249=CARTESIAN_POINT('',(-1.199,1.6,0.646));
#248=VERTEX_POINT('',#249);
#247=EDGE_CURVE('',#248,#238,#252,.T.);
#252=LINE('',#249,#254);
#254=VECTOR('',#255,0.595199978);
#255=DIRECTION('',(0.0,0.0,-1.0));
#246=ORIENTED_EDGE('',*,*,#247,.F.);
#257=EDGE_CURVE('',#199,#248,#262,.T.);
#262=LINE('',#200,#264);
#264=VECTOR('',#265,2.398399826);
#265=DIRECTION('',(-1.0,0.0,0.0));
#256=ORIENTED_EDGE('',*,*,#257,.F.);
#266=ORIENTED_EDGE('',*,*,#198,.T.);
#276=STYLED_ITEM('',(#43),#277);
#277=ADVANCED_FACE('',(#283),#278,.T.);
#278=PLANE('',#279);
#279=AXIS2_PLACEMENT_3D('',#280,#281,#282);
#280=CARTESIAN_POINT('',(-1.199,1.6,0.051));
#281=DIRECTION('',(-1.0,0.0,0.0));
#282=DIRECTION('',(0.,0.,1.));
#283=FACE_OUTER_BOUND('',#284,.T.);
#284=EDGE_LOOP('',(#285,#295,#305,#315));
#286=EDGE_CURVE('',#142,#238,#291,.T.);
#291=LINE('',#143,#293);
#293=VECTOR('',#294,3.20000122);
#294=DIRECTION('',(0.0,1.0,0.0));
#285=ORIENTED_EDGE('',*,*,#286,.F.);
#295=ORIENTED_EDGE('',*,*,#169,.T.);
#306=EDGE_CURVE('',#248,#160,#311,.T.);
#311=LINE('',#249,#313);
#313=VECTOR('',#314,3.20000122);
#314=DIRECTION('',(0.0,-1.0,0.0));
#305=ORIENTED_EDGE('',*,*,#306,.F.);
#315=ORIENTED_EDGE('',*,*,#247,.T.);
#325=STYLED_ITEM('',(#43),#326);
#326=ADVANCED_FACE('',(#332),#327,.T.);
#327=PLANE('',#328);
#328=AXIS2_PLACEMENT_3D('',#329,#330,#331);
#329=CARTESIAN_POINT('',(-1.199,1.6,0.051));
#330=DIRECTION('',(0.0,0.0,-1.0));
#331=DIRECTION('',(0.,1.,0.));
#332=FACE_OUTER_BOUND('',#333,.T.);
#333=EDGE_LOOP('',(#334,#344,#354,#364));
#334=ORIENTED_EDGE('',*,*,#237,.T.);
#344=ORIENTED_EDGE('',*,*,#188,.T.);
#354=ORIENTED_EDGE('',*,*,#139,.T.);
#364=ORIENTED_EDGE('',*,*,#286,.T.);
#374=STYLED_ITEM('',(#43),#375);
#375=ADVANCED_FACE('',(#381),#376,.T.);
#376=PLANE('',#377);
#377=AXIS2_PLACEMENT_3D('',#378,#379,#380);
#378=CARTESIAN_POINT('',(-1.199,-1.6,0.646));
#379=DIRECTION('',(0.0,0.0,1.0));
#380=DIRECTION('',(0.,1.,0.));
#381=FACE_OUTER_BOUND('',#382,.T.);
#382=EDGE_LOOP('',(#383,#393,#403,#413));
#383=ORIENTED_EDGE('',*,*,#159,.T.);
#393=ORIENTED_EDGE('',*,*,#208,.T.);
#403=ORIENTED_EDGE('',*,*,#257,.T.);
#413=ORIENTED_EDGE('',*,*,#306,.T.);
#424=MANIFOLD_SOLID_BREP($,#425);
#425=CLOSED_SHELL('',(#427,#496,#565,#614,#663,#712,#761,#810));
#426=STYLED_ITEM('',(#34),#427);
#427=ADVANCED_FACE('',(#433),#428,.T.);
#428=PLANE('',#429);
#429=AXIS2_PLACEMENT_3D('',#430,#431,#432);
#430=CARTESIAN_POINT('',(1.25,-0.55,0.0));
#431=DIRECTION('',(0.0,1.0,0.0));
#432=DIRECTION('',(0.,0.,1.));
#433=FACE_OUTER_BOUND('',#434,.T.);
#434=EDGE_LOOP('',(#435,#445,#455,#465,#475,#485));
#438=CARTESIAN_POINT('',(0.375,-0.55,0.0));
#437=VERTEX_POINT('',#438);
#440=CARTESIAN_POINT('',(1.25,-0.55,0.0));
#439=VERTEX_POINT('',#440);
#436=EDGE_CURVE('',#437,#439,#441,.T.);
#441=LINE('',#438,#443);
#443=VECTOR('',#444,0.874999901);
#444=DIRECTION('',(1.0,0.0,0.0));
#435=ORIENTED_EDGE('',*,*,#436,.F.);
#448=CARTESIAN_POINT('',(0.375,-0.55,0.051));
#447=VERTEX_POINT('',#448);
#446=EDGE_CURVE('',#447,#437,#451,.T.);
#451=LINE('',#448,#453);
#453=VECTOR('',#454,0.0508);
#454=DIRECTION('',(0.0,0.0,-1.0));
#445=ORIENTED_EDGE('',*,*,#446,.F.);
#458=CARTESIAN_POINT('',(1.199,-0.55,0.051));
#457=VERTEX_POINT('',#458);
#456=EDGE_CURVE('',#457,#447,#461,.T.);
#461=LINE('',#458,#463);
#463=VECTOR('',#464,0.824199901);
#464=DIRECTION('',(-1.0,0.0,0.0));
#455=ORIENTED_EDGE('',*,*,#456,.F.);
#468=CARTESIAN_POINT('',(1.199,-0.55,0.381));
#467=VERTEX_POINT('',#468);
#466=EDGE_CURVE('',#467,#457,#471,.T.);
#471=LINE('',#468,#473);
#473=VECTOR('',#474,0.3302);
#474=DIRECTION('',(0.0,0.0,-1.0));
#465=ORIENTED_EDGE('',*,*,#466,.F.);
#478=CARTESIAN_POINT('',(1.25,-0.55,0.381));
#477=VERTEX_POINT('',#478);
#476=EDGE_CURVE('',#477,#467,#481,.T.);
#481=LINE('',#478,#483);
#483=VECTOR('',#484,0.0508);
#484=DIRECTION('',(-1.0,0.0,0.0));
#475=ORIENTED_EDGE('',*,*,#476,.F.);
#486=EDGE_CURVE('',#439,#477,#491,.T.);
#491=LINE('',#440,#493);
#493=VECTOR('',#494,0.381);
#494=DIRECTION('',(0.0,0.0,1.0));
#485=ORIENTED_EDGE('',*,*,#486,.F.);
#495=STYLED_ITEM('',(#34),#496);
#496=ADVANCED_FACE('',(#502),#497,.T.);
#497=PLANE('',#498);
#498=AXIS2_PLACEMENT_3D('',#499,#500,#501);
#499=CARTESIAN_POINT('',(0.375,-1.55,0.0));
#500=DIRECTION('',(0.0,-1.0,0.0));
#501=DIRECTION('',(0.,0.,1.));
#502=FACE_OUTER_BOUND('',#503,.T.);
#503=EDGE_LOOP('',(#504,#514,#524,#534,#544,#554));
#507=CARTESIAN_POINT('',(1.25,-1.55,0.0));
#506=VERTEX_POINT('',#507);
#509=CARTESIAN_POINT('',(0.375,-1.55,0.0));
#508=VERTEX_POINT('',#509);
#505=EDGE_CURVE('',#506,#508,#510,.T.);
#510=LINE('',#507,#512);
#512=VECTOR('',#513,0.874999901);
#513=DIRECTION('',(-1.0,0.0,0.0));
#504=ORIENTED_EDGE('',*,*,#505,.F.);
#517=CARTESIAN_POINT('',(1.25,-1.55,0.381));
#516=VERTEX_POINT('',#517);
#515=EDGE_CURVE('',#516,#506,#520,.T.);
#520=LINE('',#517,#522);
#522=VECTOR('',#523,0.381);
#523=DIRECTION('',(0.0,0.0,-1.0));
#514=ORIENTED_EDGE('',*,*,#515,.F.);
#527=CARTESIAN_POINT('',(1.199,-1.55,0.381));
#526=VERTEX_POINT('',#527);
#525=EDGE_CURVE('',#526,#516,#530,.T.);
#530=LINE('',#527,#532);
#532=VECTOR('',#533,0.0508);
#533=DIRECTION('',(1.0,0.0,0.0));
#524=ORIENTED_EDGE('',*,*,#525,.F.);
#537=CARTESIAN_POINT('',(1.199,-1.55,0.051));
#536=VERTEX_POINT('',#537);
#535=EDGE_CURVE('',#536,#526,#540,.T.);
#540=LINE('',#537,#542);
#542=VECTOR('',#543,0.3302);
#543=DIRECTION('',(0.0,0.0,1.0));
#534=ORIENTED_EDGE('',*,*,#535,.F.);
#547=CARTESIAN_POINT('',(0.375,-1.55,0.051));
#546=VERTEX_POINT('',#547);
#545=EDGE_CURVE('',#546,#536,#550,.T.);
#550=LINE('',#547,#552);
#552=VECTOR('',#553,0.824199901);
#553=DIRECTION('',(1.0,0.0,0.0));
#544=ORIENTED_EDGE('',*,*,#545,.F.);
#555=EDGE_CURVE('',#508,#546,#560,.T.);
#560=LINE('',#509,#562);
#562=VECTOR('',#563,0.0508);
#563=DIRECTION('',(0.0,0.0,1.0));
#554=ORIENTED_EDGE('',*,*,#555,.F.);
#564=STYLED_ITEM('',(#34),#565);
#565=ADVANCED_FACE('',(#571),#566,.T.);
#566=PLANE('',#567);
#567=AXIS2_PLACEMENT_3D('',#568,#569,#570);
#568=CARTESIAN_POINT('',(1.25,-0.55,0.381));
#569=DIRECTION('',(0.0,0.0,1.0));
#570=DIRECTION('',(0.,1.,0.));
#571=FACE_OUTER_BOUND('',#572,.T.);
#572=EDGE_LOOP('',(#573,#583,#593,#603));
#573=ORIENTED_EDGE('',*,*,#476,.T.);
#584=EDGE_CURVE('',#526,#467,#589,.T.);
#589=LINE('',#527,#591);
#591=VECTOR('',#592,1.000000032);
#592=DIRECTION('',(0.0,1.0,0.0));
#583=ORIENTED_EDGE('',*,*,#584,.F.);
#593=ORIENTED_EDGE('',*,*,#525,.T.);
#604=EDGE_CURVE('',#477,#516,#609,.T.);
#609=LINE('',#478,#611);
#611=VECTOR('',#612,1.000000032);
#612=DIRECTION('',(0.0,-1.0,0.0));
#603=ORIENTED_EDGE('',*,*,#604,.F.);
#613=STYLED_ITEM('',(#34),#614);
#614=ADVANCED_FACE('',(#620),#615,.T.);
#615=PLANE('',#616);
#616=AXIS2_PLACEMENT_3D('',#617,#618,#619);
#617=CARTESIAN_POINT('',(1.199,-0.55,0.051));
#618=DIRECTION('',(0.0,0.0,1.0));
#619=DIRECTION('',(0.,1.,0.));
#620=FACE_OUTER_BOUND('',#621,.T.);
#621=EDGE_LOOP('',(#622,#632,#642,#652));
#622=ORIENTED_EDGE('',*,*,#456,.T.);
#633=EDGE_CURVE('',#546,#447,#638,.T.);
#638=LINE('',#547,#640);
#640=VECTOR('',#641,1.000000032);
#641=DIRECTION('',(0.0,1.0,0.0));
#632=ORIENTED_EDGE('',*,*,#633,.F.);
#642=ORIENTED_EDGE('',*,*,#545,.T.);
#653=EDGE_CURVE('',#457,#536,#658,.T.);
#658=LINE('',#458,#660);
#660=VECTOR('',#661,1.000000032);
#661=DIRECTION('',(0.0,-1.0,0.0));
#652=ORIENTED_EDGE('',*,*,#653,.F.);
#662=STYLED_ITEM('',(#34),#663);
#663=ADVANCED_FACE('',(#669),#664,.T.);
#664=PLANE('',#665);
#665=AXIS2_PLACEMENT_3D('',#666,#667,#668);
#666=CARTESIAN_POINT('',(1.25,-1.55,0.0));
#667=DIRECTION('',(1.0,0.0,0.0));
#668=DIRECTION('',(0.,0.,1.));
#669=FACE_OUTER_BOUND('',#670,.T.);
#670=EDGE_LOOP('',(#671,#681,#691,#701));
#672=EDGE_CURVE('',#439,#506,#677,.T.);
#677=LINE('',#440,#679);
#679=VECTOR('',#680,1.000000032);
#680=DIRECTION('',(0.0,-1.0,0.0));
#671=ORIENTED_EDGE('',*,*,#672,.F.);
#681=ORIENTED_EDGE('',*,*,#486,.T.);
#691=ORIENTED_EDGE('',*,*,#604,.T.);
#701=ORIENTED_EDGE('',*,*,#515,.T.);
#711=STYLED_ITEM('',(#34),#712);
#712=ADVANCED_FACE('',(#718),#713,.T.);
#713=PLANE('',#714);
#714=AXIS2_PLACEMENT_3D('',#715,#716,#717);
#715=CARTESIAN_POINT('',(0.375,-0.55,0.0));
#716=DIRECTION('',(-1.0,0.0,0.0));
#717=DIRECTION('',(0.,0.,1.));
#718=FACE_OUTER_BOUND('',#719,.T.);
#719=EDGE_LOOP('',(#720,#730,#740,#750));
#721=EDGE_CURVE('',#508,#437,#726,.T.);
#726=LINE('',#509,#728);
#728=VECTOR('',#729,1.000000032);
#729=DIRECTION('',(0.0,1.0,0.0));
#720=ORIENTED_EDGE('',*,*,#721,.F.);
#730=ORIENTED_EDGE('',*,*,#555,.T.);
#740=ORIENTED_EDGE('',*,*,#633,.T.);
#750=ORIENTED_EDGE('',*,*,#446,.T.);
#760=STYLED_ITEM('',(#34),#761);
#761=ADVANCED_FACE('',(#767),#762,.T.);
#762=PLANE('',#763);
#763=AXIS2_PLACEMENT_3D('',#764,#765,#766);
#764=CARTESIAN_POINT('',(1.199,-0.55,0.051));
#765=DIRECTION('',(-1.0,0.0,0.0));
#766=DIRECTION('',(0.,0.,1.));
#767=FACE_OUTER_BOUND('',#768,.T.);
#768=EDGE_LOOP('',(#769,#779,#789,#799));
#769=ORIENTED_EDGE('',*,*,#653,.T.);
#779=ORIENTED_EDGE('',*,*,#535,.T.);
#789=ORIENTED_EDGE('',*,*,#584,.T.);
#799=ORIENTED_EDGE('',*,*,#466,.T.);
#809=STYLED_ITEM('',(#34),#810);
#810=ADVANCED_FACE('',(#816),#811,.T.);
#811=PLANE('',#812);
#812=AXIS2_PLACEMENT_3D('',#813,#814,#815);
#813=CARTESIAN_POINT('',(1.25,-1.55,0.0));
#814=DIRECTION('',(0.0,0.0,-1.0));
#815=DIRECTION('',(0.,1.,0.));
#816=FACE_OUTER_BOUND('',#817,.T.);
#817=EDGE_LOOP('',(#818,#828,#838,#848));
#818=ORIENTED_EDGE('',*,*,#505,.T.);
#828=ORIENTED_EDGE('',*,*,#721,.T.);
#838=ORIENTED_EDGE('',*,*,#436,.T.);
#848=ORIENTED_EDGE('',*,*,#672,.T.);
#858=MANIFOLD_SOLID_BREP($,#859);
#859=CLOSED_SHELL('',(#861,#930,#999,#1048,#1097,#1146,#1195,#1244));
#860=STYLED_ITEM('',(#34),#861);
#861=ADVANCED_FACE('',(#867),#862,.T.);
#862=PLANE('',#863);
#863=AXIS2_PLACEMENT_3D('',#864,#865,#866);
#864=CARTESIAN_POINT('',(1.25,0.5,0.0));
#865=DIRECTION('',(0.0,1.0,0.0));
#866=DIRECTION('',(0.,0.,1.));
#867=FACE_OUTER_BOUND('',#868,.T.);
#868=EDGE_LOOP('',(#869,#879,#889,#899,#909,#919));
#872=CARTESIAN_POINT('',(0.375,0.5,0.0));
#871=VERTEX_POINT('',#872);
#874=CARTESIAN_POINT('',(1.25,0.5,0.0));
#873=VERTEX_POINT('',#874);
#870=EDGE_CURVE('',#871,#873,#875,.T.);
#875=LINE('',#872,#877);
#877=VECTOR('',#878,0.874999901);
#878=DIRECTION('',(1.0,0.0,0.0));
#869=ORIENTED_EDGE('',*,*,#870,.F.);
#882=CARTESIAN_POINT('',(0.375,0.5,0.051));
#881=VERTEX_POINT('',#882);
#880=EDGE_CURVE('',#881,#871,#885,.T.);
#885=LINE('',#882,#887);
#887=VECTOR('',#888,0.0508);
#888=DIRECTION('',(0.0,0.0,-1.0));
#879=ORIENTED_EDGE('',*,*,#880,.F.);
#892=CARTESIAN_POINT('',(1.199,0.5,0.051));
#891=VERTEX_POINT('',#892);
#890=EDGE_CURVE('',#891,#881,#895,.T.);
#895=LINE('',#892,#897);
#897=VECTOR('',#898,0.824199901);
#898=DIRECTION('',(-1.0,0.0,0.0));
#889=ORIENTED_EDGE('',*,*,#890,.F.);
#902=CARTESIAN_POINT('',(1.199,0.5,0.381));
#901=VERTEX_POINT('',#902);
#900=EDGE_CURVE('',#901,#891,#905,.T.);
#905=LINE('',#902,#907);
#907=VECTOR('',#908,0.3302);
#908=DIRECTION('',(0.0,0.0,-1.0));
#899=ORIENTED_EDGE('',*,*,#900,.F.);
#912=CARTESIAN_POINT('',(1.25,0.5,0.381));
#911=VERTEX_POINT('',#912);
#910=EDGE_CURVE('',#911,#901,#915,.T.);
#915=LINE('',#912,#917);
#917=VECTOR('',#918,0.0508);
#918=DIRECTION('',(-1.0,0.0,0.0));
#909=ORIENTED_EDGE('',*,*,#910,.F.);
#920=EDGE_CURVE('',#873,#911,#925,.T.);
#925=LINE('',#874,#927);
#927=VECTOR('',#928,0.381);
#928=DIRECTION('',(0.0,0.0,1.0));
#919=ORIENTED_EDGE('',*,*,#920,.F.);
#929=STYLED_ITEM('',(#34),#930);
#930=ADVANCED_FACE('',(#936),#931,.T.);
#931=PLANE('',#932);
#932=AXIS2_PLACEMENT_3D('',#933,#934,#935);
#933=CARTESIAN_POINT('',(0.375,-0.5,0.0));
#934=DIRECTION('',(0.0,-1.0,0.0));
#935=DIRECTION('',(0.,0.,1.));
#936=FACE_OUTER_BOUND('',#937,.T.);
#937=EDGE_LOOP('',(#938,#948,#958,#968,#978,#988));
#941=CARTESIAN_POINT('',(1.25,-0.5,0.0));
#940=VERTEX_POINT('',#941);
#943=CARTESIAN_POINT('',(0.375,-0.5,0.0));
#942=VERTEX_POINT('',#943);
#939=EDGE_CURVE('',#940,#942,#944,.T.);
#944=LINE('',#941,#946);
#946=VECTOR('',#947,0.874999901);
#947=DIRECTION('',(-1.0,0.0,0.0));
#938=ORIENTED_EDGE('',*,*,#939,.F.);
#951=CARTESIAN_POINT('',(1.25,-0.5,0.381));
#950=VERTEX_POINT('',#951);
#949=EDGE_CURVE('',#950,#940,#954,.T.);
#954=LINE('',#951,#956);
#956=VECTOR('',#957,0.381);
#957=DIRECTION('',(0.0,0.0,-1.0));
#948=ORIENTED_EDGE('',*,*,#949,.F.);
#961=CARTESIAN_POINT('',(1.199,-0.5,0.381));
#960=VERTEX_POINT('',#961);
#959=EDGE_CURVE('',#960,#950,#964,.T.);
#964=LINE('',#961,#966);
#966=VECTOR('',#967,0.0508);
#967=DIRECTION('',(1.0,0.0,0.0));
#958=ORIENTED_EDGE('',*,*,#959,.F.);
#971=CARTESIAN_POINT('',(1.199,-0.5,0.051));
#970=VERTEX_POINT('',#971);
#969=EDGE_CURVE('',#970,#960,#974,.T.);
#974=LINE('',#971,#976);
#976=VECTOR('',#977,0.3302);
#977=DIRECTION('',(0.0,0.0,1.0));
#968=ORIENTED_EDGE('',*,*,#969,.F.);
#981=CARTESIAN_POINT('',(0.375,-0.5,0.051));
#980=VERTEX_POINT('',#981);
#979=EDGE_CURVE('',#980,#970,#984,.T.);
#984=LINE('',#981,#986);
#986=VECTOR('',#987,0.824199901);
#987=DIRECTION('',(1.0,0.0,0.0));
#978=ORIENTED_EDGE('',*,*,#979,.F.);
#989=EDGE_CURVE('',#942,#980,#994,.T.);
#994=LINE('',#943,#996);
#996=VECTOR('',#997,0.0508);
#997=DIRECTION('',(0.0,0.0,1.0));
#988=ORIENTED_EDGE('',*,*,#989,.F.);
#998=STYLED_ITEM('',(#34),#999);
#999=ADVANCED_FACE('',(#1005),#1000,.T.);
#1000=PLANE('',#1001);
#1001=AXIS2_PLACEMENT_3D('',#1002,#1003,#1004);
#1002=CARTESIAN_POINT('',(1.25,0.5,0.381));
#1003=DIRECTION('',(0.0,0.0,1.0));
#1004=DIRECTION('',(0.,1.,0.));
#1005=FACE_OUTER_BOUND('',#1006,.T.);
#1006=EDGE_LOOP('',(#1007,#1017,#1027,#1037));
#1007=ORIENTED_EDGE('',*,*,#910,.T.);
#1018=EDGE_CURVE('',#960,#901,#1023,.T.);
#1023=LINE('',#961,#1025);
#1025=VECTOR('',#1026,1.000000032);
#1026=DIRECTION('',(0.0,1.0,0.0));
#1017=ORIENTED_EDGE('',*,*,#1018,.F.);
#1027=ORIENTED_EDGE('',*,*,#959,.T.);
#1038=EDGE_CURVE('',#911,#950,#1043,.T.);
#1043=LINE('',#912,#1045);
#1045=VECTOR('',#1046,1.000000032);
#1046=DIRECTION('',(0.0,-1.0,0.0));
#1037=ORIENTED_EDGE('',*,*,#1038,.F.);
#1047=STYLED_ITEM('',(#34),#1048);
#1048=ADVANCED_FACE('',(#1054),#1049,.T.);
#1049=PLANE('',#1050);
#1050=AXIS2_PLACEMENT_3D('',#1051,#1052,#1053);
#1051=CARTESIAN_POINT('',(1.199,0.5,0.051));
#1052=DIRECTION('',(0.0,0.0,1.0));
#1053=DIRECTION('',(0.,1.,0.));
#1054=FACE_OUTER_BOUND('',#1055,.T.);
#1055=EDGE_LOOP('',(#1056,#1066,#1076,#1086));
#1056=ORIENTED_EDGE('',*,*,#890,.T.);
#1067=EDGE_CURVE('',#980,#881,#1072,.T.);
#1072=LINE('',#981,#1074);
#1074=VECTOR('',#1075,1.000000032);
#1075=DIRECTION('',(0.0,1.0,0.0));
#1066=ORIENTED_EDGE('',*,*,#1067,.F.);
#1076=ORIENTED_EDGE('',*,*,#979,.T.);
#1087=EDGE_CURVE('',#891,#970,#1092,.T.);
#1092=LINE('',#892,#1094);
#1094=VECTOR('',#1095,1.000000032);
#1095=DIRECTION('',(0.0,-1.0,0.0));
#1086=ORIENTED_EDGE('',*,*,#1087,.F.);
#1096=STYLED_ITEM('',(#34),#1097);
#1097=ADVANCED_FACE('',(#1103),#1098,.T.);
#1098=PLANE('',#1099);
#1099=AXIS2_PLACEMENT_3D('',#1100,#1101,#1102);
#1100=CARTESIAN_POINT('',(1.25,-0.5,0.0));
#1101=DIRECTION('',(1.0,0.0,0.0));
#1102=DIRECTION('',(0.,0.,1.));
#1103=FACE_OUTER_BOUND('',#1104,.T.);
#1104=EDGE_LOOP('',(#1105,#1115,#1125,#1135));
#1106=EDGE_CURVE('',#873,#940,#1111,.T.);
#1111=LINE('',#874,#1113);
#1113=VECTOR('',#1114,1.000000032);
#1114=DIRECTION('',(0.0,-1.0,0.0));
#1105=ORIENTED_EDGE('',*,*,#1106,.F.);
#1115=ORIENTED_EDGE('',*,*,#920,.T.);
#1125=ORIENTED_EDGE('',*,*,#1038,.T.);
#1135=ORIENTED_EDGE('',*,*,#949,.T.);
#1145=STYLED_ITEM('',(#34),#1146);
#1146=ADVANCED_FACE('',(#1152),#1147,.T.);
#1147=PLANE('',#1148);
#1148=AXIS2_PLACEMENT_3D('',#1149,#1150,#1151);
#1149=CARTESIAN_POINT('',(0.375,0.5,0.0));
#1150=DIRECTION('',(-1.0,0.0,0.0));
#1151=DIRECTION('',(0.,0.,1.));
#1152=FACE_OUTER_BOUND('',#1153,.T.);
#1153=EDGE_LOOP('',(#1154,#1164,#1174,#1184));
#1155=EDGE_CURVE('',#942,#871,#1160,.T.);
#1160=LINE('',#943,#1162);
#1162=VECTOR('',#1163,1.000000032);
#1163=DIRECTION('',(0.0,1.0,0.0));
#1154=ORIENTED_EDGE('',*,*,#1155,.F.);
#1164=ORIENTED_EDGE('',*,*,#989,.T.);
#1174=ORIENTED_EDGE('',*,*,#1067,.T.);
#1184=ORIENTED_EDGE('',*,*,#880,.T.);
#1194=STYLED_ITEM('',(#34),#1195);
#1195=ADVANCED_FACE('',(#1201),#1196,.T.);
#1196=PLANE('',#1197);
#1197=AXIS2_PLACEMENT_3D('',#1198,#1199,#1200);
#1198=CARTESIAN_POINT('',(1.199,0.5,0.051));
#1199=DIRECTION('',(-1.0,0.0,0.0));
#1200=DIRECTION('',(0.,0.,1.));
#1201=FACE_OUTER_BOUND('',#1202,.T.);
#1202=EDGE_LOOP('',(#1203,#1213,#1223,#1233));
#1203=ORIENTED_EDGE('',*,*,#1087,.T.);
#1213=ORIENTED_EDGE('',*,*,#969,.T.);
#1223=ORIENTED_EDGE('',*,*,#1018,.T.);
#1233=ORIENTED_EDGE('',*,*,#900,.T.);
#1243=STYLED_ITEM('',(#34),#1244);
#1244=ADVANCED_FACE('',(#1250),#1245,.T.);
#1245=PLANE('',#1246);
#1246=AXIS2_PLACEMENT_3D('',#1247,#1248,#1249);
#1247=CARTESIAN_POINT('',(1.25,-0.5,0.0));
#1248=DIRECTION('',(0.0,0.0,-1.0));
#1249=DIRECTION('',(0.,1.,0.));
#1250=FACE_OUTER_BOUND('',#1251,.T.);
#1251=EDGE_LOOP('',(#1252,#1262,#1272,#1282));
#1252=ORIENTED_EDGE('',*,*,#939,.T.);
#1262=ORIENTED_EDGE('',*,*,#1155,.T.);
#1272=ORIENTED_EDGE('',*,*,#870,.T.);
#1282=ORIENTED_EDGE('',*,*,#1106,.T.);
#1292=MANIFOLD_SOLID_BREP($,#1293);
#1293=CLOSED_SHELL('',(#1295,#1364,#1433,#1482,#1531,#1580,#1629,#1678));
#1294=STYLED_ITEM('',(#34),#1295);
#1295=ADVANCED_FACE('',(#1301),#1296,.T.);
#1296=PLANE('',#1297);
#1297=AXIS2_PLACEMENT_3D('',#1298,#1299,#1300);
#1298=CARTESIAN_POINT('',(1.25,1.55,0.0));
#1299=DIRECTION('',(0.0,1.0,0.0));
#1300=DIRECTION('',(0.,0.,1.));
#1301=FACE_OUTER_BOUND('',#1302,.T.);
#1302=EDGE_LOOP('',(#1303,#1313,#1323,#1333,#1343,#1353));
#1306=CARTESIAN_POINT('',(0.375,1.55,0.0));
#1305=VERTEX_POINT('',#1306);
#1308=CARTESIAN_POINT('',(1.25,1.55,0.0));
#1307=VERTEX_POINT('',#1308);
#1304=EDGE_CURVE('',#1305,#1307,#1309,.T.);
#1309=LINE('',#1306,#1311);
#1311=VECTOR('',#1312,0.874999901);
#1312=DIRECTION('',(1.0,0.0,0.0));
#1303=ORIENTED_EDGE('',*,*,#1304,.F.);
#1316=CARTESIAN_POINT('',(0.375,1.55,0.051));
#1315=VERTEX_POINT('',#1316);
#1314=EDGE_CURVE('',#1315,#1305,#1319,.T.);
#1319=LINE('',#1316,#1321);
#1321=VECTOR('',#1322,0.0508);
#1322=DIRECTION('',(0.0,0.0,-1.0));
#1313=ORIENTED_EDGE('',*,*,#1314,.F.);
#1326=CARTESIAN_POINT('',(1.199,1.55,0.051));
#1325=VERTEX_POINT('',#1326);
#1324=EDGE_CURVE('',#1325,#1315,#1329,.T.);
#1329=LINE('',#1326,#1331);
#1331=VECTOR('',#1332,0.824199901);
#1332=DIRECTION('',(-1.0,0.0,0.0));
#1323=ORIENTED_EDGE('',*,*,#1324,.F.);
#1336=CARTESIAN_POINT('',(1.199,1.55,0.381));
#1335=VERTEX_POINT('',#1336);
#1334=EDGE_CURVE('',#1335,#1325,#1339,.T.);
#1339=LINE('',#1336,#1341);
#1341=VECTOR('',#1342,0.3302);
#1342=DIRECTION('',(0.0,0.0,-1.0));
#1333=ORIENTED_EDGE('',*,*,#1334,.F.);
#1346=CARTESIAN_POINT('',(1.25,1.55,0.381));
#1345=VERTEX_POINT('',#1346);
#1344=EDGE_CURVE('',#1345,#1335,#1349,.T.);
#1349=LINE('',#1346,#1351);
#1351=VECTOR('',#1352,0.0508);
#1352=DIRECTION('',(-1.0,0.0,0.0));
#1343=ORIENTED_EDGE('',*,*,#1344,.F.);
#1354=EDGE_CURVE('',#1307,#1345,#1359,.T.);
#1359=LINE('',#1308,#1361);
#1361=VECTOR('',#1362,0.381);
#1362=DIRECTION('',(0.0,0.0,1.0));
#1353=ORIENTED_EDGE('',*,*,#1354,.F.);
#1363=STYLED_ITEM('',(#34),#1364);
#1364=ADVANCED_FACE('',(#1370),#1365,.T.);
#1365=PLANE('',#1366);
#1366=AXIS2_PLACEMENT_3D('',#1367,#1368,#1369);
#1367=CARTESIAN_POINT('',(0.375,0.55,0.0));
#1368=DIRECTION('',(0.0,-1.0,0.0));
#1369=DIRECTION('',(0.,0.,1.));
#1370=FACE_OUTER_BOUND('',#1371,.T.);
#1371=EDGE_LOOP('',(#1372,#1382,#1392,#1402,#1412,#1422));
#1375=CARTESIAN_POINT('',(1.25,0.55,0.0));
#1374=VERTEX_POINT('',#1375);
#1377=CARTESIAN_POINT('',(0.375,0.55,0.0));
#1376=VERTEX_POINT('',#1377);
#1373=EDGE_CURVE('',#1374,#1376,#1378,.T.);
#1378=LINE('',#1375,#1380);
#1380=VECTOR('',#1381,0.874999901);
#1381=DIRECTION('',(-1.0,0.0,0.0));
#1372=ORIENTED_EDGE('',*,*,#1373,.F.);
#1385=CARTESIAN_POINT('',(1.25,0.55,0.381));
#1384=VERTEX_POINT('',#1385);
#1383=EDGE_CURVE('',#1384,#1374,#1388,.T.);
#1388=LINE('',#1385,#1390);
#1390=VECTOR('',#1391,0.381);
#1391=DIRECTION('',(0.0,0.0,-1.0));
#1382=ORIENTED_EDGE('',*,*,#1383,.F.);
#1395=CARTESIAN_POINT('',(1.199,0.55,0.381));
#1394=VERTEX_POINT('',#1395);
#1393=EDGE_CURVE('',#1394,#1384,#1398,.T.);
#1398=LINE('',#1395,#1400);
#1400=VECTOR('',#1401,0.0508);
#1401=DIRECTION('',(1.0,0.0,0.0));
#1392=ORIENTED_EDGE('',*,*,#1393,.F.);
#1405=CARTESIAN_POINT('',(1.199,0.55,0.051));
#1404=VERTEX_POINT('',#1405);
#1403=EDGE_CURVE('',#1404,#1394,#1408,.T.);
#1408=LINE('',#1405,#1410);
#1410=VECTOR('',#1411,0.3302);
#1411=DIRECTION('',(0.0,0.0,1.0));
#1402=ORIENTED_EDGE('',*,*,#1403,.F.);
#1415=CARTESIAN_POINT('',(0.375,0.55,0.051));
#1414=VERTEX_POINT('',#1415);
#1413=EDGE_CURVE('',#1414,#1404,#1418,.T.);
#1418=LINE('',#1415,#1420);
#1420=VECTOR('',#1421,0.824199901);
#1421=DIRECTION('',(1.0,0.0,0.0));
#1412=ORIENTED_EDGE('',*,*,#1413,.F.);
#1423=EDGE_CURVE('',#1376,#1414,#1428,.T.);
#1428=LINE('',#1377,#1430);
#1430=VECTOR('',#1431,0.0508);
#1431=DIRECTION('',(0.0,0.0,1.0));
#1422=ORIENTED_EDGE('',*,*,#1423,.F.);
#1432=STYLED_ITEM('',(#34),#1433);
#1433=ADVANCED_FACE('',(#1439),#1434,.T.);
#1434=PLANE('',#1435);
#1435=AXIS2_PLACEMENT_3D('',#1436,#1437,#1438);
#1436=CARTESIAN_POINT('',(1.25,1.55,0.381));
#1437=DIRECTION('',(0.0,0.0,1.0));
#1438=DIRECTION('',(0.,1.,0.));
#1439=FACE_OUTER_BOUND('',#1440,.T.);
#1440=EDGE_LOOP('',(#1441,#1451,#1461,#1471));
#1441=ORIENTED_EDGE('',*,*,#1344,.T.);
#1452=EDGE_CURVE('',#1394,#1335,#1457,.T.);
#1457=LINE('',#1395,#1459);
#1459=VECTOR('',#1460,1.000000032);
#1460=DIRECTION('',(0.0,1.0,0.0));
#1451=ORIENTED_EDGE('',*,*,#1452,.F.);
#1461=ORIENTED_EDGE('',*,*,#1393,.T.);
#1472=EDGE_CURVE('',#1345,#1384,#1477,.T.);
#1477=LINE('',#1346,#1479);
#1479=VECTOR('',#1480,1.000000032);
#1480=DIRECTION('',(0.0,-1.0,0.0));
#1471=ORIENTED_EDGE('',*,*,#1472,.F.);
#1481=STYLED_ITEM('',(#34),#1482);
#1482=ADVANCED_FACE('',(#1488),#1483,.T.);
#1483=PLANE('',#1484);
#1484=AXIS2_PLACEMENT_3D('',#1485,#1486,#1487);
#1485=CARTESIAN_POINT('',(1.199,1.55,0.051));
#1486=DIRECTION('',(0.0,0.0,1.0));
#1487=DIRECTION('',(0.,1.,0.));
#1488=FACE_OUTER_BOUND('',#1489,.T.);
#1489=EDGE_LOOP('',(#1490,#1500,#1510,#1520));
#1490=ORIENTED_EDGE('',*,*,#1324,.T.);
#1501=EDGE_CURVE('',#1414,#1315,#1506,.T.);
#1506=LINE('',#1415,#1508);
#1508=VECTOR('',#1509,1.000000032);
#1509=DIRECTION('',(0.0,1.0,0.0));
#1500=ORIENTED_EDGE('',*,*,#1501,.F.);
#1510=ORIENTED_EDGE('',*,*,#1413,.T.);
#1521=EDGE_CURVE('',#1325,#1404,#1526,.T.);
#1526=LINE('',#1326,#1528);
#1528=VECTOR('',#1529,1.000000032);
#1529=DIRECTION('',(0.0,-1.0,0.0));
#1520=ORIENTED_EDGE('',*,*,#1521,.F.);
#1530=STYLED_ITEM('',(#34),#1531);
#1531=ADVANCED_FACE('',(#1537),#1532,.T.);
#1532=PLANE('',#1533);
#1533=AXIS2_PLACEMENT_3D('',#1534,#1535,#1536);
#1534=CARTESIAN_POINT('',(1.25,0.55,0.0));
#1535=DIRECTION('',(1.0,0.0,0.0));
#1536=DIRECTION('',(0.,0.,1.));
#1537=FACE_OUTER_BOUND('',#1538,.T.);
#1538=EDGE_LOOP('',(#1539,#1549,#1559,#1569));
#1540=EDGE_CURVE('',#1307,#1374,#1545,.T.);
#1545=LINE('',#1308,#1547);
#1547=VECTOR('',#1548,1.000000032);
#1548=DIRECTION('',(0.0,-1.0,0.0));
#1539=ORIENTED_EDGE('',*,*,#1540,.F.);
#1549=ORIENTED_EDGE('',*,*,#1354,.T.);
#1559=ORIENTED_EDGE('',*,*,#1472,.T.);
#1569=ORIENTED_EDGE('',*,*,#1383,.T.);
#1579=STYLED_ITEM('',(#34),#1580);
#1580=ADVANCED_FACE('',(#1586),#1581,.T.);
#1581=PLANE('',#1582);
#1582=AXIS2_PLACEMENT_3D('',#1583,#1584,#1585);
#1583=CARTESIAN_POINT('',(0.375,1.55,0.0));
#1584=DIRECTION('',(-1.0,0.0,0.0));
#1585=DIRECTION('',(0.,0.,1.));
#1586=FACE_OUTER_BOUND('',#1587,.T.);
#1587=EDGE_LOOP('',(#1588,#1598,#1608,#1618));
#1589=EDGE_CURVE('',#1376,#1305,#1594,.T.);
#1594=LINE('',#1377,#1596);
#1596=VECTOR('',#1597,1.000000032);
#1597=DIRECTION('',(0.0,1.0,0.0));
#1588=ORIENTED_EDGE('',*,*,#1589,.F.);
#1598=ORIENTED_EDGE('',*,*,#1423,.T.);
#1608=ORIENTED_EDGE('',*,*,#1501,.T.);
#1618=ORIENTED_EDGE('',*,*,#1314,.T.);
#1628=STYLED_ITEM('',(#34),#1629);
#1629=ADVANCED_FACE('',(#1635),#1630,.T.);
#1630=PLANE('',#1631);
#1631=AXIS2_PLACEMENT_3D('',#1632,#1633,#1634);
#1632=CARTESIAN_POINT('',(1.199,1.55,0.051));
#1633=DIRECTION('',(-1.0,0.0,0.0));
#1634=DIRECTION('',(0.,0.,1.));
#1635=FACE_OUTER_BOUND('',#1636,.T.);
#1636=EDGE_LOOP('',(#1637,#1647,#1657,#1667));
#1637=ORIENTED_EDGE('',*,*,#1521,.T.);
#1647=ORIENTED_EDGE('',*,*,#1403,.T.);
#1657=ORIENTED_EDGE('',*,*,#1452,.T.);
#1667=ORIENTED_EDGE('',*,*,#1334,.T.);
#1677=STYLED_ITEM('',(#34),#1678);
#1678=ADVANCED_FACE('',(#1684),#1679,.T.);
#1679=PLANE('',#1680);
#1680=AXIS2_PLACEMENT_3D('',#1681,#1682,#1683);
#1681=CARTESIAN_POINT('',(1.25,0.55,0.0));
#1682=DIRECTION('',(0.0,0.0,-1.0));
#1683=DIRECTION('',(0.,1.,0.));
#1684=FACE_OUTER_BOUND('',#1685,.T.);
#1685=EDGE_LOOP('',(#1686,#1696,#1706,#1716));
#1686=ORIENTED_EDGE('',*,*,#1373,.T.);
#1696=ORIENTED_EDGE('',*,*,#1589,.T.);
#1706=ORIENTED_EDGE('',*,*,#1304,.T.);
#1716=ORIENTED_EDGE('',*,*,#1540,.T.);
#1726=MANIFOLD_SOLID_BREP($,#1727);
#1727=CLOSED_SHELL('',(#1729,#1798,#1867,#1916,#1965,#2014,#2063,#2112));
#1728=STYLED_ITEM('',(#34),#1729);
#1729=ADVANCED_FACE('',(#1735),#1730,.T.);
#1730=PLANE('',#1731);
#1731=AXIS2_PLACEMENT_3D('',#1732,#1733,#1734);
#1732=CARTESIAN_POINT('',(-1.25,0.55,0.0));
#1733=DIRECTION('',(0.0,-1.0,0.0));
#1734=DIRECTION('',(0.,0.,1.));
#1735=FACE_OUTER_BOUND('',#1736,.T.);
#1736=EDGE_LOOP('',(#1737,#1747,#1757,#1767,#1777,#1787));
#1740=CARTESIAN_POINT('',(-0.375,0.55,0.0));
#1739=VERTEX_POINT('',#1740);
#1742=CARTESIAN_POINT('',(-1.25,0.55,0.0));
#1741=VERTEX_POINT('',#1742);
#1738=EDGE_CURVE('',#1739,#1741,#1743,.T.);
#1743=LINE('',#1740,#1745);
#1745=VECTOR('',#1746,0.874999901);
#1746=DIRECTION('',(-1.0,0.0,0.0));
#1737=ORIENTED_EDGE('',*,*,#1738,.F.);
#1750=CARTESIAN_POINT('',(-0.375,0.55,0.051));
#1749=VERTEX_POINT('',#1750);
#1748=EDGE_CURVE('',#1749,#1739,#1753,.T.);
#1753=LINE('',#1750,#1755);
#1755=VECTOR('',#1756,0.0508);
#1756=DIRECTION('',(0.0,0.0,-1.0));
#1747=ORIENTED_EDGE('',*,*,#1748,.F.);
#1760=CARTESIAN_POINT('',(-1.199,0.55,0.051));
#1759=VERTEX_POINT('',#1760);
#1758=EDGE_CURVE('',#1759,#1749,#1763,.T.);
#1763=LINE('',#1760,#1765);
#1765=VECTOR('',#1766,0.824199901);
#1766=DIRECTION('',(1.0,0.0,0.0));
#1757=ORIENTED_EDGE('',*,*,#1758,.F.);
#1770=CARTESIAN_POINT('',(-1.199,0.55,0.381));
#1769=VERTEX_POINT('',#1770);
#1768=EDGE_CURVE('',#1769,#1759,#1773,.T.);
#1773=LINE('',#1770,#1775);
#1775=VECTOR('',#1776,0.3302);
#1776=DIRECTION('',(0.0,0.0,-1.0));
#1767=ORIENTED_EDGE('',*,*,#1768,.F.);
#1780=CARTESIAN_POINT('',(-1.25,0.55,0.381));
#1779=VERTEX_POINT('',#1780);
#1778=EDGE_CURVE('',#1779,#1769,#1783,.T.);
#1783=LINE('',#1780,#1785);
#1785=VECTOR('',#1786,0.0508);
#1786=DIRECTION('',(1.0,0.0,0.0));
#1777=ORIENTED_EDGE('',*,*,#1778,.F.);
#1788=EDGE_CURVE('',#1741,#1779,#1793,.T.);
#1793=LINE('',#1742,#1795);
#1795=VECTOR('',#1796,0.381);
#1796=DIRECTION('',(0.0,0.0,1.0));
#1787=ORIENTED_EDGE('',*,*,#1788,.F.);
#1797=STYLED_ITEM('',(#34),#1798);
#1798=ADVANCED_FACE('',(#1804),#1799,.T.);
#1799=PLANE('',#1800);
#1800=AXIS2_PLACEMENT_3D('',#1801,#1802,#1803);
#1801=CARTESIAN_POINT('',(-0.375,1.55,0.0));
#1802=DIRECTION('',(0.0,1.0,0.0));
#1803=DIRECTION('',(0.,0.,1.));
#1804=FACE_OUTER_BOUND('',#1805,.T.);
#1805=EDGE_LOOP('',(#1806,#1816,#1826,#1836,#1846,#1856));
#1809=CARTESIAN_POINT('',(-1.25,1.55,0.0));
#1808=VERTEX_POINT('',#1809);
#1811=CARTESIAN_POINT('',(-0.375,1.55,0.0));
#1810=VERTEX_POINT('',#1811);
#1807=EDGE_CURVE('',#1808,#1810,#1812,.T.);
#1812=LINE('',#1809,#1814);
#1814=VECTOR('',#1815,0.874999901);
#1815=DIRECTION('',(1.0,0.0,0.0));
#1806=ORIENTED_EDGE('',*,*,#1807,.F.);
#1819=CARTESIAN_POINT('',(-1.25,1.55,0.381));
#1818=VERTEX_POINT('',#1819);
#1817=EDGE_CURVE('',#1818,#1808,#1822,.T.);
#1822=LINE('',#1819,#1824);
#1824=VECTOR('',#1825,0.381);
#1825=DIRECTION('',(0.0,0.0,-1.0));
#1816=ORIENTED_EDGE('',*,*,#1817,.F.);
#1829=CARTESIAN_POINT('',(-1.199,1.55,0.381));
#1828=VERTEX_POINT('',#1829);
#1827=EDGE_CURVE('',#1828,#1818,#1832,.T.);
#1832=LINE('',#1829,#1834);
#1834=VECTOR('',#1835,0.0508);
#1835=DIRECTION('',(-1.0,0.0,0.0));
#1826=ORIENTED_EDGE('',*,*,#1827,.F.);
#1839=CARTESIAN_POINT('',(-1.199,1.55,0.051));
#1838=VERTEX_POINT('',#1839);
#1837=EDGE_CURVE('',#1838,#1828,#1842,.T.);
#1842=LINE('',#1839,#1844);
#1844=VECTOR('',#1845,0.3302);
#1845=DIRECTION('',(0.0,0.0,1.0));
#1836=ORIENTED_EDGE('',*,*,#1837,.F.);
#1849=CARTESIAN_POINT('',(-0.375,1.55,0.051));
#1848=VERTEX_POINT('',#1849);
#1847=EDGE_CURVE('',#1848,#1838,#1852,.T.);
#1852=LINE('',#1849,#1854);
#1854=VECTOR('',#1855,0.824199901);
#1855=DIRECTION('',(-1.0,0.0,0.0));
#1846=ORIENTED_EDGE('',*,*,#1847,.F.);
#1857=EDGE_CURVE('',#1810,#1848,#1862,.T.);
#1862=LINE('',#1811,#1864);
#1864=VECTOR('',#1865,0.0508);
#1865=DIRECTION('',(0.0,0.0,1.0));
#1856=ORIENTED_EDGE('',*,*,#1857,.F.);
#1866=STYLED_ITEM('',(#34),#1867);
#1867=ADVANCED_FACE('',(#1873),#1868,.T.);
#1868=PLANE('',#1869);
#1869=AXIS2_PLACEMENT_3D('',#1870,#1871,#1872);
#1870=CARTESIAN_POINT('',(-1.25,0.55,0.381));
#1871=DIRECTION('',(0.0,0.0,1.0));
#1872=DIRECTION('',(0.,1.,0.));
#1873=FACE_OUTER_BOUND('',#1874,.T.);
#1874=EDGE_LOOP('',(#1875,#1885,#1895,#1905));
#1875=ORIENTED_EDGE('',*,*,#1778,.T.);
#1886=EDGE_CURVE('',#1828,#1769,#1891,.T.);
#1891=LINE('',#1829,#1893);
#1893=VECTOR('',#1894,1.000000032);
#1894=DIRECTION('',(0.0,-1.0,0.0));
#1885=ORIENTED_EDGE('',*,*,#1886,.F.);
#1895=ORIENTED_EDGE('',*,*,#1827,.T.);
#1906=EDGE_CURVE('',#1779,#1818,#1911,.T.);
#1911=LINE('',#1780,#1913);
#1913=VECTOR('',#1914,1.000000032);
#1914=DIRECTION('',(0.0,1.0,0.0));
#1905=ORIENTED_EDGE('',*,*,#1906,.F.);
#1915=STYLED_ITEM('',(#34),#1916);
#1916=ADVANCED_FACE('',(#1922),#1917,.T.);
#1917=PLANE('',#1918);
#1918=AXIS2_PLACEMENT_3D('',#1919,#1920,#1921);
#1919=CARTESIAN_POINT('',(-1.199,0.55,0.051));
#1920=DIRECTION('',(0.0,0.0,1.0));
#1921=DIRECTION('',(0.,1.,0.));
#1922=FACE_OUTER_BOUND('',#1923,.T.);
#1923=EDGE_LOOP('',(#1924,#1934,#1944,#1954));
#1924=ORIENTED_EDGE('',*,*,#1758,.T.);
#1935=EDGE_CURVE('',#1848,#1749,#1940,.T.);
#1940=LINE('',#1849,#1942);
#1942=VECTOR('',#1943,1.000000032);
#1943=DIRECTION('',(0.0,-1.0,0.0));
#1934=ORIENTED_EDGE('',*,*,#1935,.F.);
#1944=ORIENTED_EDGE('',*,*,#1847,.T.);
#1955=EDGE_CURVE('',#1759,#1838,#1960,.T.);
#1960=LINE('',#1760,#1962);
#1962=VECTOR('',#1963,1.000000032);
#1963=DIRECTION('',(0.0,1.0,0.0));
#1954=ORIENTED_EDGE('',*,*,#1955,.F.);
#1964=STYLED_ITEM('',(#34),#1965);
#1965=ADVANCED_FACE('',(#1971),#1966,.T.);
#1966=PLANE('',#1967);
#1967=AXIS2_PLACEMENT_3D('',#1968,#1969,#1970);
#1968=CARTESIAN_POINT('',(-1.25,1.55,0.0));
#1969=DIRECTION('',(-1.0,0.0,0.0));
#1970=DIRECTION('',(0.,0.,1.));
#1971=FACE_OUTER_BOUND('',#1972,.T.);
#1972=EDGE_LOOP('',(#1973,#1983,#1993,#2003));
#1974=EDGE_CURVE('',#1741,#1808,#1979,.T.);
#1979=LINE('',#1742,#1981);
#1981=VECTOR('',#1982,1.000000032);
#1982=DIRECTION('',(0.0,1.0,0.0));
#1973=ORIENTED_EDGE('',*,*,#1974,.F.);
#1983=ORIENTED_EDGE('',*,*,#1788,.T.);
#1993=ORIENTED_EDGE('',*,*,#1906,.T.);
#2003=ORIENTED_EDGE('',*,*,#1817,.T.);
#2013=STYLED_ITEM('',(#34),#2014);
#2014=ADVANCED_FACE('',(#2020),#2015,.T.);
#2015=PLANE('',#2016);
#2016=AXIS2_PLACEMENT_3D('',#2017,#2018,#2019);
#2017=CARTESIAN_POINT('',(-0.375,0.55,0.0));
#2018=DIRECTION('',(1.0,0.0,0.0));
#2019=DIRECTION('',(0.,0.,1.));
#2020=FACE_OUTER_BOUND('',#2021,.T.);
#2021=EDGE_LOOP('',(#2022,#2032,#2042,#2052));
#2023=EDGE_CURVE('',#1810,#1739,#2028,.T.);
#2028=LINE('',#1811,#2030);
#2030=VECTOR('',#2031,1.000000032);
#2031=DIRECTION('',(0.0,-1.0,0.0));
#2022=ORIENTED_EDGE('',*,*,#2023,.F.);
#2032=ORIENTED_EDGE('',*,*,#1857,.T.);
#2042=ORIENTED_EDGE('',*,*,#1935,.T.);
#2052=ORIENTED_EDGE('',*,*,#1748,.T.);
#2062=STYLED_ITEM('',(#34),#2063);
#2063=ADVANCED_FACE('',(#2069),#2064,.T.);
#2064=PLANE('',#2065);
#2065=AXIS2_PLACEMENT_3D('',#2066,#2067,#2068);
#2066=CARTESIAN_POINT('',(-1.199,0.55,0.051));
#2067=DIRECTION('',(1.0,0.0,0.0));
#2068=DIRECTION('',(0.,0.,1.));
#2069=FACE_OUTER_BOUND('',#2070,.T.);
#2070=EDGE_LOOP('',(#2071,#2081,#2091,#2101));
#2071=ORIENTED_EDGE('',*,*,#1955,.T.);
#2081=ORIENTED_EDGE('',*,*,#1837,.T.);
#2091=ORIENTED_EDGE('',*,*,#1886,.T.);
#2101=ORIENTED_EDGE('',*,*,#1768,.T.);
#2111=STYLED_ITEM('',(#34),#2112);
#2112=ADVANCED_FACE('',(#2118),#2113,.T.);
#2113=PLANE('',#2114);
#2114=AXIS2_PLACEMENT_3D('',#2115,#2116,#2117);
#2115=CARTESIAN_POINT('',(-1.25,1.55,0.0));
#2116=DIRECTION('',(0.0,0.0,-1.0));
#2117=DIRECTION('',(0.,1.,0.));
#2118=FACE_OUTER_BOUND('',#2119,.T.);
#2119=EDGE_LOOP('',(#2120,#2130,#2140,#2150));
#2120=ORIENTED_EDGE('',*,*,#1807,.T.);
#2130=ORIENTED_EDGE('',*,*,#2023,.T.);
#2140=ORIENTED_EDGE('',*,*,#1738,.T.);
#2150=ORIENTED_EDGE('',*,*,#1974,.T.);
#2160=MANIFOLD_SOLID_BREP($,#2161);
#2161=CLOSED_SHELL('',(#2163,#2232,#2301,#2350,#2399,#2448,#2497,#2546));
#2162=STYLED_ITEM('',(#34),#2163);
#2163=ADVANCED_FACE('',(#2169),#2164,.T.);
#2164=PLANE('',#2165);
#2165=AXIS2_PLACEMENT_3D('',#2166,#2167,#2168);
#2166=CARTESIAN_POINT('',(-1.25,-0.5,0.0));
#2167=DIRECTION('',(0.0,-1.0,0.0));
#2168=DIRECTION('',(0.,0.,1.));
#2169=FACE_OUTER_BOUND('',#2170,.T.);
#2170=EDGE_LOOP('',(#2171,#2181,#2191,#2201,#2211,#2221));
#2174=CARTESIAN_POINT('',(-0.375,-0.5,0.0));
#2173=VERTEX_POINT('',#2174);
#2176=CARTESIAN_POINT('',(-1.25,-0.5,0.0));
#2175=VERTEX_POINT('',#2176);
#2172=EDGE_CURVE('',#2173,#2175,#2177,.T.);
#2177=LINE('',#2174,#2179);
#2179=VECTOR('',#2180,0.874999901);
#2180=DIRECTION('',(-1.0,0.0,0.0));
#2171=ORIENTED_EDGE('',*,*,#2172,.F.);
#2184=CARTESIAN_POINT('',(-0.375,-0.5,0.051));
#2183=VERTEX_POINT('',#2184);
#2182=EDGE_CURVE('',#2183,#2173,#2187,.T.);
#2187=LINE('',#2184,#2189);
#2189=VECTOR('',#2190,0.0508);
#2190=DIRECTION('',(0.0,0.0,-1.0));
#2181=ORIENTED_EDGE('',*,*,#2182,.F.);
#2194=CARTESIAN_POINT('',(-1.199,-0.5,0.051));
#2193=VERTEX_POINT('',#2194);
#2192=EDGE_CURVE('',#2193,#2183,#2197,.T.);
#2197=LINE('',#2194,#2199);
#2199=VECTOR('',#2200,0.824199901);
#2200=DIRECTION('',(1.0,0.0,0.0));
#2191=ORIENTED_EDGE('',*,*,#2192,.F.);
#2204=CARTESIAN_POINT('',(-1.199,-0.5,0.381));
#2203=VERTEX_POINT('',#2204);
#2202=EDGE_CURVE('',#2203,#2193,#2207,.T.);
#2207=LINE('',#2204,#2209);
#2209=VECTOR('',#2210,0.3302);
#2210=DIRECTION('',(0.0,0.0,-1.0));
#2201=ORIENTED_EDGE('',*,*,#2202,.F.);
#2214=CARTESIAN_POINT('',(-1.25,-0.5,0.381));
#2213=VERTEX_POINT('',#2214);
#2212=EDGE_CURVE('',#2213,#2203,#2217,.T.);
#2217=LINE('',#2214,#2219);
#2219=VECTOR('',#2220,0.0508);
#2220=DIRECTION('',(1.0,0.0,0.0));
#2211=ORIENTED_EDGE('',*,*,#2212,.F.);
#2222=EDGE_CURVE('',#2175,#2213,#2227,.T.);
#2227=LINE('',#2176,#2229);
#2229=VECTOR('',#2230,0.381);
#2230=DIRECTION('',(0.0,0.0,1.0));
#2221=ORIENTED_EDGE('',*,*,#2222,.F.);
#2231=STYLED_ITEM('',(#34),#2232);
#2232=ADVANCED_FACE('',(#2238),#2233,.T.);
#2233=PLANE('',#2234);
#2234=AXIS2_PLACEMENT_3D('',#2235,#2236,#2237);
#2235=CARTESIAN_POINT('',(-0.375,0.5,0.0));
#2236=DIRECTION('',(0.0,1.0,0.0));
#2237=DIRECTION('',(0.,0.,1.));
#2238=FACE_OUTER_BOUND('',#2239,.T.);
#2239=EDGE_LOOP('',(#2240,#2250,#2260,#2270,#2280,#2290));
#2243=CARTESIAN_POINT('',(-1.25,0.5,0.0));
#2242=VERTEX_POINT('',#2243);
#2245=CARTESIAN_POINT('',(-0.375,0.5,0.0));
#2244=VERTEX_POINT('',#2245);
#2241=EDGE_CURVE('',#2242,#2244,#2246,.T.);
#2246=LINE('',#2243,#2248);
#2248=VECTOR('',#2249,0.874999901);
#2249=DIRECTION('',(1.0,0.0,0.0));
#2240=ORIENTED_EDGE('',*,*,#2241,.F.);
#2253=CARTESIAN_POINT('',(-1.25,0.5,0.381));
#2252=VERTEX_POINT('',#2253);
#2251=EDGE_CURVE('',#2252,#2242,#2256,.T.);
#2256=LINE('',#2253,#2258);
#2258=VECTOR('',#2259,0.381);
#2259=DIRECTION('',(0.0,0.0,-1.0));
#2250=ORIENTED_EDGE('',*,*,#2251,.F.);
#2263=CARTESIAN_POINT('',(-1.199,0.5,0.381));
#2262=VERTEX_POINT('',#2263);
#2261=EDGE_CURVE('',#2262,#2252,#2266,.T.);
#2266=LINE('',#2263,#2268);
#2268=VECTOR('',#2269,0.0508);
#2269=DIRECTION('',(-1.0,0.0,0.0));
#2260=ORIENTED_EDGE('',*,*,#2261,.F.);
#2273=CARTESIAN_POINT('',(-1.199,0.5,0.051));
#2272=VERTEX_POINT('',#2273);
#2271=EDGE_CURVE('',#2272,#2262,#2276,.T.);
#2276=LINE('',#2273,#2278);
#2278=VECTOR('',#2279,0.3302);
#2279=DIRECTION('',(0.0,0.0,1.0));
#2270=ORIENTED_EDGE('',*,*,#2271,.F.);
#2283=CARTESIAN_POINT('',(-0.375,0.5,0.051));
#2282=VERTEX_POINT('',#2283);
#2281=EDGE_CURVE('',#2282,#2272,#2286,.T.);
#2286=LINE('',#2283,#2288);
#2288=VECTOR('',#2289,0.824199901);
#2289=DIRECTION('',(-1.0,0.0,0.0));
#2280=ORIENTED_EDGE('',*,*,#2281,.F.);
#2291=EDGE_CURVE('',#2244,#2282,#2296,.T.);
#2296=LINE('',#2245,#2298);
#2298=VECTOR('',#2299,0.0508);
#2299=DIRECTION('',(0.0,0.0,1.0));
#2290=ORIENTED_EDGE('',*,*,#2291,.F.);
#2300=STYLED_ITEM('',(#34),#2301);
#2301=ADVANCED_FACE('',(#2307),#2302,.T.);
#2302=PLANE('',#2303);
#2303=AXIS2_PLACEMENT_3D('',#2304,#2305,#2306);
#2304=CARTESIAN_POINT('',(-1.25,-0.5,0.381));
#2305=DIRECTION('',(0.0,0.0,1.0));
#2306=DIRECTION('',(0.,1.,0.));
#2307=FACE_OUTER_BOUND('',#2308,.T.);
#2308=EDGE_LOOP('',(#2309,#2319,#2329,#2339));
#2309=ORIENTED_EDGE('',*,*,#2212,.T.);
#2320=EDGE_CURVE('',#2262,#2203,#2325,.T.);
#2325=LINE('',#2263,#2327);
#2327=VECTOR('',#2328,1.000000032);
#2328=DIRECTION('',(0.0,-1.0,0.0));
#2319=ORIENTED_EDGE('',*,*,#2320,.F.);
#2329=ORIENTED_EDGE('',*,*,#2261,.T.);
#2340=EDGE_CURVE('',#2213,#2252,#2345,.T.);
#2345=LINE('',#2214,#2347);
#2347=VECTOR('',#2348,1.000000032);
#2348=DIRECTION('',(0.0,1.0,0.0));
#2339=ORIENTED_EDGE('',*,*,#2340,.F.);
#2349=STYLED_ITEM('',(#34),#2350);
#2350=ADVANCED_FACE('',(#2356),#2351,.T.);
#2351=PLANE('',#2352);
#2352=AXIS2_PLACEMENT_3D('',#2353,#2354,#2355);
#2353=CARTESIAN_POINT('',(-1.199,-0.5,0.051));
#2354=DIRECTION('',(0.0,0.0,1.0));
#2355=DIRECTION('',(0.,1.,0.));
#2356=FACE_OUTER_BOUND('',#2357,.T.);
#2357=EDGE_LOOP('',(#2358,#2368,#2378,#2388));
#2358=ORIENTED_EDGE('',*,*,#2192,.T.);
#2369=EDGE_CURVE('',#2282,#2183,#2374,.T.);
#2374=LINE('',#2283,#2376);
#2376=VECTOR('',#2377,1.000000032);
#2377=DIRECTION('',(0.0,-1.0,0.0));
#2368=ORIENTED_EDGE('',*,*,#2369,.F.);
#2378=ORIENTED_EDGE('',*,*,#2281,.T.);
#2389=EDGE_CURVE('',#2193,#2272,#2394,.T.);
#2394=LINE('',#2194,#2396);
#2396=VECTOR('',#2397,1.000000032);
#2397=DIRECTION('',(0.0,1.0,0.0));
#2388=ORIENTED_EDGE('',*,*,#2389,.F.);
#2398=STYLED_ITEM('',(#34),#2399);
#2399=ADVANCED_FACE('',(#2405),#2400,.T.);
#2400=PLANE('',#2401);
#2401=AXIS2_PLACEMENT_3D('',#2402,#2403,#2404);
#2402=CARTESIAN_POINT('',(-1.25,0.5,0.0));
#2403=DIRECTION('',(-1.0,0.0,0.0));
#2404=DIRECTION('',(0.,0.,1.));
#2405=FACE_OUTER_BOUND('',#2406,.T.);
#2406=EDGE_LOOP('',(#2407,#2417,#2427,#2437));
#2408=EDGE_CURVE('',#2175,#2242,#2413,.T.);
#2413=LINE('',#2176,#2415);
#2415=VECTOR('',#2416,1.000000032);
#2416=DIRECTION('',(0.0,1.0,0.0));
#2407=ORIENTED_EDGE('',*,*,#2408,.F.);
#2417=ORIENTED_EDGE('',*,*,#2222,.T.);
#2427=ORIENTED_EDGE('',*,*,#2340,.T.);
#2437=ORIENTED_EDGE('',*,*,#2251,.T.);
#2447=STYLED_ITEM('',(#34),#2448);
#2448=ADVANCED_FACE('',(#2454),#2449,.T.);
#2449=PLANE('',#2450);
#2450=AXIS2_PLACEMENT_3D('',#2451,#2452,#2453);
#2451=CARTESIAN_POINT('',(-0.375,-0.5,0.0));
#2452=DIRECTION('',(1.0,0.0,0.0));
#2453=DIRECTION('',(0.,0.,1.));
#2454=FACE_OUTER_BOUND('',#2455,.T.);
#2455=EDGE_LOOP('',(#2456,#2466,#2476,#2486));
#2457=EDGE_CURVE('',#2244,#2173,#2462,.T.);
#2462=LINE('',#2245,#2464);
#2464=VECTOR('',#2465,1.000000032);
#2465=DIRECTION('',(0.0,-1.0,0.0));
#2456=ORIENTED_EDGE('',*,*,#2457,.F.);
#2466=ORIENTED_EDGE('',*,*,#2291,.T.);
#2476=ORIENTED_EDGE('',*,*,#2369,.T.);
#2486=ORIENTED_EDGE('',*,*,#2182,.T.);
#2496=STYLED_ITEM('',(#34),#2497);
#2497=ADVANCED_FACE('',(#2503),#2498,.T.);
#2498=PLANE('',#2499);
#2499=AXIS2_PLACEMENT_3D('',#2500,#2501,#2502);
#2500=CARTESIAN_POINT('',(-1.199,-0.5,0.051));
#2501=DIRECTION('',(1.0,0.0,0.0));
#2502=DIRECTION('',(0.,0.,1.));
#2503=FACE_OUTER_BOUND('',#2504,.T.);
#2504=EDGE_LOOP('',(#2505,#2515,#2525,#2535));
#2505=ORIENTED_EDGE('',*,*,#2389,.T.);
#2515=ORIENTED_EDGE('',*,*,#2271,.T.);
#2525=ORIENTED_EDGE('',*,*,#2320,.T.);
#2535=ORIENTED_EDGE('',*,*,#2202,.T.);
#2545=STYLED_ITEM('',(#34),#2546);
#2546=ADVANCED_FACE('',(#2552),#2547,.T.);
#2547=PLANE('',#2548);
#2548=AXIS2_PLACEMENT_3D('',#2549,#2550,#2551);
#2549=CARTESIAN_POINT('',(-1.25,0.5,0.0));
#2550=DIRECTION('',(0.0,0.0,-1.0));
#2551=DIRECTION('',(0.,1.,0.));
#2552=FACE_OUTER_BOUND('',#2553,.T.);
#2553=EDGE_LOOP('',(#2554,#2564,#2574,#2584));
#2554=ORIENTED_EDGE('',*,*,#2241,.T.);
#2564=ORIENTED_EDGE('',*,*,#2457,.T.);
#2574=ORIENTED_EDGE('',*,*,#2172,.T.);
#2584=ORIENTED_EDGE('',*,*,#2408,.T.);
#2594=MANIFOLD_SOLID_BREP($,#2595);
#2595=CLOSED_SHELL('',(#2597,#2666,#2735,#2784,#2833,#2882,#2931,#2980));
#2596=STYLED_ITEM('',(#34),#2597);
#2597=ADVANCED_FACE('',(#2603),#2598,.T.);
#2598=PLANE('',#2599);
#2599=AXIS2_PLACEMENT_3D('',#2600,#2601,#2602);
#2600=CARTESIAN_POINT('',(-1.25,-1.55,0.0));
#2601=DIRECTION('',(0.0,-1.0,0.0));
#2602=DIRECTION('',(0.,0.,1.));
#2603=FACE_OUTER_BOUND('',#2604,.T.);
#2604=EDGE_LOOP('',(#2605,#2615,#2625,#2635,#2645,#2655));
#2608=CARTESIAN_POINT('',(-0.375,-1.55,0.0));
#2607=VERTEX_POINT('',#2608);
#2610=CARTESIAN_POINT('',(-1.25,-1.55,0.0));
#2609=VERTEX_POINT('',#2610);
#2606=EDGE_CURVE('',#2607,#2609,#2611,.T.);
#2611=LINE('',#2608,#2613);
#2613=VECTOR('',#2614,0.874999901);
#2614=DIRECTION('',(-1.0,0.0,0.0));
#2605=ORIENTED_EDGE('',*,*,#2606,.F.);
#2618=CARTESIAN_POINT('',(-0.375,-1.55,0.051));
#2617=VERTEX_POINT('',#2618);
#2616=EDGE_CURVE('',#2617,#2607,#2621,.T.);
#2621=LINE('',#2618,#2623);
#2623=VECTOR('',#2624,0.0508);
#2624=DIRECTION('',(0.0,0.0,-1.0));
#2615=ORIENTED_EDGE('',*,*,#2616,.F.);
#2628=CARTESIAN_POINT('',(-1.199,-1.55,0.051));
#2627=VERTEX_POINT('',#2628);
#2626=EDGE_CURVE('',#2627,#2617,#2631,.T.);
#2631=LINE('',#2628,#2633);
#2633=VECTOR('',#2634,0.824199901);
#2634=DIRECTION('',(1.0,0.0,0.0));
#2625=ORIENTED_EDGE('',*,*,#2626,.F.);
#2638=CARTESIAN_POINT('',(-1.199,-1.55,0.381));
#2637=VERTEX_POINT('',#2638);
#2636=EDGE_CURVE('',#2637,#2627,#2641,.T.);
#2641=LINE('',#2638,#2643);
#2643=VECTOR('',#2644,0.3302);
#2644=DIRECTION('',(0.0,0.0,-1.0));
#2635=ORIENTED_EDGE('',*,*,#2636,.F.);
#2648=CARTESIAN_POINT('',(-1.25,-1.55,0.381));
#2647=VERTEX_POINT('',#2648);
#2646=EDGE_CURVE('',#2647,#2637,#2651,.T.);
#2651=LINE('',#2648,#2653);
#2653=VECTOR('',#2654,0.0508);
#2654=DIRECTION('',(1.0,0.0,0.0));
#2645=ORIENTED_EDGE('',*,*,#2646,.F.);
#2656=EDGE_CURVE('',#2609,#2647,#2661,.T.);
#2661=LINE('',#2610,#2663);
#2663=VECTOR('',#2664,0.381);
#2664=DIRECTION('',(0.0,0.0,1.0));
#2655=ORIENTED_EDGE('',*,*,#2656,.F.);
#2665=STYLED_ITEM('',(#34),#2666);
#2666=ADVANCED_FACE('',(#2672),#2667,.T.);
#2667=PLANE('',#2668);
#2668=AXIS2_PLACEMENT_3D('',#2669,#2670,#2671);
#2669=CARTESIAN_POINT('',(-0.375,-0.55,0.0));
#2670=DIRECTION('',(0.0,1.0,0.0));
#2671=DIRECTION('',(0.,0.,1.));
#2672=FACE_OUTER_BOUND('',#2673,.T.);
#2673=EDGE_LOOP('',(#2674,#2684,#2694,#2704,#2714,#2724));
#2677=CARTESIAN_POINT('',(-1.25,-0.55,0.0));
#2676=VERTEX_POINT('',#2677);
#2679=CARTESIAN_POINT('',(-0.375,-0.55,0.0));
#2678=VERTEX_POINT('',#2679);
#2675=EDGE_CURVE('',#2676,#2678,#2680,.T.);
#2680=LINE('',#2677,#2682);
#2682=VECTOR('',#2683,0.874999901);
#2683=DIRECTION('',(1.0,0.0,0.0));
#2674=ORIENTED_EDGE('',*,*,#2675,.F.);
#2687=CARTESIAN_POINT('',(-1.25,-0.55,0.381));
#2686=VERTEX_POINT('',#2687);
#2685=EDGE_CURVE('',#2686,#2676,#2690,.T.);
#2690=LINE('',#2687,#2692);
#2692=VECTOR('',#2693,0.381);
#2693=DIRECTION('',(0.0,0.0,-1.0));
#2684=ORIENTED_EDGE('',*,*,#2685,.F.);
#2697=CARTESIAN_POINT('',(-1.199,-0.55,0.381));
#2696=VERTEX_POINT('',#2697);
#2695=EDGE_CURVE('',#2696,#2686,#2700,.T.);
#2700=LINE('',#2697,#2702);
#2702=VECTOR('',#2703,0.0508);
#2703=DIRECTION('',(-1.0,0.0,0.0));
#2694=ORIENTED_EDGE('',*,*,#2695,.F.);
#2707=CARTESIAN_POINT('',(-1.199,-0.55,0.051));
#2706=VERTEX_POINT('',#2707);
#2705=EDGE_CURVE('',#2706,#2696,#2710,.T.);
#2710=LINE('',#2707,#2712);
#2712=VECTOR('',#2713,0.3302);
#2713=DIRECTION('',(0.0,0.0,1.0));
#2704=ORIENTED_EDGE('',*,*,#2705,.F.);
#2717=CARTESIAN_POINT('',(-0.375,-0.55,0.051));
#2716=VERTEX_POINT('',#2717);
#2715=EDGE_CURVE('',#2716,#2706,#2720,.T.);
#2720=LINE('',#2717,#2722);
#2722=VECTOR('',#2723,0.824199901);
#2723=DIRECTION('',(-1.0,0.0,0.0));
#2714=ORIENTED_EDGE('',*,*,#2715,.F.);
#2725=EDGE_CURVE('',#2678,#2716,#2730,.T.);
#2730=LINE('',#2679,#2732);
#2732=VECTOR('',#2733,0.0508);
#2733=DIRECTION('',(0.0,0.0,1.0));
#2724=ORIENTED_EDGE('',*,*,#2725,.F.);
#2734=STYLED_ITEM('',(#34),#2735);
#2735=ADVANCED_FACE('',(#2741),#2736,.T.);
#2736=PLANE('',#2737);
#2737=AXIS2_PLACEMENT_3D('',#2738,#2739,#2740);
#2738=CARTESIAN_POINT('',(-1.25,-1.55,0.381));
#2739=DIRECTION('',(0.0,0.0,1.0));
#2740=DIRECTION('',(0.,1.,0.));
#2741=FACE_OUTER_BOUND('',#2742,.T.);
#2742=EDGE_LOOP('',(#2743,#2753,#2763,#2773));
#2743=ORIENTED_EDGE('',*,*,#2646,.T.);
#2754=EDGE_CURVE('',#2696,#2637,#2759,.T.);
#2759=LINE('',#2697,#2761);
#2761=VECTOR('',#2762,1.000000032);
#2762=DIRECTION('',(0.0,-1.0,0.0));
#2753=ORIENTED_EDGE('',*,*,#2754,.F.);
#2763=ORIENTED_EDGE('',*,*,#2695,.T.);
#2774=EDGE_CURVE('',#2647,#2686,#2779,.T.);
#2779=LINE('',#2648,#2781);
#2781=VECTOR('',#2782,1.000000032);
#2782=DIRECTION('',(0.0,1.0,0.0));
#2773=ORIENTED_EDGE('',*,*,#2774,.F.);
#2783=STYLED_ITEM('',(#34),#2784);
#2784=ADVANCED_FACE('',(#2790),#2785,.T.);
#2785=PLANE('',#2786);
#2786=AXIS2_PLACEMENT_3D('',#2787,#2788,#2789);
#2787=CARTESIAN_POINT('',(-1.199,-1.55,0.051));
#2788=DIRECTION('',(0.0,0.0,1.0));
#2789=DIRECTION('',(0.,1.,0.));
#2790=FACE_OUTER_BOUND('',#2791,.T.);
#2791=EDGE_LOOP('',(#2792,#2802,#2812,#2822));
#2792=ORIENTED_EDGE('',*,*,#2626,.T.);
#2803=EDGE_CURVE('',#2716,#2617,#2808,.T.);
#2808=LINE('',#2717,#2810);
#2810=VECTOR('',#2811,1.000000032);
#2811=DIRECTION('',(0.0,-1.0,0.0));
#2802=ORIENTED_EDGE('',*,*,#2803,.F.);
#2812=ORIENTED_EDGE('',*,*,#2715,.T.);
#2823=EDGE_CURVE('',#2627,#2706,#2828,.T.);
#2828=LINE('',#2628,#2830);
#2830=VECTOR('',#2831,1.000000032);
#2831=DIRECTION('',(0.0,1.0,0.0));
#2822=ORIENTED_EDGE('',*,*,#2823,.F.);
#2832=STYLED_ITEM('',(#34),#2833);
#2833=ADVANCED_FACE('',(#2839),#2834,.T.);
#2834=PLANE('',#2835);
#2835=AXIS2_PLACEMENT_3D('',#2836,#2837,#2838);
#2836=CARTESIAN_POINT('',(-1.25,-0.55,0.0));
#2837=DIRECTION('',(-1.0,0.0,0.0));
#2838=DIRECTION('',(0.,0.,1.));
#2839=FACE_OUTER_BOUND('',#2840,.T.);
#2840=EDGE_LOOP('',(#2841,#2851,#2861,#2871));
#2842=EDGE_CURVE('',#2609,#2676,#2847,.T.);
#2847=LINE('',#2610,#2849);
#2849=VECTOR('',#2850,1.000000032);
#2850=DIRECTION('',(0.0,1.0,0.0));
#2841=ORIENTED_EDGE('',*,*,#2842,.F.);
#2851=ORIENTED_EDGE('',*,*,#2656,.T.);
#2861=ORIENTED_EDGE('',*,*,#2774,.T.);
#2871=ORIENTED_EDGE('',*,*,#2685,.T.);
#2881=STYLED_ITEM('',(#34),#2882);
#2882=ADVANCED_FACE('',(#2888),#2883,.T.);
#2883=PLANE('',#2884);
#2884=AXIS2_PLACEMENT_3D('',#2885,#2886,#2887);
#2885=CARTESIAN_POINT('',(-0.375,-1.55,0.0));
#2886=DIRECTION('',(1.0,0.0,0.0));
#2887=DIRECTION('',(0.,0.,1.));
#2888=FACE_OUTER_BOUND('',#2889,.T.);
#2889=EDGE_LOOP('',(#2890,#2900,#2910,#2920));
#2891=EDGE_CURVE('',#2678,#2607,#2896,.T.);
#2896=LINE('',#2679,#2898);
#2898=VECTOR('',#2899,1.000000032);
#2899=DIRECTION('',(0.0,-1.0,0.0));
#2890=ORIENTED_EDGE('',*,*,#2891,.F.);
#2900=ORIENTED_EDGE('',*,*,#2725,.T.);
#2910=ORIENTED_EDGE('',*,*,#2803,.T.);
#2920=ORIENTED_EDGE('',*,*,#2616,.T.);
#2930=STYLED_ITEM('',(#34),#2931);
#2931=ADVANCED_FACE('',(#2937),#2932,.T.);
#2932=PLANE('',#2933);
#2933=AXIS2_PLACEMENT_3D('',#2934,#2935,#2936);
#2934=CARTESIAN_POINT('',(-1.199,-1.55,0.051));
#2935=DIRECTION('',(1.0,0.0,0.0));
#2936=DIRECTION('',(0.,0.,1.));
#2937=FACE_OUTER_BOUND('',#2938,.T.);
#2938=EDGE_LOOP('',(#2939,#2949,#2959,#2969));
#2939=ORIENTED_EDGE('',*,*,#2823,.T.);
#2949=ORIENTED_EDGE('',*,*,#2705,.T.);
#2959=ORIENTED_EDGE('',*,*,#2754,.T.);
#2969=ORIENTED_EDGE('',*,*,#2636,.T.);
#2979=STYLED_ITEM('',(#34),#2980);
#2980=ADVANCED_FACE('',(#2986),#2981,.T.);
#2981=PLANE('',#2982);
#2982=AXIS2_PLACEMENT_3D('',#2983,#2984,#2985);
#2983=CARTESIAN_POINT('',(-1.25,-0.55,0.0));
#2984=DIRECTION('',(0.0,0.0,-1.0));
#2985=DIRECTION('',(0.,1.,0.));
#2986=FACE_OUTER_BOUND('',#2987,.T.);
#2987=EDGE_LOOP('',(#2988,#2998,#3008,#3018));
#2988=ORIENTED_EDGE('',*,*,#2675,.T.);
#2998=ORIENTED_EDGE('',*,*,#2891,.T.);
#3008=ORIENTED_EDGE('',*,*,#2606,.T.);
#3018=ORIENTED_EDGE('',*,*,#2842,.T.);
ENDSEC;
END-ISO-10303-21;
